*** Life<ConwayCell> 10x10 ***

Generation = 0, Population = 100.
**********
**********
**********
**********
**********
**********
**********
**********
**********
**********

Generation = 1, Population = 4.
*........*
..........
..........
..........
..........
..........
..........
..........
..........
*........*

*** Life<ConwayCell> 10x10 ***

Generation = 0, Population = 99.
**********
***.******
**********
**********
**********
**********
**********
**********
**********
**********

Generation = 1, Population = 4.
*........*
..........
..........
..........
..........
..........
..........
..........
..........
*........*

*** Life<ConwayCell> 10x10 ***

Generation = 0, Population = 98.
.*********
***.******
**********
**********
**********
**********
**********
**********
**********
**********

Generation = 1, Population = 4.
*........*
..........
..........
..........
..........
..........
..........
..........
..........
*........*

*** Life<ConwayCell> 10x10 ***

Generation = 0, Population = 97.
..********
***.******
**********
**********
**********
**********
**********
**********
**********
**********

Generation = 1, Population = 5.
..*......*
*.........
..........
..........
..........
..........
..........
..........
..........
*........*

*** Life<ConwayCell> 10x10 ***

Generation = 0, Population = 96.
..*****.**
***.******
**********
**********
**********
**********
**********
**********
**********
**********

Generation = 1, Population = 5.
..*......*
*.........
..........
..........
..........
..........
..........
..........
..........
*........*

*** Life<ConwayCell> 10x10 ***

Generation = 0, Population = 95.
....******
***.******
**********
**********
**********
**********
**********
**********
**********
**********

Generation = 1, Population = 7.
.*.**....*
*.........
..........
..........
..........
..........
..........
..........
..........
*........*

*** Life<ConwayCell> 10x10 ***

Generation = 0, Population = 90.
.........*
***.******
**********
**********
**********
**********
**********
**********
**********
**********

Generation = 1, Population = 8.
.*...***.*
*.........
..........
..........
..........
..........
..........
..........
..........
*........*

*** Life<ConwayCell> 10x10 ***

Generation = 0, Population = 94.
.....*****
***.******
**********
**********
**********
**********
**********
**********
**********
**********

Generation = 1, Population = 6.
.*..*....*
*.........
..........
..........
..........
..........
..........
..........
..........
*........*

*** Life<ConwayCell> 10x10 ***

Generation = 0, Population = 85.
..........
.....*****
**********
**********
**********
**********
**********
**********
**********
**********

Generation = 1, Population = 10.
......***.
.***.....*
*.........
..........
..........
..........
..........
..........
..........
*........*

*** Life<ConwayCell> 10x10 ***

Generation = 0, Population = 96.
..********
***.******
**********
**********
**********
**********
**********
**********
**********
*********.

Generation = 1, Population = 5.
..*......*
*.........
..........
..........
..........
..........
..........
..........
..........
*........*

*** Life<ConwayCell> 10x10 ***

Generation = 0, Population = 6.
******....
..........
..........
..........
..........
..........
..........
..........
..........
..........

Generation = 1, Population = 8.
.****.....
.****.....
..........
..........
..........
..........
..........
..........
..........
..........
