*** Life<Cell> 17x14 ***

Generation = 0, Population = 30.
-----0---0-0--
--------0-----
---0----------
--0----0------
-------------0
0-------0-----
--------------
0-0---0--00---
-----------0--
--00-------0--
0------------0
--0-----------
--0-0--------0
------------0-
-----0----0-0-
-------0------
--------------

Generation = 17, Population = 94.
**0**0-..*****
****11..*.1...
-*-.1....*1*.-
-.-**.**..1...
.0.11..*...*1.
-....1***..-..
.-.....1---*.*
..*..--*..*1..
.-1*.1*.-...*.
..**..****.*.*
..1..-...*...*
....**....1*.-
...***..-.....
-*****11*--..*
.***.-.*.****.
.*....1..*-...
..1**.*.*.-...

Generation = 34, Population = 28.
..............
..**--........
-.**.........-
..............
......***.....
......*.**....
..............
..........*-..
.-..........*.
............*.
........*...*.
........*..*..
........**....
......-.*.....
....**.**.....
......*.*.....
.......**.....

Generation = 51, Population = 38.
..............
......**......
-....**.*....-
.......***....
........***...
.....**.**....
.....****.....
......**......
.-............
...........**.
........*****.
........**....
........*.....
.......***....
.......***....
.......*......
..............

Generation = 68, Population = 11.
..............
..........*...
-.......***..-
......**.**...
......***.....
..............
..............
..............
.-............
..............
..............
..............
..............
..............
..............
..............
..............

Generation = 85, Population = 14.
.........*....
........*.*...
-......**.....
.......**.....
.......***....
........*.*...
.........**...
..............
.-............
..............
..............
..............
..............
..............
..............
..............
..............

*** Life<Cell> 19x10 ***

Generation = 0, Population = 22.
----------
---0--0-0-
----------
----------
--0---00--
----------
-0--0-----
----------
--0------0
----------
----------
0--------0
----------
0-------0-
00--------
------0---
------0---
----0-0---
------0-0-

Generation = 6, Population = 88.
01*-011010
00-..-0-10
1----1*---
-10---.-1-
*.--*.*---
0-1.1-*-.1
0*..10-1--
------00-0
0.11-0-01-
*1--11-1-*
.-*--0---1
-1.-00*.*1
-*1--0-0-0
-0.0*-.-.1
1*.-1-.0*0
--11-**10-
---1.-*---
-----0-110
*0--.-.01-

Generation = 12, Population = 89.
0*.-**.-.1
.-**..**11
.*-0**.*.*
...1...-.*
.***.**-*1
--*....-.*
*.*.**0..*
--10.-.---
.***-**..*
..*0..*..*
.0***-.-1.
...0*-..*.
**.-.-0*.0
...1*.*..-
**.*.**0.0
*1...***0-
-*-....**1
*11*.-...*
***-.1..*-

Generation = 18, Population = 68.
-*....*1*.
*.....***.
***.....*.
..*-..***.
..*..*.-..
-.**...0.*
**...*.*.*
*-.-.1..-*
*....*....
*..1..*...
.*.****-..
*..0.*....
*.*...-***
...-.*.*.*
.....*.*.0
.....*..*1
1*..**.**-
**...0*...
..*..-...-

Generation = 24, Population = 44.
-...**.**.
....*....*
.........*
..*.**.*.*
......**..
....**.**.
....***...
...-......
......*.**
......*.*.
......*.*.
..........
..........
..........
........*-
.....****-
-...***...
**.*.-..**
.*.*.-...1

Generation = 30, Population = 38.
-...*...*.
....*....*
....*.*.*.
..........
....**....
....**....
....*.*.**
...-****.*
.....*...*
........*.
..........
..........
..........
.....***..
.........*
...*.**.**
...*..*...
....*.*...
....*.*...

Generation = 36, Population = 37.
-.......*.
........*.
........*.
...**.*...
...******.
..****..*.
.**...***.
...1..**..
.....**...
..........
..........
..........
..........
..........
..........
..**..*...
.*..*..**.
..**...*..
..........

Generation = 42, Population = 26.
-.........
..........
..........
..........
..........
..........
......**..
...1.***..
....*...*.
.....***..
.....***..
..........
..........
..........
..*.*.....
..*.*..**.
.*......*.
..*....*..
..*....*..

Generation = 48, Population = 24.
-.........
..........
..........
..........
..........
..........
..........
...-......
..........
.....*..**
....*.....
....*.***.
.....***..
......*...
..*.......
.***......
**.**.....
.***......
..*.......

Generation = 54, Population = 24.
-.........
..........
..........
..........
..........
..........
..........
...-......
..........
.....****.
.....***.*
.....*...*
.......**.
..........
..........
**....*...
....***...
*..*.*....
.*.**.....

Generation = 60, Population = 4.
-.........
..........
..........
..........
..........
..........
..........
...-......
..........
....**....
....**....
..........
..........
..........
..........
..........
..........
..........
..........

Generation = 66, Population = 4.
-.........
..........
..........
..........
..........
..........
..........
...-......
..........
....**....
....**....
..........
..........
..........
..........
..........
..........
..........
..........

Generation = 72, Population = 4.
-.........
..........
..........
..........
..........
..........
..........
...-......
..........
....**....
....**....
..........
..........
..........
..........
..........
..........
..........
..........

Generation = 78, Population = 4.
-.........
..........
..........
..........
..........
..........
..........
...-......
..........
....**....
....**....
..........
..........
..........
..........
..........
..........
..........
..........

*** Life<Cell> 3x1 ***

Generation = 0, Population = 2.
0
-
0

Generation = 4, Population = 0.
-
-
-

Generation = 8, Population = 0.
-
-
-

Generation = 12, Population = 0.
-
-
-

Generation = 16, Population = 0.
-
-
-

Generation = 20, Population = 0.
-
-
-

Generation = 24, Population = 0.
-
-
-

Generation = 28, Population = 0.
-
-
-

Generation = 32, Population = 0.
-
-
-

Generation = 36, Population = 0.
-
-
-

Generation = 40, Population = 0.
-
-
-

Generation = 44, Population = 0.
-
-
-

Generation = 48, Population = 0.
-
-
-

Generation = 52, Population = 0.
-
-
-

Generation = 56, Population = 0.
-
-
-

Generation = 60, Population = 0.
-
-
-

Generation = 64, Population = 0.
-
-
-

Generation = 68, Population = 0.
-
-
-

Generation = 72, Population = 0.
-
-
-

Generation = 76, Population = 0.
-
-
-

Generation = 80, Population = 0.
-
-
-

Generation = 84, Population = 0.
-
-
-

Generation = 88, Population = 0.
-
-
-

Generation = 92, Population = 0.
-
-
-

Generation = 96, Population = 0.
-
-
-

*** Life<Cell> 15x1 ***

Generation = 0, Population = 10.
-
0
-
-
0
0
0
-
0
0
-
0
0
0
0

Generation = 2, Population = 6.
-
-
1
-
*
-
-
-
*
*
-
-
0
0
-

Generation = 4, Population = 4.
0
-
1
-
.
-
-
-
.
.
1
-
-
-
*

Generation = 6, Population = 2.
-
-
1
-
.
-
-
-
.
.
1
-
-
-
.

Generation = 8, Population = 3.
0
-
-
-
.
-
-
-
.
.
1
-
1
-
.

Generation = 10, Population = 3.
0
-
1
-
.
-
-
-
.
.
-
-
1
-
.

Generation = 12, Population = 2.
-
-
1
-
.
-
-
-
.
.
1
-
-
-
.

Generation = 14, Population = 3.
0
-
-
-
.
-
-
-
.
.
1
-
1
-
.

Generation = 16, Population = 3.
0
-
1
-
.
-
-
-
.
.
-
-
1
-
.

Generation = 18, Population = 2.
-
-
1
-
.
-
-
-
.
.
1
-
-
-
.

Generation = 20, Population = 3.
0
-
-
-
.
-
-
-
.
.
1
-
1
-
.

Generation = 22, Population = 3.
0
-
1
-
.
-
-
-
.
.
-
-
1
-
.

Generation = 24, Population = 2.
-
-
1
-
.
-
-
-
.
.
1
-
-
-
.

Generation = 26, Population = 3.
0
-
-
-
.
-
-
-
.
.
1
-
1
-
.

Generation = 28, Population = 3.
0
-
1
-
.
-
-
-
.
.
-
-
1
-
.

*** Life<Cell> 9x17 ***

Generation = 0, Population = 35.
-0--------------0
---0-----0-------
------000----0---
0---------0----0-
---0-0-------00--
-0---------0-0---
---0----0-0--0---
--0-0-00----0----
--0-00-0-000----0

*** Life<Cell> 10x14 ***

Generation = 0, Population = 70.
-000---0000-0-
-0--00--00--0-
00---0---00--0
0-0-0---0-0000
-0------00-0-0
--0--00-0000-0
-00000--0---0-
--0000---00--0
---00-00000---
--00-000--0-00

Generation = 48, Population = 13.
..........***.
...**.....*..*
...*.*.....*.*
....*.......*.
..............
..............
........-.....
..........-...
..............
..............

*** Life<Cell> 19x3 ***

Generation = 0, Population = 3.
---
---
---
---
---
---
---
-0-
--0
---
---
---
--0
---
---
---
---
---
---

Generation = 22, Population = 10.
0-0
-0-
0--
---
--0
-0-
---
---
---
---
---
---
--0
---
0-0
---
---
---
0--

*** Life<Cell> 17x12 ***

Generation = 0, Population = 17.
------------
0-----------
----------0-
------------
-----00-----
------------
0---------0-
-----------0
-0----------
------------
------------
--------0---
---0-------0
0----0-----0
--0-------0-
------0-----
------------

Generation = 1, Population = 54.
0-----------
-0--------0-
0--------0-0
-----00---0-
----0110----
0----00---0-
-0-------0--
00----------
0-0--------0
-0----------
--------0---
---0---0-0-0
0-0-00--0-01
-0000-0----1
00-0-00--0--
--0--0-0--0-
------0-----

*** Life<Cell> 10x8 ***

Generation = 0, Population = 27.
0-0-----
-----000
-00---00
0-00---0
--0-----
--------
--0-0-0-
-000-0-0
---0-00-
0---0---

*** Life<Cell> 7x7 ***

Generation = 0, Population = 32.
0--0-00
-00000-
0-----0
0--0-0-
0000000
0000-00
0-0-000

Generation = 9, Population = 19.
-*-.**.
****.--
.*.-.-1
-.-...1
-**..-1
*...-..
-***.*1

Generation = 18, Population = 7.
..-....
..*...-
.**-...
-**....
**.....
.......
.......

Generation = 27, Population = 8.
***....
*..*..-
.***...
.......
.......
.......
.......

Generation = 36, Population = 15.
....**.
...*..-
*..*...
*.*...*
*....*.
*...*..
.***...

*** Life<Cell> 16x15 ***

Generation = 0, Population = 47.
-----0-0-------
-----0---0-0---
----0------0---
--0---0--------
----------0----
0--------0000--
-0---0------0--
----0----0-0---
-----------0---
0------0----0--
---------0---00
-00-0-0--000---
---00-------0--
0--------00--0-
------0-0------
--0-0----0-----

*** Life<Cell> 8x15 ***

Generation = 0, Population = 20.
-0------0------
-----------0---
--------0-000--
---------------
--00-----------
0--0-----0---0-
--0--0-00------
-----0----0--0-

*** Life<Cell> 10x3 ***

Generation = 0, Population = 19.
-0-
--0
00-
0-0
000
000
-00
-0-
00-
-00

Generation = 44, Population = 5.
...
...
...
-..
.*.
*.*
**.
...
...
...

Generation = 88, Population = 5.
...
...
...
-..
.*.
*.*
**.
...
...
...

*** Life<Cell> 4x3 ***

Generation = 0, Population = 8.
000
-0-
000
--0

Generation = 1, Population = 9.
111
0-0
11-
0-1

Generation = 2, Population = 6.
---
--1
**0
10-

Generation = 3, Population = 4.
--1
0-*
*.-
---

Generation = 4, Population = 7.
11*
1-.
.*0
1--

Generation = 5, Population = 6.
--.
*0.
**1
--1

Generation = 6, Population = 7.
11.
*-*
*.-
1-*

Generation = 7, Population = 5.
-*.
*0.
*.-
*-.

Generation = 8, Population = 4.
-*.
*-.
*.-
.0.

Generation = 9, Population = 3.
-..
*-.
**-
.-.

Generation = 10, Population = 6.
1..
*-.
**1
.0.

Generation = 11, Population = 7.
*..
*-.
*.*
*1*

Generation = 12, Population = 6.
...
*0.
*.*
*-*

Generation = 13, Population = 4.
...
*1.
*.*
.-.

Generation = 14, Population = 3.
...
**.
*..
.-.

Generation = 15, Population = 4.
...
**.
**.
.-.

Generation = 16, Population = 5.
...
**.
**.
.1.

Generation = 17, Population = 5.
...
**.
..*
**.

Generation = 18, Population = 3.
...
.*.
..*
.*.

Generation = 19, Population = 2.
...
...
.**
...

Generation = 20, Population = 0.
...
...
...
...

Generation = 21, Population = 0.
...
...
...
...

Generation = 22, Population = 0.
...
...
...
...

Generation = 23, Population = 0.
...
...
...
...

Generation = 24, Population = 0.
...
...
...
...

Generation = 25, Population = 0.
...
...
...
...

Generation = 26, Population = 0.
...
...
...
...

Generation = 27, Population = 0.
...
...
...
...

Generation = 28, Population = 0.
...
...
...
...

Generation = 29, Population = 0.
...
...
...
...

Generation = 30, Population = 0.
...
...
...
...

Generation = 31, Population = 0.
...
...
...
...

Generation = 32, Population = 0.
...
...
...
...

Generation = 33, Population = 0.
...
...
...
...

Generation = 34, Population = 0.
...
...
...
...

Generation = 35, Population = 0.
...
...
...
...

Generation = 36, Population = 0.
...
...
...
...

Generation = 37, Population = 0.
...
...
...
...

Generation = 38, Population = 0.
...
...
...
...

Generation = 39, Population = 0.
...
...
...
...

Generation = 40, Population = 0.
...
...
...
...

Generation = 41, Population = 0.
...
...
...
...

Generation = 42, Population = 0.
...
...
...
...

Generation = 43, Population = 0.
...
...
...
...

Generation = 44, Population = 0.
...
...
...
...

Generation = 45, Population = 0.
...
...
...
...

Generation = 46, Population = 0.
...
...
...
...

Generation = 47, Population = 0.
...
...
...
...

Generation = 48, Population = 0.
...
...
...
...

Generation = 49, Population = 0.
...
...
...
...

Generation = 50, Population = 0.
...
...
...
...

Generation = 51, Population = 0.
...
...
...
...

Generation = 52, Population = 0.
...
...
...
...

Generation = 53, Population = 0.
...
...
...
...

Generation = 54, Population = 0.
...
...
...
...

Generation = 55, Population = 0.
...
...
...
...

Generation = 56, Population = 0.
...
...
...
...

Generation = 57, Population = 0.
...
...
...
...

Generation = 58, Population = 0.
...
...
...
...

Generation = 59, Population = 0.
...
...
...
...

Generation = 60, Population = 0.
...
...
...
...

Generation = 61, Population = 0.
...
...
...
...

Generation = 62, Population = 0.
...
...
...
...

Generation = 63, Population = 0.
...
...
...
...

Generation = 64, Population = 0.
...
...
...
...

Generation = 65, Population = 0.
...
...
...
...

Generation = 66, Population = 0.
...
...
...
...

Generation = 67, Population = 0.
...
...
...
...

Generation = 68, Population = 0.
...
...
...
...

Generation = 69, Population = 0.
...
...
...
...

Generation = 70, Population = 0.
...
...
...
...

Generation = 71, Population = 0.
...
...
...
...

Generation = 72, Population = 0.
...
...
...
...

Generation = 73, Population = 0.
...
...
...
...

*** Life<Cell> 13x9 ***

Generation = 0, Population = 59.
0--000-0-
0-0--00-0
0-0000-00
-000---00
-----00-0
-0-000-0-
-0---00--
0000-----
0----00--
0-000-000
-----0---
0-0-----0
00-000000

Generation = 17, Population = 38.
..-.*..*-
*1.*-...*
**.*.*..*
0.***..**
.........
..-......
..-......
1....*...
**.**.**.
*.....**.
*.*.*...*
*.....*-.
.*.***.-.

*** Life<Cell> 16x16 ***

Generation = 0, Population = 36.
----------------
000-------------
--0------0------
---0----------0-
------0--00-----
-0-----------0--
0-0------00-----
0------0--------
----------------
----000---------
------00-----0--
-------00-------
-0--0---0-------
-------0---0----
---------000----
0------0--------

Generation = 21, Population = 70.
..**.*.1...1-*..
.*.....*.-.*....
.-*.*-..1.......
.**.****...-1.*.
...**.......*...
.-*.*.1*-...-...
.***..*.*...***.
.....-....*.***-
..-.-**...*.....
.*...-1**-......
..***-..**......
....*.........*.
.....*....-.0*.-
...**.**....**..
...*..*......**.
...***.*..-.....

Generation = 42, Population = 65.
.*****.....**...
.**..*....**.**.
.....-...*...**.
.*........****..
*..........*....
...*..*.........
*...*****.......
..*.*.....*.....
.**.*.*.*.*.....
...*.......*....
...*.....*.*....
..**........*...
..*.........-**-
..*...*.*....**.
....***......**.
....*....**.....

Generation = 63, Population = 48.
................
........**..**..
.........*...*..
.......*.*...*..
..*....**...*...
.***...**..*....
*...*...***.....
...**....*......
.*..*...........
.***............
.***.....*......
.........*......
..............*-
.............*.*
......***.....**
......***.......

*** Life<Cell> 12x20 ***

Generation = 0, Population = 26.
--------00----------
0---------------0---
-------0-------0----
------0----------0--
---0----------------
----------0--0--0--0
-00----0--------0---
--0-----------------
-------------------0
-----0----------0---
-------0---------00-
-----------0--0-----

Generation = 29, Population = 58.
.-..............***.
...**.*.....**...**.
..*..*.*.****..*.*.*
.......*.**.1****..*
-...-.*...........*.
..................1.
**.**1.**-....*.....
.***...**.**.-*.....
.........**-.......-
.........*.*.**..-..
....-.......*.......
......***...........

Generation = 58, Population = 26.
....................
...........****.....
..........***..**...
..........*.*.**....
..........*.........
....................
..............**....
..............**....
..**...............-
.*..*............-..
.*..*...............
..**................

*** Life<Cell> 12x3 ***

Generation = 0, Population = 23.
-00
000
-0-
-00
00-
0--
00-
000
-0-
0-0
00-
-00

*** Life<Cell> 4x11 ***

Generation = 0, Population = 26.
0-00000-0--
-00-00000--
-0---0-00-0
0-000-00--0

Generation = 50, Population = 1.
..-...-..-1
-......-...
.........-.
-..........

*** Life<Cell> 4x19 ***

Generation = 0, Population = 4.
----0--------------
----------0--------
-------------------
---------0---0-----

Generation = 32, Population = 9.
...................
.....*.*...*.......
....*..*...*.......
0-.-.*.*...........

Generation = 64, Population = 10.
.....***...........
....*...*..........
....**.**..........
0-.-...............

*** Life<Cell> 9x3 ***

Generation = 0, Population = 17.
0-0
-0-
000
000
-00
0-0
-0-
0--
00-

*** Life<Cell> 4x14 ***

Generation = 0, Population = 11.
------0-0--00-
0-0---0--0----
----0---------
0------0------

*** Life<Cell> 14x19 ***

Generation = 0, Population = 10.
-------------------
-------------------
---------0---------
---------------0---
------0------------
-------------------
---------00--------
-------------------
---0---------------
-------------------
-------------------
--0-----------0---0
----0--------------
-------------------

Generation = 11, Population = 131.
---*-*-****-0-0-0--
00--0-00-.--0------
*-1-0*.***.--*--0--
*01-0*1--.-*0-*0001
....*-0-*1.-0*.*1--
-**.--.*11-.--*--0-
*-.**..1......-0*-.
-0--.-*1--.01.-11.-
-1*1.1.-.***11*--0*
*0*1*.**.0.*0--**-1
-*0*.0*----.*--0000
*--**.-0*---*--11-0
**..*.*-1*10.-1-00-
--.0-.000000-0-110-

*** Life<Cell> 13x11 ***

Generation = 0, Population = 17.
------0----
0----------
----0-----0
-----------
-----------
----0------
---0-------
---0---0-0-
--0-00--0--
---------0-
-0---------
--0-------0
-----------

Generation = 18, Population = 53.
-*..-...*--
*.*..**-*.0
....**...1.
**..**-***-
-*..*.*..1.
.-*.1..*..*
-***.-*.--*
.**..**...*
..-.*.*..**
.0*....-..*
-*.**...***
*-.....*.*.
........*.-

Generation = 36, Population = 42.
...*.......
.**.*.....-
.*****.....
*...**.....
.****......
.***..*....
-...*..*...
....*..*...
....*......
.**.**.***.
1*..*.....*
..**....*.*
........*.*

Generation = 54, Population = 16.
...**......
...**.....-
...........
...........
.......**..
.......**..
.......*.*.
...**....*.
....*......
.........**
...........
...........
...........

Generation = 72, Population = 18.
.....*.....
.....*...**
.........*.
...........
.......*.*.
.......*.*.
..........*
......*..*.
......*....
......*....
.......***.
........*..
...........

*** Life<Cell> 8x6 ***

Generation = 0, Population = 6.
----0-
----00
------
----0-
----0-
------
------
--0---

Generation = 20, Population = 18.
-.***.
..-..*
.-.**-
..*.*.
.**1.-
...**.
*.--*.
.***..

Generation = 40, Population = 4.
-.....
..**..
..**..
......
.....-
......
......
......

*** Life<Cell> 7x2 ***

Generation = 0, Population = 12.
00
00
00
00
-0
-0
00

Generation = 1, Population = 6.
--
11
11
-1
--
--
1-

Generation = 2, Population = 7.
00
--
-*
-*
-0
0-
-0

Generation = 3, Population = 8.
11
1-
1.
0*
-1
-0
--

Generation = 4, Population = 5.
-*
--
-.
-*
--
01
-0

Generation = 5, Population = 6.
1.
-1
-.
0.
0-
1-
-1

Generation = 6, Population = 4.
-.
--
1.
1.
-1
*-
--

Generation = 7, Population = 6.
-.
1-
*.
**
0-
.-
1-

Generation = 8, Population = 8.
1.
*1
*.
**
1-
.-
-1

Generation = 9, Population = 9.
**
**
..
**
*-
.1
1-

Generation = 10, Population = 9.
**
**
..
**
*1
*-
--

Generation = 11, Population = 8.
**
**
..
**
.-
*-
1-

Generation = 12, Population = 9.
**
**
..
..
*1
.1
*1

Generation = 13, Population = 6.
**
**
..
..
*-
.-
*-

Generation = 14, Population = 6.
**
**
..
..
.1
.-
.1

Generation = 15, Population = 4.
**
**
..
..
.-
.-
.-

Generation = 16, Population = 4.
**
**
..
..
.-
.-
.-

Generation = 17, Population = 4.
**
**
..
..
.-
.-
.-

Generation = 18, Population = 4.
**
**
..
..
.-
.-
.-

Generation = 19, Population = 4.
**
**
..
..
.-
.-
.-

Generation = 20, Population = 4.
**
**
..
..
.-
.-
.-

Generation = 21, Population = 4.
**
**
..
..
.-
.-
.-

Generation = 22, Population = 4.
**
**
..
..
.-
.-
.-

Generation = 23, Population = 4.
**
**
..
..
.-
.-
.-

Generation = 24, Population = 4.
**
**
..
..
.-
.-
.-

Generation = 25, Population = 4.
**
**
..
..
.-
.-
.-

Generation = 26, Population = 4.
**
**
..
..
.-
.-
.-

Generation = 27, Population = 4.
**
**
..
..
.-
.-
.-

Generation = 28, Population = 4.
**
**
..
..
.-
.-
.-

Generation = 29, Population = 4.
**
**
..
..
.-
.-
.-

Generation = 30, Population = 4.
**
**
..
..
.-
.-
.-

Generation = 31, Population = 4.
**
**
..
..
.-
.-
.-

Generation = 32, Population = 4.
**
**
..
..
.-
.-
.-

Generation = 33, Population = 4.
**
**
..
..
.-
.-
.-

Generation = 34, Population = 4.
**
**
..
..
.-
.-
.-

Generation = 35, Population = 4.
**
**
..
..
.-
.-
.-

Generation = 36, Population = 4.
**
**
..
..
.-
.-
.-

Generation = 37, Population = 4.
**
**
..
..
.-
.-
.-

Generation = 38, Population = 4.
**
**
..
..
.-
.-
.-

Generation = 39, Population = 4.
**
**
..
..
.-
.-
.-

Generation = 40, Population = 4.
**
**
..
..
.-
.-
.-

Generation = 41, Population = 4.
**
**
..
..
.-
.-
.-

Generation = 42, Population = 4.
**
**
..
..
.-
.-
.-

Generation = 43, Population = 4.
**
**
..
..
.-
.-
.-

Generation = 44, Population = 4.
**
**
..
..
.-
.-
.-

Generation = 45, Population = 4.
**
**
..
..
.-
.-
.-

Generation = 46, Population = 4.
**
**
..
..
.-
.-
.-

Generation = 47, Population = 4.
**
**
..
..
.-
.-
.-

Generation = 48, Population = 4.
**
**
..
..
.-
.-
.-

Generation = 49, Population = 4.
**
**
..
..
.-
.-
.-

Generation = 50, Population = 4.
**
**
..
..
.-
.-
.-

Generation = 51, Population = 4.
**
**
..
..
.-
.-
.-

Generation = 52, Population = 4.
**
**
..
..
.-
.-
.-

Generation = 53, Population = 4.
**
**
..
..
.-
.-
.-

Generation = 54, Population = 4.
**
**
..
..
.-
.-
.-

Generation = 55, Population = 4.
**
**
..
..
.-
.-
.-

Generation = 56, Population = 4.
**
**
..
..
.-
.-
.-

Generation = 57, Population = 4.
**
**
..
..
.-
.-
.-

Generation = 58, Population = 4.
**
**
..
..
.-
.-
.-

Generation = 59, Population = 4.
**
**
..
..
.-
.-
.-

Generation = 60, Population = 4.
**
**
..
..
.-
.-
.-

Generation = 61, Population = 4.
**
**
..
..
.-
.-
.-

Generation = 62, Population = 4.
**
**
..
..
.-
.-
.-

Generation = 63, Population = 4.
**
**
..
..
.-
.-
.-

Generation = 64, Population = 4.
**
**
..
..
.-
.-
.-

Generation = 65, Population = 4.
**
**
..
..
.-
.-
.-

Generation = 66, Population = 4.
**
**
..
..
.-
.-
.-

Generation = 67, Population = 4.
**
**
..
..
.-
.-
.-

Generation = 68, Population = 4.
**
**
..
..
.-
.-
.-

Generation = 69, Population = 4.
**
**
..
..
.-
.-
.-

Generation = 70, Population = 4.
**
**
..
..
.-
.-
.-

Generation = 71, Population = 4.
**
**
..
..
.-
.-
.-

Generation = 72, Population = 4.
**
**
..
..
.-
.-
.-

Generation = 73, Population = 4.
**
**
..
..
.-
.-
.-

Generation = 74, Population = 4.
**
**
..
..
.-
.-
.-

Generation = 75, Population = 4.
**
**
..
..
.-
.-
.-

Generation = 76, Population = 4.
**
**
..
..
.-
.-
.-

Generation = 77, Population = 4.
**
**
..
..
.-
.-
.-

Generation = 78, Population = 4.
**
**
..
..
.-
.-
.-

Generation = 79, Population = 4.
**
**
..
..
.-
.-
.-

Generation = 80, Population = 4.
**
**
..
..
.-
.-
.-

Generation = 81, Population = 4.
**
**
..
..
.-
.-
.-

Generation = 82, Population = 4.
**
**
..
..
.-
.-
.-

Generation = 83, Population = 4.
**
**
..
..
.-
.-
.-

Generation = 84, Population = 4.
**
**
..
..
.-
.-
.-

Generation = 85, Population = 4.
**
**
..
..
.-
.-
.-

Generation = 86, Population = 4.
**
**
..
..
.-
.-
.-

Generation = 87, Population = 4.
**
**
..
..
.-
.-
.-

Generation = 88, Population = 4.
**
**
..
..
.-
.-
.-

*** Life<Cell> 16x2 ***

Generation = 0, Population = 18.
--
00
-0
00
0-
00
00
0-
00
--
0-
0-
--
00
--
0-

Generation = 23, Population = 9.
..
**
**
..
..
..
..
-.
-*
-*
**
..
..
..
0-
..

*** Life<Cell> 6x9 ***

Generation = 0, Population = 20.
---0-0000
--0------
00--0----
-0000-0--
-0---000-
0--0-----

Generation = 3, Population = 28.
1-000.-0.
*1-10-*0-
.1-0----1
0.0-0-.0-
1*0--.-.-
00-0***-0

Generation = 6, Population = 21.
.-.1-.--.
*-**00.1-
*.01*1---
..-0--.0-
*.00-....
1-*-*..1-

Generation = 9, Population = 23.
.-*.0.01.
.1.*10*-0
..-1*1.*1
..--11*10
..---....
.0*....-0

Generation = 12, Population = 22.
.-..-*1*.
.1**1..1*
..0-.*...
..-0-...1
..-0**..*
.-..***10

Generation = 15, Population = 17.
.-..-.-**
.***..**.
*..*..*.*
.**.-...*
..--*..*.
.-.....-1

Generation = 18, Population = 19.
.-..1.-*.
....*.**.
**..**.*.
**..**.**
..00.....
.1.....--

Generation = 21, Population = 18.
.-**.*1.*
........*
*..****..
*.**.....
.*11.....
.*.....--

*** Life<Cell> 20x6 ***

Generation = 0, Population = 49.
0--0--
0-----
--000-
0----0
--0---
-0-000
-----0
00-0--
----00
-00-0-
000-00
0--0-0
---0--
------
---0--
--0000
-0-0-0
000-0-
--00-0
-00-0-

Generation = 15, Population = 37.
.-***.
*....-
*..**.
..1...
.*.**.
..**..
...**.
..-*1.
..*-..
-...*.
.**.*.
.*-.-.
1..*..
*...-.
*..*..
...**-
***.*.
**-.*.
......
......

Generation = 30, Population = 12.
......
.....-
......
......
......
......
......
.*0.-.
**.1..
*..*..
....**
...**.
...*..
......
......
......
......
......
......
......

*** Life<Cell> 1x12 ***

Generation = 0, Population = 8.
-00-00--0000

Generation = 40, Population = 0.
--.-.---....

Generation = 80, Population = 0.
--.-.---....

