*** Life<Cell> 5x5 ***

Generation = 0, Population = 11.
-----
-0-0-
00--0
--000
00--0

Generation = 1, Population = 12.
-0-0-
-1---
1--01
-01-1
11--1

Generation = 2, Population = 14.
01--0
-*0-0
-0-1-
0-*0-
*--0*

Generation = 3, Population = 13.
1--01
-.101
-1-*-
10.1-
.1--*

Generation = 4, Population = 12.
-1---
0**--
-*0.-
*1.*-
**0-.

Generation = 5, Population = 10.
-*---
1..0-
1.-*-
.*.*1
*.1-.

Generation = 6, Population = 16.
-.00-
***11
**0*-
**.**
.*--.

Generation = 7, Population = 11.
1.---
*..-*
..1.1
...**
**10.

Generation = 8, Population = 7.
*.--1
.*.1.
..-.-
....*
.*--*

Generation = 9, Population = 3.
..---
...-.
..-.1
.....
..10.

Generation = 10, Population = 3.
..---
...-.
..-.-
...*.
..*1.

Generation = 11, Population = 3.
..---
...-.
..-.-
..**.
..*-.

Generation = 12, Population = 4.
..---
...-.
..1.-
..**.
..*-.

Generation = 13, Population = 6.
..---
...-.
..**-
.***.
..*-.

Generation = 14, Population = 7.
..---
...1.
.*.*1
.*...
.**-.

*** Life<Cell> 5x5 ***

Generation = 0, Population = 10.
-----
--000
000--
--0-0
---00

Generation = 1, Population = 12.
--000
0---1
1-1--
0-101
---1-

Generation = 2, Population = 12.
001--
10--*
--*--
1--1*
0--*-

Generation = 3, Population = 14.
-1*00
--00.
--*--
*0--*
100*-

Generation = 4, Population = 13.
0*.11
--1-*
1-*-0
*-1-.
-1-*-

Generation = 5, Population = 15.
1***-
--*0*
*-*-1
*0*-.
--0.0

Generation = 6, Population = 14.
**..-
--.1*
*0.0*
*-*1.
1-1*-

Generation = 7, Population = 11.
....1
--.-*
*1.1.
*0.*.
*--*0

Generation = 8, Population = 12.
....*
10.-*
*-.**
.-.*.
*-1*1

Generation = 9, Population = 9.
.....
-1.-*
*-***
.-...
.-***

Generation = 10, Population = 8.
.....
--*-*
.1***
.-...
.1.*.

Generation = 11, Population = 7.
.....
--*1*
.**.*
.-..*
.-...

Generation = 12, Population = 8.
...*.
--*-*
.**.*
.0.*.
.-...

Generation = 13, Population = 9.
...*.
--*1*
.*..*
.1.*.
.1...

Generation = 14, Population = 11.
..***
--***
.*..*
*-...
.**..

Generation = 15, Population = 9.
..*.*
--...
.**.*
*1*..
.*...

*** Life<Cell> 5x5 ***

Generation = 0, Population = 14.
-----
-00-0
0-00-
-0000
-0000

Generation = 1, Population = 10.
-00-0
-1-0-
--1-0
-----
0-11-

Generation = 2, Population = 13.
0-10-
0*--0
---0-
0--00
--**0

Generation = 3, Population = 15.
10*1-
-*-0-
-0110
-0-1-
00*.-

Generation = 4, Population = 10.
*1.-0
-.---
01--1
---*-
11*.-

Generation = 5, Population = 8.
.*.1-
-.---
1*1--
---*-
*-*.-

Generation = 6, Population = 11.
...-0
0.00-
***--
-00*0
.-..-

Generation = 7, Population = 12.
...--
1.-1-
*..11
--1*1
.1**0

Generation = 8, Population = 9.
...1-
*.0*-
.*.*-
0--.*
.*..-

Generation = 9, Population = 12.
..**0
.*1*0
**.*-
-0-..
....0

Generation = 10, Population = 7.
.*..-
*.*.-
*..*-
-11..
....-

*** Life<Cell> 5x5 ***

Generation = 0, Population = 2.
-----
-----
-----
00---
-----

Generation = 1, Population = 7.
-----
-----
00---
110--
00---

Generation = 2, Population = 5.
-----
00---
-----
*-10-
-----

Generation = 3, Population = 14.
00---
110--
-000-
.-*10
0-00-

Generation = 4, Population = 1.
-----
-----
-----
.-.-1
-----

Generation = 5, Population = 3.
-----
-----
----0
.-.1-
----0

Generation = 6, Population = 2.
-----
----0
-----
.-.-1
-----

Generation = 7, Population = 4.
----0
---0-
-----
.-.1-
----0

Generation = 8, Population = 1.
-----
--0--
-----
.-.--
-----

Generation = 9, Population = 4.
--0--
-1-0-
--0--
.-.--
-----

Generation = 10, Population = 2.
-----
1---0
-----
.-.--
-----

Generation = 11, Population = 6.
0---0
-1-0-
0---0
.-.--
-----

Generation = 12, Population = 3.
-----
1---0
-----
.-.-1
-----

Generation = 13, Population = 7.
0---0
-1-0-
0----
.-.1-
----0

Generation = 14, Population = 1.
-----
1----
-----
.-.--
-----

Generation = 15, Population = 3.
0----
-1---
0----
.-.--
-----

Generation = 16, Population = 2.
-----
1-0--
-----
.-.--
-----

Generation = 17, Population = 5.
0-0--
---0-
0-0--
.-.--
-----

Generation = 18, Population = 2.
-----
--0-0
-----
.-.--
-----

Generation = 19, Population = 5.
--0-0
-1---
--0-0
.-.--
-----

Generation = 20, Population = 3.
-----
1-0--
-----
.-.-1
-----

Generation = 21, Population = 8.
0-0--
---0-
0-0-0
.-.1-
----0

Generation = 22, Population = 2.
-----
--0--
-----
.-.-1
-----

Generation = 23, Population = 7.
--0--
-1-0-
--0-0
.-.1-
----0

Generation = 24, Population = 2.
-----
1----
-----
.-.-1
-----

*** Life<Cell> 5x5 ***

Generation = 0, Population = 14.
-----
---00
00000
00-0-
00-00

Generation = 1, Population = 10.
---00
00---
-1---
110-0
----1

Generation = 2, Population = 20.
00011
1-000
0---0
**1-1
0000*

Generation = 3, Population = 9.
--1*-
-0-11
-----
..-0-
-11-*

Generation = 4, Population = 11.
--**-
1-0-*
-1--0
..---
0**0.

Generation = 5, Population = 18.
00**-
-011*
---01
*.101
1**1.

Generation = 6, Population = 10.
11..-
--*-.
0101*
*.---
-..-*

Generation = 7, Population = 9.
**..-
-0.-.
--1-.
*.10-
1..1.

Generation = 8, Population = 11.
**..-
-1*-.
0-*-.
..--1
****.

Generation = 9, Population = 13.
***.-
1-*1.
-1*1.
*.---
.***.

Generation = 10, Population = 9.
*.**-
*-.-.
0*.-.
*.---
.**..

Generation = 11, Population = 10.
.*..1
*-*1.
1*.-.
*.1--
.*...

Generation = 12, Population = 11.
.***-
*-**.
*..1.
*.-0-
.*...

Generation = 13, Population = 13.
.*.*1
*1..*
*..-*
**111
.....

Generation = 14, Population = 13.
****-
*-*.*
...-*
**---
.***.

Generation = 15, Population = 16.
*.**-
*1*.*
*..1.
**-11
***..

Generation = 16, Population = 11.
*.**-
*-..*
...*.
..1-*
*.**.

Generation = 17, Population = 13.
.*.*-
.1*.*
...**
.**-*
.***.

Generation = 18, Population = 8.
.*.*-
.-..*
....*
.*.-*
.*.*.

Generation = 19, Population = 8.
....-
.1.**
...**
..*-*
..*..

Generation = 20, Population = 8.
....1
.-***
.....
..*1*
...*.

Generation = 21, Population = 10.
....*
.1.**
.....
..***
..***

Generation = 22, Population = 8.
...**
.-.**
.....
..*.*
..*.*

Generation = 23, Population = 5.
...**
.-.**
....*
.....
.....

Generation = 24, Population = 4.
...**
.-...
...**
.....
.....

Generation = 25, Population = 0.
.....
.-...
.....
.....
.....

*** Life<Cell> 5x5 ***

Generation = 0, Population = 9.
-----
-----
0-0--
-000-
0000-

Generation = 1, Population = 10.
-----
0-0--
-01--
0---0
111-0

Generation = 2, Population = 15.
0-0--
-010-
01-00
10-01
--*-1

Generation = 3, Population = 13.
-01--
0-*--
-*11-
--0-*
1-*0*

Generation = 4, Population = 7.
-1-0-
--.--
-.-*-
1---*
--*-*

Generation = 5, Population = 11.
0---0
-0*--
0.1.-
-00-*
11.-.

Generation = 6, Population = 11.
--10-
01*00
-.-.0
1---.
*-*-.

Generation = 7, Population = 9.
0----
1-.1-
-.1.1
*00-.
.-.0.

Generation = 8, Population = 8.
11-0-
*1.--
-.*.-
.---.
.1*-.

Generation = 9, Population = 8.
----0
*-.1-
0*..-
.0--.
.*.0.

Generation = 10, Population = 7.
1----
*-.--
-**.-
.-00.
..*-.

Generation = 11, Population = 9.
*1---
*-.--
-***-
.-11.
..*-.

Generation = 12, Population = 11.
**1--
*1.1-
-*.*1
.-*-.
..*-.

Generation = 13, Population = 9.
*.*--
.*.*-
-*.**
.-*-.
...0.

Generation = 14, Population = 12.
.**--
**.*-
0*.**
.-*1*
...-.

Generation = 15, Population = 8.
***--
...*-
-....
.-***
...0.

Generation = 16, Population = 14.
.**--
.**.0
-.*.*
.0***
..*1*

Generation = 17, Population = 10.
.**00
....1
-...*
.1...
.*.**

Generation = 18, Population = 7.
..*--
..*.-
-....
.****
..*..

Generation = 19, Population = 7.
...0-
....-
-*...
.***.
.**..

Generation = 20, Population = 7.
...-0
....-
0*...
*..*.
.*.*.

Generation = 21, Population = 5.
...0-
....1
-*...
*....
..*..

*** Life<Cell> 5x5 ***

Generation = 0, Population = 9.
-----
---00
00---
0-0-0
0-0--

Generation = 1, Population = 15.
---00
00011
-1-0-
-01--
1-100

Generation = 2, Population = 9.
00---
11---
---1-
---00
-0--1

Generation = 3, Population = 12.
--0--
--01-
010*-
-01--
1-1-*

Generation = 4, Population = 13.
-01--
1-1-1
1*-.0
0-*-0
-0*-.

Generation = 5, Population = 14.
-1-00
*-*-*
*.0.-
1-*-1
-1*0.

*** Life<Cell> 5x5 ***

Generation = 0, Population = 3.
-----
-----
---0-
---0-
--0--

Generation = 1, Population = 7.
-----
---0-
--010
---10
-0---

Generation = 2, Population = 9.
---0-
---1-
-01--
-0---
0-000

Generation = 3, Population = 15.
--010
-0-*0
0-*--
-1010
-01-1

Generation = 4, Population = 6.
--1*-
---.-
--.1-
-----
0--0*

Generation = 5, Population = 11.
-0*.0
--0*-
--.-0
0---0
-011.

Generation = 6, Population = 10.
01*.-
---.0
0-.-1
--0-1
-1-*.

Generation = 7, Population = 14.
1-..0
-00*1
-0.1-
0--1*
0-1*.

Generation = 8, Population = 11.
--*.1
---.-
-1.-1
1--**
1-***

Generation = 9, Population = 9.
-1..-
-00*-
--.-*
*--..
*-*.*

Generation = 10, Population = 10.
1*..-
0--*-
01*-.
.10*.
.-...

Generation = 11, Population = 10.
-*..-
-0-.1
-*.1.
*-1*.
.1*..

Generation = 12, Population = 12.
1...1
0-0.-
-*.**
*--*.
.***.

Generation = 13, Population = 13.
**..-
10-.-
0*.**
*1-..
.***.

Generation = 14, Population = 12.
**..-
*10.1
1....
.*-.*
***..

Generation = 15, Population = 11.
*.*.1
.*1.-
*.**.
..-..
***..

Generation = 16, Population = 10.
..**-
*.*.1
..**.
*.-*.
.*...

Generation = 17, Population = 7.
.***-
....-
..*.*
.*-*.
.....

Generation = 18, Population = 8.
..*.1
.*..1
..**.
..1*.
.....

Generation = 19, Population = 7.
...**
.*..*
.*..*
..-*.
.....

Generation = 20, Population = 8.
...**
..*.*
..***
..1..
.....

Generation = 21, Population = 7.
...**
..*..
.**.*
..*..
.....

*** Life<Cell> 5x5 ***

Generation = 0, Population = 9.
-----
-00-0
00---
--0--
--000

Generation = 1, Population = 12.
-00-0
--1--
1-0-0
0-1-0
-0--1

Generation = 2, Population = 11.
01---
0--0-
*---1
10*--
---0*

Generation = 3, Population = 10.
-*00-
--1--
*-0--
--*--
00-1.

Generation = 4, Population = 11.
0*110
0----
.--0-
--*--
110-.

Generation = 5, Population = 10.
-*--1
1-1-0
.---1
1-*--
*--1.

Generation = 6, Population = 9.
-*-1*
-0---
.--0*
*-.-0
.1--.

Generation = 7, Population = 11.
0.-*.
111--
.001*
.-.-1
.-0-.

Generation = 8, Population = 11.
1.-..
-*-00
*-1-*
.0.-*
.1-1.

Generation = 9, Population = 11.
-.-..
1*11-
*--1*
*1.-*
.*--.

Generation = 10, Population = 12.
1*1..
-*---
.0--*
*-*-*
**0-.

Generation = 11, Population = 11.
***..
-.--0
*1-1.
*-*-.
*.-1.

Generation = 12, Population = 10.
.*...
-.1--
**1-.
*1*0.
.*--.

Generation = 13, Population = 9.
.....
1.*1-
*.*-.
.-.1.
**-1.

Generation = 14, Population = 10.
.....
*.**0
..*1.
*1.*.
..-*.

Generation = 15, Population = 10.
...*.
.**.1
*..*.
.*.**
..0..

Generation = 16, Population = 9.
..**.
.**.-
*....
.*.**
..-*.

Generation = 17, Population = 14.
.***.
.***-
*..*.
..***
..0**

Generation = 18, Population = 6.
.*.*.
*...1
.....
.*...
..-.*

Generation = 19, Population = 0.
.....
....-
.....
.....
..-..

*** Life<Cell> 5x5 ***

Generation = 0, Population = 3.
-----
--0--
--0--
-----
--0--

Generation = 1, Population = 9.
--0--
-010-
-010-
-----
-0-0-

Generation = 2, Population = 9.
--1--
0---0
0-*-0
--0--
0---0

Generation = 3, Population = 16.
00-00
10-01
1-.-1
-010-
-000-

Generation = 4, Population = 10.
-----
*---*
*0.0*
--*--
0-1-0

Generation = 5, Population = 11.
0---0
*---*
*1*1*
--*--
--*--

Generation = 6, Population = 14.
10-01
*-1-*
*-*-*
0-.-0
-0.0-

Generation = 7, Population = 13.
-111-
*0*0*
*-.-*
1-*-1
--.--

Generation = 8, Population = 11.
--*--
*1.1*
*-.-*
*-.-*
0-.-0

Generation = 9, Population = 18.
1-*-1
*****
*-.-*
*0.0*
10.01

Generation = 10, Population = 10.
*1*1*
*.*.*
.1.1.
.-.-.
--.--

Generation = 11, Population = 8.
*-*-*
*...*
.-*-.
.0.0.
--.--

Generation = 12, Population = 4.
.-.-.
.....
.-*-.
.-*-.
-0.0-

Generation = 13, Population = 6.
.-.-.
.....
.1.1.
.-*-.
1-*-1

Generation = 14, Population = 2.
.-.-.
.....
.-*-.
.-*-.
--.--

Generation = 15, Population = 4.
.-.-.
.....
.1.1.
.0.0.
--.--

Generation = 16, Population = 6.
.-.-.
.....
.*.*.
.1.1.
-0.0-

Generation = 17, Population = 6.
.-.-.
.....
.....
*-.-*
11.11

Generation = 18, Population = 4.
.-.-.
.....
.....
*-.-*
-*.*-

Generation = 19, Population = 0.
.-.-.
.....
.....
.-.-.
-...-

Generation = 20, Population = 0.
.-.-.
.....
.....
.-.-.
-...-

Generation = 21, Population = 0.
.-.-.
.....
.....
.-.-.
-...-

Generation = 22, Population = 0.
.-.-.
.....
.....
.-.-.
-...-

Generation = 23, Population = 0.
.-.-.
.....
.....
.-.-.
-...-

Generation = 24, Population = 0.
.-.-.
.....
.....
.-.-.
-...-

*** Life<Cell> 5x5 ***

Generation = 0, Population = 9.
-----
--00-
--0--
0-00-
0--00

Generation = 1, Population = 12.
--00-
-0-10
00-0-
1----
10--1

Generation = 2, Population = 12.
--1--
-10*1
---1-
-0-00
-100-

Generation = 3, Population = 13.
--*-0
0*1.*
----0
11011
1----

Generation = 4, Population = 10.
0-*-1
1*-.*
-----
-----
*-001

Generation = 5, Population = 14.
10.-*
-*-*.
00--0
1-011
.-1-*

Generation = 6, Population = 14.
*-*-.
1.-**
---11
*1--*
.1*0*

*** Life<Cell> 5x5 ***

Generation = 0, Population = 4.
-----
--0--
-0--0
-----
----0

Generation = 1, Population = 7.
--0--
---00
0--0-
-0---
---0-

Generation = 2, Population = 10.
-0--0
0---1
--01-
--0--
-00-0

Generation = 3, Population = 11.
--001
--0-*
00-*-
----0
01---

Generation = 4, Population = 13.
-0---
0-1-*
110*0
-----
1*0-0

Generation = 5, Population = 10.
----1
1-*0*
--1.-
---0-
**1--

Generation = 6, Population = 15.
0-0-*
--*-*
11*.0
000-0
.**--

Generation = 7, Population = 10.
--1-.
--*-*
-*..-
--1-1
*.*00

Generation = 8, Population = 13.
-0*0.
--*-.
1**.-
0-*0*
.**--

Generation = 9, Population = 11.
01*1.
10.-.
-...0
1-.-.
.**-0

Generation = 10, Population = 6.
-***.
--.0.
-*..-
--.-.
.*.--

Generation = 11, Population = 5.
0.**.
--.1.
1...-
--.-.
...--

Generation = 12, Population = 5.
-.**.
--**.
-...-
1-.-.
...--

Generation = 13, Population = 7.
-.**.
-0**.
1...-
-0.-.
...--

Generation = 14, Population = 4.
-*.*.
-1.*.
-...-
--.-.
...--

Generation = 15, Population = 3.
0....
1*...
-...-
--.-.
...--

Generation = 16, Population = 4.
1*...
-*...
1...-
--.-.
...--

Generation = 17, Population = 5.
**...
1*...
-...-
1-.-.
...--

Generation = 18, Population = 5.
**...
-*...
-*..-
-0.-.
...--

Generation = 19, Population = 9.
**...
-**..
1**.-
11.-.
...--

Generation = 20, Population = 5.
***..
1....
-...-
--*-.
...--

*** Life<Cell> 5x5 ***

Generation = 0, Population = 8.
-----
-0---
----0
-0000
--0-0

Generation = 1, Population = 13.
-0---
0-0-0
--0-1
011-1
--101

Generation = 2, Population = 8.
----0
-01-1
-----
1-*0-
0----

*** Life<Cell> 5x5 ***

Generation = 0, Population = 6.
-----
-0-00
---00
-----
---0-

Generation = 1, Population = 9.
-0-00
0----
-00--
----0
--0-0

Generation = 2, Population = 15.
---11
-0000
-1100
-0-01
-0--1

Generation = 3, Population = 15.
-0---
0-1-1
0**-1
0-0-*
010-*

Generation = 4, Population = 7.
----1
1-*-*
1.*--
----*
----.

Generation = 5, Population = 10.
0-01*
*-.-.
*..0-
0-00.
----.

Generation = 6, Population = 15.
1-1-.
*0*-*
*.*11
1-1-.
0-00.

Generation = 7, Population = 12.
*0*1.
*-.0*
*..--
---0*
1--1.

*** Life<Cell> 5x5 ***

Generation = 0, Population = 5.
-----
-0--0
0----
-0---
--0--

Generation = 1, Population = 7.
-0--0
--00-
-0--0
-----
---0-

Generation = 2, Population = 11.
0----
-0110
0----
-0-00
--0-0

Generation = 3, Population = 12.
--000
01--1
-00--
--01-
---01

Generation = 4, Population = 7.
0-1--
1-1-*
----0
-----
----*

Generation = 5, Population = 11.
1-*00
*-*-.
0-001
-----
---0.

Generation = 6, Population = 11.
*-*-1
*-.1.
1---*
0-0-0
--0-.

Generation = 7, Population = 14.
.-.0-
*1.-*
-00-*
1-1-1
0010.

Generation = 8, Population = 10.
.0.--
*-.-*
1---*
*--1*
--*1.

Generation = 9, Population = 11.
.-.-1
*-.1.
-0--*
.0--*
00*-*

Generation = 10, Population = 9.
.-.--
.-.-*
-10-*
.--1*
11*-.

Generation = 11, Population = 14.
.-.-1
.1.1.
1*10*
*-1**
*-*-.

Generation = 12, Population = 10.
.0.--
**.*.
-.*-.
*0*.*
.-*-.

*** Life<Cell> 5x5 ***

Generation = 0, Population = 10.
-----
--000
-00--
-0---
-0000

Generation = 1, Population = 12.
--000
----1
0---0
0-000
0---1

*** Life<Cell> 5x5 ***

Generation = 0, Population = 7.
-----
--0--
----0
00-0-
-00--

Generation = 1, Population = 10.
--0--
-0-00
000--
1-0--
--1--

Generation = 2, Population = 13.
----0
-1-11
-1--0
*0-0-
00*0-

Generation = 3, Population = 14.
-0--1
0*-**
--001
.101-
-1.-0

Generation = 4, Population = 12.
-10-*
1*0..
01---
.-1-0
0*.--

Generation = 5, Population = 7.
----.
-.-*.
--0-1
.1---
1*.-0

Generation = 6, Population = 8.
---0.
-.-*.
---0-
**---
**.0-

*** Life<Cell> 5x5 ***

Generation = 0, Population = 10.
-----
-000-
--0-0
000--
0--0-

Generation = 1, Population = 13.
-000-
0111-
00-0-
----0
1---0

*** Life<Cell> 5x5 ***

Generation = 0, Population = 9.
-----
-0-0-
0-00-
-00-0
----0

Generation = 1, Population = 12.
-0-0-
--010
-----
-1-01
-0001

Generation = 2, Population = 13.
0-01-
--1*1
-00--
0*0--
0--1-

Generation = 3, Population = 7.
-----
0-*.*
--1-0
-.---
1---1

Generation = 4, Population = 11.
0-0-0
--...
00*-1
0.0--
-0-1-

Generation = 5, Population = 8.
-----
-0*..
--*--
1.1-1
--0-1

Generation = 6, Population = 14.
-00--
01*..
0-*01
-.--*
101-*

Generation = 7, Population = 8.
---1-
-*...
10*--
-.--*
*-*-.

Generation = 8, Population = 11.
-00-0
-*...
*1*01
-.-0.
.-.1.

Generation = 9, Population = 10.
0-1--
-...*
**.1*
1*--.
.-.*.

Generation = 10, Population = 13.
---10
-.*.*
*****
-*1-*
.0...

Generation = 11, Population = 8.
---*-
0....
*...*
-.-0*
.1*..

Generation = 12, Population = 13.
0-1.0
1....
...**
1*-1*
.***.

Generation = 13, Population = 17.
1--.-
**..*
*****
**1*.
**.**

Generation = 14, Population = 8.
*--.0
....*
....*
..*..
*..**

Generation = 15, Population = 7.
.0-.1
...**
...*.
....*
...*.

Generation = 16, Population = 9.
.-1**
..***
...*.
...**
.....

Generation = 17, Population = 4.
.0-.*
.....
.....
...**
.....

Generation = 18, Population = 1.
.-1..
.....
.....
.....
.....

*** Life<Cell> 5x5 ***

Generation = 0, Population = 9.
-----
-00-0
0---0
0----
00--0

Generation = 1, Population = 13.
-00-0
-11-1
1-001
-----
-100-

Generation = 2, Population = 12.
0---1
--*0-
-0---
00--0
0*-10

Generation = 3, Population = 13.
-00--
0-*1-
-1-01
-10-1
-*-*-

Generation = 4, Population = 10.
-1---
--.--
-*---
0*1-*
0*0*-

Generation = 5, Population = 7.
0-0--
--.--
-*--1
-.-0.
-.1*-

Generation = 6, Population = 11.
---0-
01.-1
1.0--
-.-1*
-.**0

Generation = 7, Population = 11.
010--
-**--
*.---
0*1-*
-.*.-

Generation = 8, Population = 12.
1*-0-
0.*1-
*.--1
-.--.
0.**0

Generation = 9, Population = 13.
-*011
-.*--
.*0--
-*11*
-..*1

*** Life<Cell> 5x5 ***

Generation = 0, Population = 3.
-----
---0-
-----
--0--
----0

Generation = 1, Population = 10.
---0-
--0-0
--00-
-0-00
--00-

Generation = 2, Population = 7.
-----
-01--
----0
0--11
--1--

Generation = 3, Population = 16.
-00--
01*00
000-1
-0-*-
00--0

Generation = 4, Population = 8.
----0
--.--
----*
0-0*1
1-1--

Generation = 5, Population = 8.
---0-
--.--
0-0-*
1--.-
*-*-0

Generation = 6, Population = 7.
--0-0
0-.00
1---.
-0-.-
.-.--

Generation = 7, Population = 11.
00-01
11.1-
*--0.
--0.-
.0.--

Generation = 8, Population = 5.
----*
*-.--
*--1.
1--.-
.-.--

Generation = 9, Population = 10.
0--0.
.1.10
*00-.
*0-.-
.-.--

Generation = 10, Population = 8.
--01*
.*.-1
.-1-.
*--.-
.0.--

Generation = 11, Population = 6.
--1-*
.*.-*
.--1.
.-0.-
.-.--

*** Life<Cell> 5x5 ***

Generation = 0, Population = 9.
-----
-0-0-
0-0-0
0--0-
-00--

Generation = 1, Population = 9.
-0-0-
--0--
10---
1-0--
-11--

Generation = 2, Population = 12.
0-0-0
00---
-10--
*-10-
-*-0-

Generation = 3, Population = 11.
10---
--0-0
1----
*---0
-*110

Generation = 4, Population = 10.
*1--0
-----
*10--
*-1-1
-*---

*** Life<Cell> 5x5 ***

Generation = 0, Population = 8.
-----
----0
----0
--0-0
00-00

Generation = 1, Population = 11.
----0
---01
--00-
0--0-
1101-

Generation = 2, Population = 9.
----1
-----
0011-
1-0-0
----0

Generation = 3, Population = 17.
---0-
00001
--**-
*0101
1-011

Generation = 4, Population = 12.
00-1-
1-1-*
-0..0
*----
*1-*-

Generation = 5, Population = 15.
-10--
*--0*
0-.*1
*0-01
**-.1

*** Life<Cell> 5x5 ***

Generation = 0, Population = 14.
-----
-0000
00000
--00-
-0-00

Generation = 1, Population = 15.
-0000
--11-
11---
00-10
0-0-1

Generation = 2, Population = 15.
01111
00---
----0
1-0*-
10-0*

Generation = 3, Population = 12.
-*--*
---1-
-10--
*01.0
-10-*

Generation = 4, Population = 6.
0.1-.
-----
----0
*-*.1
----.

Generation = 5, Population = 12.
-.-1.
0-1-0
1-001
.-.**
1-0-.

Generation = 6, Population = 8.
0.--.
1-*-1
*--1*
.-..*
----.

Generation = 7, Population = 10.
1*1-.
--.1*
.1-**
.-.**
----.

Generation = 8, Population = 10.
***-.
1-.-*
.--..
.0***
---0.

Generation = 9, Population = 15.
**.1.
*-.1.
.10.*
.1***
-1-1*

Generation = 10, Population = 16.
****.
*0.**
*--.*
**...
1*0-*

Generation = 11, Population = 10.
*..**
.-..*
.1-**
..**.
-.1-.

Generation = 12, Population = 9.
...**
.0*..
.-0.*
.*..*
-.*-.

Generation = 13, Population = 10.
..**.
.1*.*
.11..
.**..
-..1.

Generation = 14, Population = 9.
.***.
.-...
***..
.*.*.
-.*-.

Generation = 15, Population = 9.
..*..
*-.*.
***..
*..*.
-.*-.

Generation = 16, Population = 8.
.....
*-.*.
*.**.
*..*.
1..-.

Generation = 17, Population = 12.
.....
.1**.
*.***
*.**.
*..1.

Generation = 18, Population = 9.
..*..
.*..*
*...*
*....
.***.

Generation = 19, Population = 9.
.....
.*.*.
**...
*.**.
.**..

Generation = 20, Population = 10.
.....
***..
*..*.
*..*.
.***.

Generation = 21, Population = 12.
.*...
***..
*..*.
*..**
.***.

Generation = 22, Population = 14.
***..
*.*..
*..**
*...*
.****

Generation = 23, Population = 12.
*.*..
*.*..
*..**
*....
.****

Generation = 24, Population = 8.
.....
*.*..
*..*.
*....
.***.

*** Life<Cell> 5x5 ***

Generation = 0, Population = 13.
-----
-000-
00--0
0-000
00-0-

Generation = 1, Population = 12.
-000-
---1-
--001
--11-
-101-

Generation = 2, Population = 13.
01--0
-00--
-0--*
--**-
0*1-0

Generation = 3, Population = 14.
1--0-
-111-
010-.
00..0
1*-1-

Generation = 4, Population = 9.
---10
0-*-0
----.
11.*-
-*---

*** Life<Cell> 5x5 ***

Generation = 0, Population = 10.
-----
-0---
---00
00-00
0-0-0

Generation = 1, Population = 14.
-0---
0-000
0-0--
-10-1
10-01

Generation = 2, Population = 13.
---00
10--1
10---
0--0*
*-01-

*** Life<Cell> 5x5 ***

Generation = 0, Population = 10.
-----
-00-0
00---
00---
00--0

Generation = 1, Population = 12.
-00-0
--1--
-1--0
110-0
--00-

Generation = 2, Population = 15.
01---
-0*0-
-*001
**-01
0--1-

Generation = 3, Population = 10.
1--0-
-1.--
-.1--
*.01-
1-0*-

Generation = 4, Population = 11.
--0-0
--*0-
0.*--
..1-1
*--*0

Generation = 5, Population = 14.
-110-
01*1-
-.*-1
..*1*
.0-*-

Generation = 6, Population = 11.
--*-0
1*.--
0..-*
.*.**
.-0*-

Generation = 7, Population = 9.
1-.--
-*.--
1.*-*
.*..*
.-1*-

Generation = 8, Population = 8.
--.--
1*.-0
-.*-.
.*..*
.-**-

Generation = 9, Population = 12.
11.-0
**.1-
1.*0.
.*...
.-**-

Generation = 10, Population = 6.
--*--
...*-
*..-.
.*...
.-*.0

Generation = 11, Population = 4.
-1.--
....0
...0.
.*...
.-..-

Generation = 12, Population = 3.
1-.-0
....-
...-.
.....
.0..-

Generation = 13, Population = 3.
-1.0-
....0
...-.
.....
.-..-

*** Life<Cell> 5x5 ***

Generation = 0, Population = 1.
-----
-----
-----
0----
-----

Generation = 1, Population = 3.
-----
-----
0----
-0---
0----

Generation = 2, Population = 3.
-----
0----
-----
0-0--
-----

Generation = 3, Population = 6.
0----
-0---
--0--
---0-
0-0--

Generation = 4, Population = 3.
-----
-----
-----
0-0-0
-----

Generation = 5, Population = 6.
-----
-----
0-0-0
-----
0-0-0

Generation = 6, Population = 3.
-----
0-0-0
-----
-----
-----

Generation = 7, Population = 6.
0-0-0
-----
0-0-0
-----
-----

*** Life<Cell> 5x5 ***

Generation = 0, Population = 5.
-----
----0
--0-0
-----
0---0

Generation = 1, Population = 10.
----0
--001
-0--1
0-0--
-0-0-

Generation = 2, Population = 9.
--0-1
--1-*
--0-*
----0
--0-0

*** Life<Cell> 5x5 ***

Generation = 0, Population = 6.
-----
---0-
---00
-0-0-
-0---

Generation = 1, Population = 14.
---0-
--01-
-0011
01-1-
0100-

Generation = 2, Population = 8.
---10
---*-
--1-*
-*---
-*--0

Generation = 3, Population = 9.
--0-1
---.0
---1.
0*---
0.00-

Generation = 4, Population = 12.
-0--*
--0.1
001-.
-*---
1.110

Generation = 5, Population = 16.
0--1.
001.*
11-1.
0.010
-**-1

*** Life<Cell> 5x5 ***

Generation = 0, Population = 9.
-----
-00--
-00--
0-0-0
0--0-

Generation = 1, Population = 13.
-00--
0--0-
--100
1010-
10---

Generation = 2, Population = 8.
-11--
--01-
----1
-1*--
---0-

Generation = 3, Population = 10.
0*---
---*-
-0---
1**-0
-0--0

Generation = 4, Population = 15.
1.10-
0-0.0
-1-01
*.*-1
-1-01

Generation = 5, Population = 12.
*.-1-
101.1
0--1*
*..--
--01-

Generation = 6, Population = 14.
*.---
*-*.*
---**
.**-1
111*1

Generation = 7, Population = 12.
.*1-0
.-..*
011.*
*..--
***.-

Generation = 8, Population = 9.
..*-1
*-..*
--**.
...-1
**..-

Generation = 9, Population = 11.
...-*
.0*.*
01.**
.**--
....1

Generation = 10, Population = 10.
...1.
*-*.*
1*..*
***--
....-

Generation = 11, Population = 10.
...-.
*0*.*
*....
*.*01
.*..-

Generation = 12, Population = 11.
.*.-.
*-...
*...*
*.*-*
.***1

Generation = 13, Population = 9.
...-.
*-...
*..*.
*.*0*
.**.-

Generation = 14, Population = 11.
...-.
.0...
*.***
*..1*
.**.1

Generation = 15, Population = 9.
...-.
.-**.
*.*.*
*..-.
.**.*

Generation = 16, Population = 8.
...1.
.0**.
..*..
*.*-.
.*...

Generation = 17, Population = 6.
...*.
.1.*.
.....
..*1.
.*...

Generation = 18, Population = 6.
..*..
.-*..
...*.
..**.
..*..

Generation = 19, Population = 8.
.....
.1**.
...*.
..**.
..**.

Generation = 20, Population = 9.
..*..
.***.
.*..*
....*
..**.

Generation = 21, Population = 10.
.***.
.*.*.
.*..*
..*.*
...*.

Generation = 22, Population = 11.
.*.*.
**.**
.*..*
..*.*
...*.

Generation = 23, Population = 14.
**.**
**.**
**..*
..*.*
...*.

Generation = 24, Population = 10.
**.**
.....
*...*
.**.*
...*.

Generation = 25, Population = 11.
.....
**.**
.*.*.
.**.*
..**.

*** Life<Cell> 5x5 ***

Generation = 0, Population = 6.
-----
---00
--00-
--0--
---0-

Generation = 1, Population = 8.
---00
----1
-0---
-010-
----0

Generation = 2, Population = 12.
--01-
-0--*
01-00
0--1-
-00--

Generation = 3, Population = 10.
--1*-
-1-0*
-----
10-*-
-11--

Generation = 4, Population = 11.
--**-
0-0-*
0---0
*-1.0
--*--

Generation = 5, Population = 16.
00**-
1-10*
-1-0-
.-*.1
01.00

Generation = 6, Population = 11.
--..-
*---*
---10
*0..*
1**1-

Generation = 7, Population = 12.
0-..0
.1--*
-10*1
*-..*
-.**-

Generation = 8, Population = 8.
--..1
**--*
---.*
.-..*
1..*-

Generation = 9, Population = 12.
00..*
..10*
01-**
.-.**
-...-

Generation = 10, Population = 14.
11*.*
..*1.
1*0..
.0***
-...0

Generation = 11, Population = 10.
*-*..
...*.
*.1.*
*-..*
-.*.1

Generation = 12, Population = 9.
.-...
..**.
.*-.*
.0..*
1..**

Generation = 13, Population = 10.
.-...
..**.
.*-.*
*1*.*
-..**

Generation = 14, Population = 14.
.-...
..**.
*.1.*
***.*
1****

Generation = 15, Population = 7.
.-...
.***.
*.-.*
....*
-...*

Generation = 16, Population = 10.
.1*..
.***.
.*1.*
...**
-....

Generation = 17, Population = 7.
.-.*.
*....
.*-.*
..***
-....

Generation = 18, Population = 6.
.-...
.....
.*-.*
..***
-..*.

Generation = 19, Population = 6.
.-...
.....
..-.*
..*.*
-.***

Generation = 20, Population = 6.
.-...
.....
..1*.
..*.*
-.*.*

Generation = 21, Population = 4.
.-...
.....
..-*.
.**.*
-....

Generation = 22, Population = 3.
.-...
.....
..-*.
..**.
-....

Generation = 23, Population = 3.
.-...
.....
..-*.
..**.
-....

Generation = 24, Population = 3.
.-...
.....
..-*.
..**.
-....

Generation = 25, Population = 3.
.-...
.....
..-*.
..**.
-....

*** Life<Cell> 5x5 ***

Generation = 0, Population = 10.
-----
----0
---0-
00-00
0000-

Generation = 1, Population = 10.
----0
-----
00010
--011
-1---

Generation = 2, Population = 14.
---0-
0000-
1-1*-
00-*-
0--00

Generation = 3, Population = 14.
00-10
--110
---.0
110.-
1-0-1

Generation = 4, Population = 13.
110--
0-**1
10-.1
---.-
*11--

Generation = 5, Population = 7.
----0
--..-
-1-.*
--0.1
.-*0-

Generation = 6, Population = 9.
---1-
-0..-
1--*.
--1.*
.1*1-

Generation = 7, Population = 11.
-10-0
--*.-
---*.
1-*.*
.***-

Generation = 8, Population = 12.
1*---
--*.1
1-1*.
-1..*
.***-

Generation = 9, Population = 11.
**--0
--*.-
-1-.*
-*..*
.***-

Generation = 10, Population = 15.
.*-1-
00**-
1*-*.
1*..*
.***-

Generation = 11, Population = 16.
**0*0
--.*1
*.1**
-...*
****-

Generation = 12, Population = 8.
.*-.-
-0..*
..*..
-...*
.***-

Generation = 13, Population = 9.
..0.0
01*..
...*.
-*...
..**-

Generation = 14, Population = 9.
..1*-
1-*..
*....
1..*.
..*.1

Generation = 15, Population = 11.
.*-*0
*-**.
*....
**.*.
...*-

Generation = 16, Population = 16.
.*1*1
*1***
*..*.
***..
..*.1

Generation = 17, Population = 9.
*.*.-
**...
....*
*.*..
..**-

Generation = 18, Population = 10.
*...-
**...
*....
.**..
.***1

Generation = 19, Population = 10.
**..-
**...
*.*..
*....
.*.**

Generation = 20, Population = 7.
**..-
..*..
*....
*.**.
.....

Generation = 21, Population = 5.
.*..-
*....
..**.
.*...
.....

*** Life<Cell> 5x5 ***

Generation = 0, Population = 8.
-----
---0-
0--0-
--00-
00--0

Generation = 1, Population = 10.
---0-
0-010
-0--0
--1--
11---

Generation = 2, Population = 13.
0--1-
-01*-
--0-1
00-00
**---

Generation = 3, Population = 15.
---*0
-1*.-
001-*
--11-
**000

Generation = 4, Population = 14.
-0-*1
--..-
11*0.
-0*-0
.*111

Generation = 5, Population = 11.
0--.*
0-..0
**.1.
-1.-1
.**--

Generation = 6, Population = 12.
10-..
--.*1
***-*
--.--
.**11

Generation = 7, Population = 12.
*10..
--.*-
.**1*
0-.1-
..*-*

Generation = 8, Population = 7.
.-1..
0-..-
.*.-*
--.*1
...1.

Generation = 9, Population = 8.
.1-..
--..1
...-*
-1**-
...**

Generation = 10, Population = 11.
.-1..
-1..*
..*-*
0**.1
...**

Generation = 11, Population = 12.
.--..
0-*..
*.*-*
1**.-
.****

Generation = 12, Population = 7.
.-1..
1-.*.
*.*-.
-...-
*..*.

Generation = 13, Population = 7.
.1-..
*1**.
.*.-.
-*..-
.....

Generation = 14, Population = 5.
**-..
*-...
...1.
1...-
.....

Generation = 15, Population = 4.
**1..
*-...
...-.
-...-
.....

Generation = 16, Population = 4.
***..
*-...
...-.
-...-
.....

Generation = 17, Population = 3.
**...
*-...
...-.
-...-
.....

Generation = 18, Population = 3.
**...
*-...
...-.
-...-
.....

Generation = 19, Population = 3.
**...
*-...
...-.
-...-
.....

Generation = 20, Population = 3.
**...
*-...
...-.
-...-
.....

Generation = 21, Population = 3.
**...
*-...
...-.
-...-
.....

Generation = 22, Population = 3.
**...
*-...
...-.
-...-
.....

Generation = 23, Population = 3.
**...
*-...
...-.
-...-
.....

Generation = 24, Population = 3.
**...
*-...
...-.
-...-
.....

*** Life<Cell> 5x5 ***

Generation = 0, Population = 4.
-----
--0-0
0----
-----
0----

Generation = 1, Population = 8.
--0-0
00---
-00-0
-----
-0---

Generation = 2, Population = 8.
0----
1-0--
--1--
--0-0
0-0--

Generation = 3, Population = 15.
100--
*-10-
00-00
00---
--100

Generation = 4, Population = 6.
-----
.----
1-1-1
-----
0-*-1

*** Life<Cell> 5x5 ***

Generation = 0, Population = 7.
-----
-----
----0
00-0-
-0-00

Generation = 1, Population = 8.
-----
----0
00---
1--10
-1--1

*** Life<Cell> 5x5 ***

Generation = 0, Population = 13.
-----
---00
00000
-00-0
-00-0

Generation = 1, Population = 14.
---00
00---
11111
-110-
0---1

Generation = 2, Population = 12.
00011
-----
--***
0-*-0
--0--

Generation = 3, Population = 16.
1---*
00---
11*.*
--*01
00101

Generation = 4, Population = 11.
*--1.
1----
-*..*
-1.1*
1-*1-

Generation = 5, Population = 13.
.00-.
*--00
-****
-*.-*
-0*--

Generation = 6, Population = 12.
.11-.
*00--
-*...
0..-*
1-*11

Generation = 7, Population = 10.
*--1.
*--0-
1.*..
1.*-*
*-.--

Generation = 8, Population = 10.
.11*.
*0-10
-.*..
-..-.
.0.-1

*** Life<Cell> 5x5 ***

Generation = 0, Population = 9.
-----
-0000
----0
0---0
-0--0

Generation = 1, Population = 13.
-0000
01---
000--
---0-
--001

Generation = 2, Population = 15.
----1
-*000
-11--
0001-
-011*

Generation = 3, Population = 14.
-00-*
0*1--
-**00
1----
--***

Generation = 4, Population = 7.
----.
1.*--
0..-1
-----
00.*.

Generation = 5, Population = 14.
0-0-.
**.00
1*.0-
-0-10
11...

Generation = 6, Population = 8.
10--.
...-1
-..-1
1---1
*-*..

Generation = 7, Population = 12.
*10-.
...0*
1..0-
*001*
.-...

Generation = 8, Population = 11.
.-1-.
*..-*
*..-1
*--**
.1**.

*** Life<Cell> 5x5 ***

Generation = 0, Population = 1.
-----
--0--
-----
-----
-----

Generation = 1, Population = 4.
--0--
-0-0-
--0--
-----
-----

Generation = 2, Population = 3.
-----
0---0
-----
--0--
-----

Generation = 3, Population = 10.
0---0
-0-0-
0-0-0
-0-0-
--0--

Generation = 4, Population = 3.
-----
0-0-0
-----
-----
-----

Generation = 5, Population = 6.
0-0-0
-----
0-0-0
-----
-----

Generation = 6, Population = 3.
-----
-----
-----
0-0-0
-----

Generation = 7, Population = 6.
-----
-----
0-0-0
-----
0-0-0

Generation = 8, Population = 3.
-----
0-0-0
-----
-----
-----

Generation = 9, Population = 6.
0-0-0
-----
0-0-0
-----
-----

*** Life<Cell> 5x5 ***

Generation = 0, Population = 7.
-----
-0-0-
-----
-0000
--0--

Generation = 1, Population = 12.
-0-0-
0---0
--0-0
011-1
--1-0

Generation = 2, Population = 8.
-----
--0-1
--1--
1-*--
0-*-1

Generation = 3, Population = 13.
--0-0
-01--
00-00
*-*01
1-.--

Generation = 4, Population = 9.
--1--
-----
-----
*1*1-
*0.01

Generation = 5, Population = 11.
-0-0-
--1--
0010-
**.--
*-.-*

Generation = 6, Population = 15.
0-1-0
00*0-
-1*10
...11
*-.0.

Generation = 7, Population = 11.
10*0-
-1.-1
--.--
.*.*-
.0.1*

*** Life<Cell> 5x5 ***

Generation = 0, Population = 5.
-----
----0
-----
000--
----0

Generation = 1, Population = 14.
----0
---0-
000-0
1-100
0000-

Generation = 2, Population = 7.
-----
00--0
----1
--*1-
--1--

Generation = 3, Population = 17.
00--0
11001
000-*
-0**-
-0*--

Generation = 4, Population = 8.
----1
*-1-*
--1-*
-1..-
0-.--

Generation = 5, Population = 9.
0-00*
.-*-*
0-*-.
--..0
--.--

Generation = 6, Population = 8.
----*
.1*0*
--.0.
1-..-
--.-0

Generation = 7, Population = 15.
-00-*
.**1*
00.1*
-1..0
0-.0-

*** Life<Cell> 5x5 ***

Generation = 0, Population = 11.
-----
-0000
----0
0000-
-0--0

Generation = 1, Population = 14.
-0000
01---
0--01
11-10
-1---

Generation = 2, Population = 7.
----1
-----
-00--
-----
-*000

Generation = 3, Population = 12.
---0-
-10-0
0110-
---10
0.--1

Generation = 4, Population = 7.
-0---
-----
1**-1
-1---
-.--*

Generation = 5, Population = 10.
0-0--
0-0-0
***--
-*---
-.-0.

*** Life<Cell> 5x5 ***

Generation = 0, Population = 9.
-----
-0--0
-00-0
0-00-
--0--

Generation = 1, Population = 14.
-0--0
01-01
---01
-011-
001--

Generation = 2, Population = 10.
-10-1
1---*
0--1-
--*--
11---

Generation = 3, Population = 11.
-*1-*
*-0-*
10---
--*--
**---

Generation = 4, Population = 10.
-*--.
*-1-.
-10-1
-0*1-
.*---

*** Life<Cell> 5x5 ***

Generation = 0, Population = 14.
-----
-000-
00-00
000-0
000--

Generation = 1, Population = 10.
-000-
-----
-1---
1--01
-1-00

Generation = 2, Population = 11.
01-10
--00-
--000
-00--
-----

Generation = 3, Population = 15.
1*0-1
0--10
--111
11--1
-10--

Generation = 4, Population = 16.
-*11*
1-0-1
--***
*-0-*
--100

Generation = 5, Population = 9.
-**-*
-0---
-1*.*
.---.
01---

Generation = 6, Population = 12.
1**-.
1-0--
0-*..
*-0-.
1*1--

Generation = 7, Population = 10.
-.*1.
-0-1-
--**.
*1-0.
-.-0-

Generation = 8, Population = 14.
-.*-.
1---1
01.**
.*0-*
1.110

*** Life<Cell> 5x5 ***

Generation = 0, Population = 4.
-----
--0--
-----
---00
--0--

Generation = 1, Population = 10.
--0--
-0-0-
--000
---11
-0--0

Generation = 2, Population = 8.
-----
0--1-
--1--
-0--*
0-0-1

Generation = 3, Population = 10.
0--0-
-0--0
0---0
--01.
-0--*

Generation = 4, Population = 11.
--0--
0-0-1
--1-1
0-1**
0---.

Generation = 5, Population = 14.
00100
----*
-0-0-
1--.*
1000.

*** Life<Cell> 5x5 ***

Generation = 0, Population = 4.
-----
----0
-----
--0--
--00-

Generation = 1, Population = 9.
----0
---0-
--0-0
-01--
-0-10

Generation = 2, Population = 9.
-----
----0
--10-
0----
010*1

Generation = 3, Population = 10.
----0
--0--
00*1-
1---0
---**

*** Life<Cell> 5x5 ***

Generation = 0, Population = 7.
-----
---00
-00-0
-00--
-----

Generation = 1, Population = 12.
---00
-0-1-
0--01
0--00
-00--

Generation = 2, Population = 11.
-00-1
----0
1-01-
1----
-11-0

Generation = 3, Population = 15.
011-*
00--1
*-1*-
*--00
-**--

Generation = 4, Population = 15.
-**-.
1-0-*
*0*.1
*-0-1
-**-0

Generation = 5, Population = 10.
-**0.
*---.
*-*.-
*----
-**-1

Generation = 6, Population = 9.
-**1.
*--1.
*-..-
*---1
-*.--

Generation = 7, Population = 10.
-**-.
*--*.
*0..1
*--0-
-..-1

Generation = 8, Population = 13.
-**-.
*0-*.
*1**-
*-0-1
0..--

Generation = 9, Population = 12.
-**-.
.1-*.
.*..-
*010-
1*.-1

Generation = 10, Population = 7.
0**-.
*-0..
...*-
.--1-
-..--

Generation = 11, Population = 13.
-.*1.
*11*.
..**1
.-1*1
-..0-

Generation = 12, Population = 4.
0..-.
.--..
....-
.0-.-
-.*1-

Generation = 13, Population = 3.
-..-.
.--..
....-
.--.-
-.**1

Generation = 14, Population = 5.
-..-.
.--..
....-
.-1*1
-..**

Generation = 15, Population = 6.
-..-.
.--..
...*1
.0*.-
-.*.*

Generation = 16, Population = 8.
-..-.
.--..
..***
.1*.-
-***.

Generation = 17, Population = 9.
-..-.
.-1*.
.***.
.-..1
1*.*.

Generation = 18, Population = 6.
-..1.
.--*.
.*..*
*-..-
*....

Generation = 19, Population = 7.
-..*.
.11**
.....
*-..1
.....

Generation = 20, Population = 9.
-..**
.*-**
.**.*
.1..-
.....

*** Life<Cell> 5x5 ***

Generation = 0, Population = 1.
-----
-----
---0-
-----
-----

Generation = 1, Population = 4.
-----
---0-
--0-0
---0-
-----

Generation = 2, Population = 3.
---0-
-----
-0---
-----
---0-

Generation = 3, Population = 10.
--0-0
-0-0-
0-0--
-0-0-
--0-0

Generation = 4, Population = 3.
---0-
-----
---0-
-----
---0-

Generation = 5, Population = 6.
--0-0
-----
--0-0
-----
--0-0

Generation = 6, Population = 3.
-0---
-----
-0---
-----
-0---

Generation = 7, Population = 6.
0-0--
-----
0-0--
-----
0-0--

Generation = 8, Population = 3.
---0-
-----
---0-
-----
---0-

Generation = 9, Population = 6.
--0-0
-----
--0-0
-----
--0-0

Generation = 10, Population = 3.
-0---
-----
-0---
-----
-0---

Generation = 11, Population = 6.
0-0--
-----
0-0--
-----
0-0--

Generation = 12, Population = 3.
---0-
-----
---0-
-----
---0-

Generation = 13, Population = 6.
--0-0
-----
--0-0
-----
--0-0

Generation = 14, Population = 3.
-0---
-----
-0---
-----
-0---

Generation = 15, Population = 6.
0-0--
-----
0-0--
-----
0-0--

Generation = 16, Population = 3.
---0-
-----
---0-
-----
---0-

Generation = 17, Population = 6.
--0-0
-----
--0-0
-----
--0-0

Generation = 18, Population = 3.
-0---
-----
-0---
-----
-0---

Generation = 19, Population = 6.
0-0--
-----
0-0--
-----
0-0--

Generation = 20, Population = 3.
---0-
-----
---0-
-----
---0-

Generation = 21, Population = 6.
--0-0
-----
--0-0
-----
--0-0

Generation = 22, Population = 3.
-0---
-----
-0---
-----
-0---

Generation = 23, Population = 6.
0-0--
-----
0-0--
-----
0-0--

Generation = 24, Population = 3.
---0-
-----
---0-
-----
---0-

Generation = 25, Population = 6.
--0-0
-----
--0-0
-----
--0-0

*** Life<Cell> 5x5 ***

Generation = 0, Population = 10.
-----
-0-00
--0-0
0---0
-000-

Generation = 1, Population = 11.
-0-00
0-01-
0--0-
----1
-1-1-

Generation = 2, Population = 13.
--0-1
101*-
10-1-
00-0-
0----

Generation = 3, Population = 14.
0-10-
-1*.-
*10-0
1--11
1--1-

Generation = 4, Population = 13.
-0-11
1-..0
**-11
-----
*10*-

Generation = 5, Population = 9.
---*-
*1..-
**-*-
--0-1
.--.0

Generation = 6, Population = 14.
001.1
*-..-
*.0*-
1--1*
.-0*1

Generation = 7, Population = 12.
--*.-
*-..0
*.1*-
*00*.
.11.-

Generation = 8, Population = 10.
00..1
.1*.-
*.-.-
*1-..
*--*-

Generation = 9, Population = 12.
1-*.-
.-*.0
*.1.-
**0..
*-1.1

Generation = 10, Population = 12.
--.*1
.1*.-
*.-.1
*.1..
*1**-

Generation = 11, Population = 14.
-0***
.**.-
*.-*-
*.*..
*-**1

Generation = 12, Population = 14.
1-.*.
*...0
*.1*1
*.*.*
.-***

Generation = 13, Population = 10.
*0...
*.*.1
*.-.*
.....
.1*.*

Generation = 14, Population = 11.
*1...
*..**
.*1*.
.*.*.
.*...

Generation = 15, Population = 11.
**...
*..**
**-..
**.*.
..*..

Generation = 16, Population = 9.
**...
..*..
..1**
*....
.**..

Generation = 17, Population = 5.
.*...
..*..
.*-*.
.....
.*...

Generation = 18, Population = 4.
.....
.**..
..1..
..*..
.....

Generation = 19, Population = 3.
.....
.**..
..-*.
.....
.....

Generation = 20, Population = 1.
.....
..*..
..-..
.....
.....

Generation = 21, Population = 1.
.....
.....
..1..
.....
.....

Generation = 22, Population = 0.
.....
.....
..-..
.....
.....

Generation = 23, Population = 0.
.....
.....
..-..
.....
.....

Generation = 24, Population = 0.
.....
.....
..-..
.....
.....

*** Life<Cell> 5x5 ***

Generation = 0, Population = 9.
-----
----0
-0000
0000-
-----

Generation = 1, Population = 13.
----0
-00-1
--11-
111--
0000-

Generation = 2, Population = 19.
-0001
01-0*
00**-
-**0-
-1110

Generation = 3, Population = 8.
---1-
-*-1.
--..-
-..1-
0-**1

Generation = 4, Population = 14.
-00*1
0.-*.
-0*.-
1.**-
--***

Generation = 5, Population = 11.
-1-**
-.0.*
01..-
-...-
01*.*

Generation = 6, Population = 12.
0-0**
0.-.*
1*..0
-.*.0
1-...

Generation = 7, Population = 10.
1-1**
-.0.*
-*..-
-..*1
-1...

Generation = 8, Population = 9.
---.*
0.1.*
1.*.-
-.*.*
1-...

Generation = 9, Population = 9.
1-1*.
1.*..
*.*.-
-..*.
-1...

Generation = 10, Population = 9.
*--*.
-.*..
..**-
1**..
1-...

Generation = 11, Population = 9.
.1-..
1**..
...*0
-.**.
*-...

Generation = 12, Population = 12.
**-..
****.
....1
1.***
.1...

Generation = 13, Population = 12.
*.-..
*.**.
*...*
-****
.-**.

Generation = 14, Population = 9.
.*1..
*..*.
*...*
-*..*
.-..*

Generation = 15, Population = 12.
.**..
*.**.
**.**
-..**
.1...

Generation = 16, Population = 11.
.***.
*...*
**...
1*.**
.-...

Generation = 17, Population = 11.
.***.
*..*.
..***
-**..
.1...

Generation = 18, Population = 8.
.***.
.....
....*
1*...
.**..

*** Life<Cell> 5x5 ***

Generation = 0, Population = 2.
-----
-----
-----
---0-
-0---

Generation = 1, Population = 7.
-----
-----
---0-
-00-0
0-00-

Generation = 2, Population = 5.
-----
---0-
-0---
-1---
-0-1-

Generation = 3, Population = 14.
---0-
-00-0
0100-
0-00-
01--0

Generation = 4, Population = 3.
-0---
-----
-*---
-----
-*---

Generation = 5, Population = 6.
0-0--
-----
0.0--
-----
0.0--

Generation = 6, Population = 3.
---0-
-----
-.-0-
-----
-.-1-

Generation = 7, Population = 6.
--0-0
-----
-.0-0
-----
-.0-0

Generation = 8, Population = 1.
-0---
-----
-.---
-----
-.---

Generation = 9, Population = 3.
0-0--
-0---
-.---
-----
-.---

Generation = 10, Population = 2.
-0-0-
-----
-.---
-----
-.---

Generation = 11, Population = 4.
0---0
-0-0-
-.---
-----
-.---

*** Life<Cell> 5x5 ***

Generation = 0, Population = 8.
-----
-0-00
-----
--00-
00-0-

Generation = 1, Population = 17.
-0-00
0--11
-00-0
0-1-0
11010

Generation = 2, Population = 8.
-----
-0--*
01-0-
1--0-
--1--

Generation = 3, Population = 10.
-0--0
-10-.
---1-
*--10
11---

Generation = 4, Population = 15.
01-0-
0-1-.
01-*-
*-1-1
-*110

Generation = 5, Population = 12.
-*0-0
---1.
1*-*-
*-*-*
-**--

Generation = 6, Population = 15.
0.10-
0--**
-*0*-
*-.1.
-**10

Generation = 7, Population = 14.
1**--
1-1.*
1*-.-
*0.-.
-***1

Generation = 8, Population = 13.
-.*00
--**.
*.-.0
.1.1.
-****

Generation = 9, Population = 15.
-.*11
11*..
.*0.-
**.*.
1*.**

Generation = 10, Population = 11.
1.*-*
**...
..-*-
...**
-*.**

Generation = 11, Population = 11.
*..-.
****.
..0*-
.....
1.***

Generation = 12, Population = 10.
*.*1.
*..*.
..-*0
.*..*
-..*.

Generation = 13, Population = 7.
.**-.
.*...
..0*-
..*.*
-....

Generation = 14, Population = 8.
.**1.
.*.*.
.*-*-
..*..
-....

Generation = 15, Population = 10.
.*.-.
**.**
.*0*0
..*..
-....

*** Life<Cell> 5x5 ***

Generation = 0, Population = 12.
-----
-00-0
0-00-
00-0-
0-00-

Generation = 1, Population = 13.
-00-0
-1-0-
1----
11--0
101-0

*** Life<Cell> 5x5 ***

Generation = 0, Population = 4.
-----
--0--
-0-0-
-----
---0-

Generation = 1, Population = 7.
--0--
-----
0-0-0
-0---
--0-0

Generation = 2, Population = 6.
-0-0-
0---0
-0---
--0--
-----

Generation = 3, Population = 4.
-----
-0---
----0
---0-
--0--

Generation = 4, Population = 6.
-0---
0-0-0
-0---
-----
-0---

Generation = 5, Population = 4.
----0
-----
----0
-----
0-0--

Generation = 6, Population = 6.
---0-
-----
---0-
0-0-0
---0-

Generation = 7, Population = 4.
--0-0
-----
0----
-----
0----

Generation = 8, Population = 6.
-0---
0-0-0
-0---
-----
-0---

*** Life<Cell> 5x5 ***

Generation = 0, Population = 12.
-----
----0
-0-00
00--0
00000

Generation = 1, Population = 9.
----0
-0--1
-1-11
-1-0-
-1---

Generation = 2, Population = 13.
-0-01
010--
0----
0--1-
0*00-

Generation = 3, Population = 13.
-101*
-*1-1
--01-
---*0
-*--0

Generation = 4, Population = 11.
0-1-*
0.*-*
----1
-1-.-
0.0-1

Generation = 5, Population = 11.
1-*-.
1..-*
0101*
---*-
-*---

*** Life<Cell> 5x5 ***

Generation = 0, Population = 8.
-----
---00
0--00
-0---
--0-0

Generation = 1, Population = 6.
---00
0-0--
--0--
---0-
-----

Generation = 2, Population = 10.
0--11
--1-0
001--
----0
---0-

Generation = 3, Population = 11.
-0-*-
--*01
1--0-
000--
--0--

Generation = 4, Population = 11.
0-0*-
0-.-*
*-11-
-----
0-10-

*** Life<Cell> 5x5 ***

Generation = 0, Population = 11.
-----
--00-
-0000
0--0-
0--00

Generation = 1, Population = 11.
--00-
-----
-11-1
1---0
100-1

Generation = 2, Population = 15.
-0110
-0-00
-**-*
*0-0-
--1-*

Generation = 3, Population = 9.
0--*-
0---1
-..-*
*---0
1--0.

Generation = 4, Population = 13.
101.-
10--*
-..0*
.0--1
*01-.

Generation = 5, Population = 16.
-1*.0
----*
0**1*
*1--*
*1*0.

Generation = 6, Population = 16.
1*.*1
1---*
-.*-*
.*00*
***1.

Generation = 7, Population = 14.
-*.*-
*-0-*
0.*1*
*.-1*
*..-*

Generation = 8, Population = 11.
-***-
*01-*
-.**.
*.--.
...-*

*** Life<Cell> 5x5 ***

Generation = 0, Population = 11.
-----
-000-
---0-
-0000
0-0-0

Generation = 1, Population = 14.
-000-
01--0
--0--
-111-
-0101

Generation = 2, Population = 12.
---1-
1-0--
001-0
0----
0-*1*

Generation = 3, Population = 9.
0---0
*11-0
1----
---1-
1-.-.

Generation = 4, Population = 15.
1-011
*-*-1
*-100
--1-0
-0.1.

Generation = 5, Population = 9.
*----
*-.--
.-*-1
0-*-1
1-*-.

Generation = 6, Population = 10.
.0---
.1.-1
.0.-*
1-*-*
*-.1.

Generation = 7, Population = 18.
.10-1
*-*0*
*1*0*
*1*1*
.0.-.

Generation = 8, Population = 11.
.*-1*
*-.1.
.*.-.
.-.**
*1.1.

Generation = 9, Population = 14.
..--*
*1.**
..*-*
*-.**
.****

Generation = 10, Population = 9.
..--*
.**.*
*.*-.
.-...
.**.*

Generation = 11, Population = 9.
..01.
.**..
..*0.
.1**.
.....

Generation = 12, Population = 6.
.*-*.
.*...
...-.
.*.*.
..*..

Generation = 13, Population = 5.
..-..
..*..
..*0.
..*..
..*..

Generation = 14, Population = 8.
..0..
..**.
.**1.
.**..
.....

Generation = 15, Population = 4.
..1*.
.....
...-.
.*.*.
.....

Generation = 16, Population = 2.
..*..
.....
...1.
.....
.....

Generation = 17, Population = 0.
.....
.....
...-.
.....
.....

Generation = 18, Population = 0.
.....
.....
...-.
.....
.....

Generation = 19, Population = 0.
.....
.....
...-.
.....
.....

Generation = 20, Population = 0.
.....
.....
...-.
.....
.....

Generation = 21, Population = 0.
.....
.....
...-.
.....
.....

Generation = 22, Population = 0.
.....
.....
...-.
.....
.....

Generation = 23, Population = 0.
.....
.....
...-.
.....
.....

Generation = 24, Population = 0.
.....
.....
...-.
.....
.....

*** Life<Cell> 5x5 ***

Generation = 0, Population = 10.
-----
-----
000--
0-0-0
0000-

Generation = 1, Population = 8.
-----
000--
---00
---0-
--11-

Generation = 2, Population = 12.
000--
1-1-0
00--1
-----
-0*-0

Generation = 3, Population = 11.
---00
--*-1
-1-0*
0-0--
01.--

Generation = 4, Population = 7.
---1-
--*--
---1*
1---0
-*.--

Generation = 5, Population = 10.
----0
-0*01
0--**
----1
-..-0

Generation = 6, Population = 10.
-00-1
-1*1*
---..
1----
-..11

Generation = 7, Population = 15.
0--1*
1-.-*
010*.
-0-01
0..**

Generation = 8, Population = 15.
100**
--.1*
-*-..
1101-
-.***

Generation = 9, Population = 11.
*--.*
1-.-*
-*-.*
**1--
0...*

Generation = 10, Population = 10.
.0-..
*-.1*
0.-*.
*.*1-
1....

Generation = 11, Population = 9.
.-0..
*-*-*
-.-..
*.*-1
**...

Generation = 12, Population = 6.
.01*.
.-.-.
-.-..
*..--
**...

Generation = 13, Population = 9.
.1-..
.1*1.
0.-..
**.--
**...

*** Life<Cell> 5x5 ***

Generation = 0, Population = 13.
-----
-0-00
-000-
00000
0---0

Generation = 1, Population = 17.
-0-00
010-1
-1110
-111-
1-0-1

Generation = 2, Population = 10.
-101-
1----
-*-*-
----0
-010-

Generation = 3, Population = 10.
-*-*0
-10--
-.-.-
--11-
11-1-

Generation = 4, Population = 18.
0*0*1
1-1-1
-*-*-
0-*-0
**1*1

Generation = 5, Population = 10.
-.1.-
*-*-*
0.-.0
1-.-1
*.*.-

Generation = 6, Population = 11.
0***1
.-.-.
-.1.-
-1.1*
.*..1

*** Life<Cell> 5x5 ***

Generation = 0, Population = 1.
-----
----0
-----
-----
-----

Generation = 1, Population = 3.
----0
---0-
----0
-----
-----

Generation = 2, Population = 3.
-----
--0-0
-----
----0
-----

Generation = 3, Population = 6.
--0-0
-0---
--0--
---0-
----0

*** Life<Cell> 5x5 ***

Generation = 0, Population = 11.
-----
-000-
--0-0
0-0-0
--000

Generation = 1, Population = 13.
-000-
0111-
0--01
---0-
00---

Generation = 2, Population = 15.
--1-0
-***-
1--1*
-001-
1100-

Generation = 3, Population = 15.
--*0-
-*..0
-00**
0-1*-
**1-0

Generation = 4, Population = 12.
--*1-
0*..1
--1.*
1-*.0
*.-0-

Generation = 5, Population = 12.
0-**-
1*..*
--*.*
*-*.1
.*---

Generation = 6, Population = 12.
10**-
-...*
--*.*
.0*.*
.*--0

Generation = 7, Population = 12.
*-**-
1...*
--*.*
.-*.*
.*-01

Generation = 8, Population = 11.
.-.*-
*.*.*
10..*
.-*.*
..11-

Generation = 9, Population = 10.
.-.*-
*.*.*
-1*.*
.-*.*
..-*-

Generation = 10, Population = 9.
.-.*-
..*.*
-**.*
.-*.*
..-*-

Generation = 11, Population = 11.
.-.*-
.**.*
1**.*
.-*.*
..-*-

Generation = 12, Population = 10.
.0**-
*...*
*...*
.-*.*
..-*-

Generation = 13, Population = 11.
.1**-
*.*.*
.*..*
.0..*
..-*-

Generation = 14, Population = 14.
.***-
*...*
***.*
.1***
..1.-

Generation = 15, Population = 12.
.***-
*...*
*...*
*-..*
.**.1

Generation = 16, Population = 15.
.***-
*.*.*
**.**
*-..*
.*.**

Generation = 17, Population = 12.
.***-
*...*
*.*.*
*1...
...**

*** Life<Cell> 5x5 ***

Generation = 0, Population = 11.
-----
--0--
000-0
-0-0-
000-0

Generation = 1, Population = 14.
--0--
0-100
11-0-
0---0
1110-

Generation = 2, Population = 17.
001-0
10-11
**010
-000-
---1-

Generation = 3, Population = 13.
-1*01
*1--*
..1--
--11-
-1-*0

Generation = 4, Population = 10.
--*--
*-1-*
..*-0
-----
1-1*1

Generation = 5, Population = 11.
01.01
.---.
.*.-1
0--1-
--***

Generation = 6, Population = 14.
1*.1*
*--1*
...--
---*0
11***

Generation = 7, Population = 11.
-**-*
*-1-*
...--
00-.-
*-*.*

Generation = 8, Population = 10.
-**-.
.1*-.
*..-1
-1-.0
*1...

Generation = 9, Population = 16.
1**1.
*-*1.
*.*1*
0*1.1
*-...

Generation = 10, Population = 9.
-..-.
*1.*.
*..**
1.-.*
*-...

Generation = 11, Population = 15.
1..1.
*****
*.***
-*-**
.1...

Generation = 12, Population = 10.
*..**
*....
*....
-*1.*
.**..

Generation = 13, Population = 7.
.....
**...
*....
-.-*.
.***.

Generation = 14, Population = 9.
.....
**...
**...
1*-*.
..**.

Generation = 15, Population = 7.
.....
**...
.....
-.1*.
.***.

Generation = 16, Population = 6.
.....
.....
.**..
-*-*.
.*.*.

Generation = 17, Population = 6.
.....
.....
.**..
1*1*.
.....

Generation = 18, Population = 7.
.....
.....
*..*.
*.**.
.**..

Generation = 19, Population = 8.
.....
.....
.***.
*..*.
.***.

Generation = 20, Population = 9.
.....
..*..
.***.
*...*
.***.

*** Life<Cell> 5x5 ***

Generation = 0, Population = 3.
-----
---0-
-----
---00
-----

Generation = 1, Population = 9.
---0-
--0-0
----0
--011
---00

Generation = 2, Population = 7.
-----
-0-01
-----
-01**
-----

Generation = 3, Population = 14.
-0-00
0--1*
--0--
01-*.
-0000

*** Life<Cell> 5x5 ***

Generation = 0, Population = 8.
-----
---0-
00---
---0-
-0000

Generation = 1, Population = 14.
---0-
000-0
110--
0--1-
01-11

Generation = 2, Population = 11.
00---
-1-0-
**--0
-0-*-
-*--*

Generation = 3, Population = 12.
1-00-
0----
**00-
---*0
0.0-.

Generation = 4, Population = 9.
*-110
-----
**---
-00.1
-.--.

Generation = 5, Population = 11.
.-*-1
-1000
**--0
--1.-
-.0-.

Generation = 6, Population = 14.
.-*1*
--1-1
*.0-1
0-**1
-.11.

Generation = 7, Population = 11.
.0*-*
01-0-
..-0-
1-..-
0*--*

Generation = 8, Population = 16.
*-*1.
1-11-
**011
*-..1
-*11.

Generation = 9, Population = 12.
.-*-.
-1**-
*.1*-
*0..*
-*-*.

Generation = 10, Population = 7.
.-*-.
-*..1
*.-.-
*-..*
-*-..

Generation = 11, Population = 6.
.-.1.
-*..-
**-.-
*-...
-.1..

Generation = 12, Population = 8.
.0.-.
-**.-
**1.-
*-...
0.-..

Generation = 13, Population = 5.
.1*-.
-...-
*.-.-
*-...
1.-..

Generation = 14, Population = 7.
.*.1.
1*..-
..-.-
*0...
*.-..

Generation = 15, Population = 10.
***-.
***.-
..-.-
*1...
**-..

Generation = 16, Population = 10.
*.*1.
*.*.-
..1.-
*-...
**1..

Generation = 17, Population = 9.
..**.
..*.-
..*.-
*-*..
***..

Generation = 18, Population = 12.
..**.
.**.-
..**-
*1**.
*.*..

Generation = 19, Population = 10.
.***.
.*..-
*...1
*-...
*.**.

Generation = 20, Population = 12.
.**..
**.*1
**..-
*1.*.
.*...

Generation = 21, Population = 12.
****.
...**
...*1
.*...
***..

Generation = 22, Population = 13.
.****
.*...
..**-
**.*.
***..

*** Life<Cell> 5x5 ***

Generation = 0, Population = 5.
-----
-0---
--00-
0--0-
-----

Generation = 1, Population = 11.
-0---
0--0-
0-1-0
-0-10
0--0-

Generation = 2, Population = 10.
--00-
1----
10--1
0-0--
--01-

Generation = 3, Population = 20.
00110
*-000
*1-0-
101-0
00-*0

Generation = 4, Population = 9.
--**-
.----
.--11
*-*-1
--0*-

Generation = 5, Population = 10.
-0..0
.-0-0
.--*-
.-*-*
00-*-

Generation = 6, Population = 13.
0-.*1
.--01
.-1.1
.-*-*
110*-

Generation = 7, Population = 10.
-0.*-
.---*
.1*.-
.-.1*
*-1*-

Generation = 8, Population = 8.
0-..-
.-0-.
.**.-
.0.-*
.-**-

Generation = 9, Population = 10.
-0..-
.-10.
.***1
.1.-.
.-**-

Generation = 10, Population = 10.
0-*.-
.0--*
.*..*
.*.-*
.-*.0

Generation = 11, Population = 16.
-0..1
*1-0.
*****
.**1*
.-.*1

Generation = 12, Population = 7.
-1*.-
.*11.
.....
*..-.
.1..-

Generation = 13, Population = 7.
0-.*-
.***.
.**..
...-.
.-..-

Generation = 14, Population = 6.
--.*1
*..*.
.*.*.
...-.
.-..-

Generation = 15, Population = 6.
0-.**
...*.
..*..
...1.
.-..-

Generation = 16, Population = 8.
-1.**
..***
..**.
...-.
.-..-

Generation = 17, Population = 6.
0-..*
.*...
..*.*
...1.
.-..-

Generation = 18, Population = 4.
--...
.*.*.
..**.
...-.
.-..-

Generation = 19, Population = 5.
-1...
...*.
..**.
...1.
.-..-

Generation = 20, Population = 7.
0-...
...*.
..***
..**.
.-..-

Generation = 21, Population = 7.
-1...
..***
....*
..*.*
.-..-

Generation = 22, Population = 10.
0-**.
..***
..*.*
...*.
.-..1

Generation = 23, Population = 7.
--*.*
....*
..*.*
...**
.-..-

*** Life<Cell> 5x5 ***

Generation = 0, Population = 2.
-----
-----
-----
---0-
--0--

Generation = 1, Population = 3.
-----
-----
---0-
----0
-0---

Generation = 2, Population = 6.
-----
---0-
--0--
-0---
0-0-0

Generation = 3, Population = 5.
---0-
----0
-----
--0-0
-0---

Generation = 4, Population = 4.
--0--
-----
--0--
-----
0---0

Generation = 5, Population = 9.
-0-0-
-----
-0-0-
0-0-0
-0-0-

Generation = 6, Population = 4.
0---0
-----
--0--
-----
--0--

Generation = 7, Population = 9.
-0-0-
0-0-0
-0-0-
-----
-0-0-

Generation = 8, Population = 4.
--0--
-----
--0--
-----
0---0

Generation = 9, Population = 9.
-0-0-
-----
-0-0-
0-0-0
-0-0-

Generation = 10, Population = 4.
0---0
-----
--0--
-----
--0--

Generation = 11, Population = 9.
-0-0-
0-0-0
-0-0-
-----
-0-0-

Generation = 12, Population = 4.
--0--
-----
--0--
-----
0---0

Generation = 13, Population = 9.
-0-0-
-----
-0-0-
0-0-0
-0-0-

Generation = 14, Population = 4.
0---0
-----
--0--
-----
--0--

Generation = 15, Population = 9.
-0-0-
0-0-0
-0-0-
-----
-0-0-

Generation = 16, Population = 4.
--0--
-----
--0--
-----
0---0

Generation = 17, Population = 9.
-0-0-
-----
-0-0-
0-0-0
-0-0-

Generation = 18, Population = 4.
0---0
-----
--0--
-----
--0--

Generation = 19, Population = 9.
-0-0-
0-0-0
-0-0-
-----
-0-0-

Generation = 20, Population = 4.
--0--
-----
--0--
-----
0---0

Generation = 21, Population = 9.
-0-0-
-----
-0-0-
0-0-0
-0-0-

Generation = 22, Population = 4.
0---0
-----
--0--
-----
--0--

Generation = 23, Population = 9.
-0-0-
0-0-0
-0-0-
-----
-0-0-

Generation = 24, Population = 4.
--0--
-----
--0--
-----
0---0

Generation = 25, Population = 9.
-0-0-
-----
-0-0-
0-0-0
-0-0-

*** Life<Cell> 5x5 ***

Generation = 0, Population = 6.
-----
-----
-0-0-
00--0
0----

Generation = 1, Population = 6.
-----
-0-0-
-1---
--0--
1---0

Generation = 2, Population = 14.
-0-0-
01--0
0*-0-
0--00
-000-

Generation = 3, Population = 12.
-1---
-*00-
1.-10
10-11
-1---

Generation = 4, Population = 10.
0*-0-
-*---
*.-*-
-----
-*000

Generation = 5, Population = 14.
1*--0
0*0--
..0.0
100-1
1.--1

Generation = 6, Population = 7.
-.-0-
-.-0-
..-.1
-----
*.00*

Generation = 7, Population = 9.
-.010
-.01-
..-.-
1-01-
..1-.

Generation = 8, Population = 7.
-.-*1
-.---
.*-.-
---*1
.**-.

Generation = 9, Population = 9.
-.0.*
-.-10
..0.1
---**
..*-.

Generation = 10, Population = 6.
-.-.*
-.0*1
..-.-
--0.*
...-.

Generation = 11, Population = 5.
-.0.*
-.1*-
..-.-
-0-..
...-.

Generation = 12, Population = 5.
-.1..
-.-*-
..0.-
1-0..
...-.

Generation = 13, Population = 7.
-.-..
-.1*1
.*1*-
--1..
...-.

Generation = 14, Population = 7.
-.1*.
-*-.*
.*-.-
--**.
...-.

Generation = 15, Population = 10.
-.**.
0*-*.
.*-*1
--*..
...0.

Generation = 16, Population = 14.
1***.
1*1..
**1**
--*.*
...-.

Generation = 17, Population = 9.
-..*.
*.*.*
*.-.*
1-*.*
...-.

Generation = 18, Population = 8.
1..*.
.*..*
*.-.*
*-.*.
...-.

Generation = 19, Population = 10.
-....
**.**
**-**
.0...
...0.

Generation = 20, Population = 11.
1....
**.**
..-**
*1.**
...-.

Generation = 21, Population = 13.
**...
*****
..1..
.****
...0.

*** Life<Cell> 5x5 ***

Generation = 0, Population = 2.
-----
-----
-----
-0---
----0

Generation = 1, Population = 6.
-----
-----
-0---
0-0-0
-0-0-

Generation = 2, Population = 4.
-----
-0---
----0
---0-
--0--

Generation = 3, Population = 6.
-0---
0-0-0
-0---
-----
-0---

Generation = 4, Population = 4.
----0
-----
----0
-----
0-0--

Generation = 5, Population = 6.
---0-
-----
---0-
0-0-0
---0-

Generation = 6, Population = 4.
--0-0
-----
0----
-----
0----

Generation = 7, Population = 6.
-0---
0-0-0
-0---
-----
-0---

Generation = 8, Population = 4.
----0
-----
----0
-----
0-0--

Generation = 9, Population = 6.
---0-
-----
---0-
0-0-0
---0-

Generation = 10, Population = 4.
--0-0
-----
0----
-----
0----

Generation = 11, Population = 6.
-0---
0-0-0
-0---
-----
-0---

Generation = 12, Population = 4.
----0
-----
----0
-----
0-0--

Generation = 13, Population = 6.
---0-
-----
---0-
0-0-0
---0-

Generation = 14, Population = 4.
--0-0
-----
0----
-----
0----

Generation = 15, Population = 6.
-0---
0-0-0
-0---
-----
-0---

Generation = 16, Population = 4.
----0
-----
----0
-----
0-0--

Generation = 17, Population = 6.
---0-
-----
---0-
0-0-0
---0-

Generation = 18, Population = 4.
--0-0
-----
0----
-----
0----

*** Life<Cell> 5x5 ***

Generation = 0, Population = 5.
-----
--0--
---0-
-00--
-0---

Generation = 1, Population = 9.
--0--
-0---
-00-0
0-1--
01---

Generation = 2, Population = 10.
---0-
010-0
-----
1-*00
-*---

Generation = 3, Population = 13.
00---
1-10-
-0-0-
-0*-1
-*-00

Generation = 4, Population = 14.
-1-0-
*-*-0
-1-1-
11.-*
0*01-

Generation = 5, Population = 10.
--0--
*-.--
0*0-0
-*.0*
-.-*-

Generation = 6, Population = 13.
01-0-
*-*-0
-.111
-*.-*
-.0*-

Generation = 7, Population = 13.
-*0--
*1.-1
0.--*
1*.0*
-.1*-

Generation = 8, Population = 15.
-*100
*-*0*
-.--*
-*.-*
0***-

Generation = 9, Population = 15.
-**1-
.1.1.
0*1-*
-*.-*
1***-

Generation = 10, Population = 15.
0*.-0
.-.**
1.*1*
1..-*
****-

Generation = 11, Population = 14.
1..-1
*1...
****.
-..0*
****-

Generation = 12, Population = 12.
**.1-
.-.*.
*..**
-..1*
.***-

Generation = 13, Population = 12.
..**1
*1.*.
..*..
1*.*.
..**-

Generation = 14, Population = 14.
.****
.*..*
...*.
**.*.
.***0

Generation = 15, Population = 16.
.****
.*..*
**.**
**...
**.*1

Generation = 16, Population = 10.
.****
.....
...**
.....
***.*

Generation = 17, Population = 6.
..**.
.....
.....
.**.*
.*...

Generation = 18, Population = 4.
.....
.....
.....
.**..
.**..

Generation = 19, Population = 4.
.....
.....
.....
.**..
.**..

Generation = 20, Population = 4.
.....
.....
.....
.**..
.**..

*** Life<Cell> 5x5 ***

Generation = 0, Population = 2.
-----
--00-
-----
-----
-----

Generation = 1, Population = 8.
--00-
-0110
--00-
-----
-----

Generation = 2, Population = 5.
-----
01--1
-----
--00-
-----

Generation = 3, Population = 18.
00--0
1*11-
00000
-0110
--00-

Generation = 4, Population = 3.
-----
*.*-1
-----
-----
-----

Generation = 5, Population = 6.
0-0-0
...--
0-0-0
-----
-----

Generation = 6, Population = 3.
-----
...--
-----
0-1-0
-----

Generation = 7, Population = 6.
-----
...--
0-0-0
-----
0-0-0

Generation = 8, Population = 1.
-----
...-1
-----
-----
-----

Generation = 9, Population = 3.
----0
...1-
----0
-----
-----

Generation = 10, Population = 2.
-----
...-1
-----
----0
-----

Generation = 11, Population = 4.
----0
...1-
-----
---1-
----0

Generation = 12, Population = 1.
-----
...--
-----
--1--
-----

Generation = 13, Population = 4.
-----
...--
--0--
-0-1-
--0--

Generation = 14, Population = 2.
-----
...--
-----
0---0
-----

Generation = 15, Population = 6.
-----
...--
0---0
-0-1-
0---0

Generation = 16, Population = 3.
-----
...-1
-----
0---0
-----

Generation = 17, Population = 7.
----0
...1-
0----
-0-1-
0---0

Generation = 18, Population = 1.
-----
...--
-----
0----
-----

*** Life<Cell> 5x5 ***

Generation = 0, Population = 9.
-----
-0---
0-00-
0--0-
00-0-

Generation = 1, Population = 10.
-0---
---0-
101-0
----0
-1-10

Generation = 2, Population = 12.
0-00-
0----
*-*01
0-0--
0--*-

Generation = 3, Population = 15.
1-110
-0--0
*-*-*
--100
11-.0

Generation = 4, Population = 12.
-0*--
0-0--
.0*0*
----1
**-.1

Generation = 5, Population = 11.
-1*1-
----0
.1*-*
0-1--
..0.*

Generation = 6, Population = 12.
1***-
----1
.**-.
-0-0-
.*1*.

Generation = 7, Population = 12.
****-
0----
.**-.
0--11
.*-*.

Generation = 8, Population = 14.
***.0
10-0-
***-.
-0--*
..-**

Generation = 9, Population = 10.
*.**-
*1---
...-.
-1--*
..1**

Generation = 10, Population = 13.
*.*.0
**-0-
**.-.
0---*
..***

Generation = 11, Population = 11.
*.**-
..0--
..*0.
1-1-*
...**

Generation = 12, Population = 11.
.***0
..-0-
..*1.
--*-*
...**

Generation = 13, Population = 12.
..**1
.*0--
..*-*
-1*-*
...**

Generation = 14, Population = 14.
.****
.*1--
...-.
1**1*
..***

*** Life<Cell> 5x5 ***

Generation = 0, Population = 3.
-----
-----
0----
-0---
-0---

Generation = 1, Population = 6.
-----
0----
-----
-10--
010--

Generation = 2, Population = 9.
0----
-0---
000--
---0-
1*-0-

Generation = 3, Population = 10.
-----
01---
111--
---10
*.-10

Generation = 4, Population = 7.
00---
-----
-**-0
-1---
..0--

Generation = 5, Population = 14.
110--
0-0-0
1**--
0*0-0
..-1-

Generation = 6, Population = 6.
---00
-----
*..0-
-.-1-
.*---

Generation = 7, Population = 13.
--011
0---0
...10
0.0*0
..01-

Generation = 8, Population = 11.
111--
-100-
.**-1
-*-.-
.*---

Generation = 9, Population = 10.
**---
-*-1-
*..1-
0*-.0
..0--

Generation = 10, Population = 15.
**11-
0*-*0
*..*-
-*-*-
.*-10

Generation = 11, Population = 9.
*.---
1.0.1
*..*-
-*-*-
..--1

Generation = 12, Population = 7.
.*1-1
-.-*-
*..*-
-.-*-
..---

Generation = 13, Population = 12.
..*1-
1*-*-
..**1
0.0.0
..-1-

Generation = 14, Population = 9.
.**-1
**-.-
*...-
-*1.1
..---

Generation = 15, Population = 12.
***--
*.-.1
*.*.1
-**.-
..0-1

Generation = 16, Population = 12.
**.11
*.-.*
*.*.*
-.*.-
.*1--

Generation = 17, Population = 11.
**.*-
*.0.*
.....
0.*.1
.*-1-

Generation = 18, Population = 11.
****-
*.-*.
.....
-***-
.*1--

Generation = 19, Population = 14.
****1
*.-*.
.*.*.
0*.*1
.*---

Generation = 20, Population = 17.
*****
*.-..
.*.*.
1*.**
**111

Generation = 21, Population = 12.
****.
*.0.*
.*.**
-....
*.-*-

Generation = 22, Population = 16.
*.**.
*.1.*
.****
1.***
..1.1

*** Life<Cell> 5x5 ***

Generation = 0, Population = 11.
-----
-00--
0--00
00-0-
0-0-0

Generation = 1, Population = 16.
-00--
-11-0
10--1
11010
10-0-

Generation = 2, Population = 11.
0--00
-*--1
-10--
*--*-
--01-

Generation = 3, Population = 13.
--01-
-*--*
--1-1
.-0*0
101-0

Generation = 4, Population = 13.
--1*-
0*1-*
--*0-
.-1.1
*--11

Generation = 5, Population = 13.
0--*-
1.*-*
1-.11
.1*.*
.0-*-

Generation = 6, Population = 13.
10-*-
-.*-*
*-.**
*-..*
.11*-

Generation = 7, Population = 12.
*11*-
-.*-*
.1..*
*-..*
.*-*-

*** Life<Cell> 5x5 ***

Generation = 0, Population = 14.
-----
-0000
00-0-
-00-0
0000-

Generation = 1, Population = 16.
-0000
---11
11-10
01---
1111-

Generation = 2, Population = 12.
01-1-
0--**
-----
1*--0
-*-*0

Generation = 3, Population = 14.
-*-*-
1-0**
-1-1-
**0-1
-*-*-

Generation = 4, Population = 14.
-*0*-
--1.*
1*-*0
*.1--
-*1*-

Generation = 5, Population = 16.
0*1*-
10*.*
-.-.-
*.*01
-***0

Generation = 6, Population = 5.
-.**-
-1...
-.-.-
...1-
-*..-

Generation = 7, Population = 6.
-.*.0
1-*..
-.-.-
...-1
1...-

Generation = 8, Population = 9.
0*.*-
--.*.
1.0.0
...1-
-...0

Generation = 9, Population = 7.
1.*.0
-1.**
-.-.-
...-1
-...-

Generation = 10, Population = 9.
-**.1
--***
-.-*-
...1-
-...0

Generation = 11, Population = 6.
1**.*
--..*
-.-.-
...*-
-...-

Generation = 12, Population = 8.
**.*.
11.*.
-.-.0
....1
-...-

Generation = 13, Population = 9.
**...
--.**
1.-*1
....*
-...0

Generation = 14, Population = 8.
.....
-1***
-.0.*
....*
-...1

Generation = 15, Population = 11.
..**.
1**.*
-*1.*
....*
-...*

Generation = 16, Population = 6.
..**.
*...*
-.-.*
....*
-....

*** Life<Cell> 5x5 ***

Generation = 0, Population = 1.
-----
-----
-----
-----
--0--

Generation = 1, Population = 3.
-----
-----
-----
--0--
-0-0-

Generation = 2, Population = 4.
-----
-----
--0--
-----
0-0-0

Generation = 3, Population = 5.
-----
--0--
-0-0-
0---0
-----

Generation = 4, Population = 4.
--0--
-----
--0--
-----
0---0

Generation = 5, Population = 9.
-0-0-
-----
-0-0-
0-0-0
-0-0-

Generation = 6, Population = 4.
0---0
-----
--0--
-----
--0--

Generation = 7, Population = 9.
-0-0-
0-0-0
-0-0-
-----
-0-0-

Generation = 8, Population = 4.
--0--
-----
--0--
-----
0---0

Generation = 9, Population = 9.
-0-0-
-----
-0-0-
0-0-0
-0-0-

Generation = 10, Population = 4.
0---0
-----
--0--
-----
--0--

Generation = 11, Population = 9.
-0-0-
0-0-0
-0-0-
-----
-0-0-

Generation = 12, Population = 4.
--0--
-----
--0--
-----
0---0

Generation = 13, Population = 9.
-0-0-
-----
-0-0-
0-0-0
-0-0-

Generation = 14, Population = 4.
0---0
-----
--0--
-----
--0--

Generation = 15, Population = 9.
-0-0-
0-0-0
-0-0-
-----
-0-0-

Generation = 16, Population = 4.
--0--
-----
--0--
-----
0---0

Generation = 17, Population = 9.
-0-0-
-----
-0-0-
0-0-0
-0-0-

Generation = 18, Population = 4.
0---0
-----
--0--
-----
--0--

Generation = 19, Population = 9.
-0-0-
0-0-0
-0-0-
-----
-0-0-

Generation = 20, Population = 4.
--0--
-----
--0--
-----
0---0

Generation = 21, Population = 9.
-0-0-
-----
-0-0-
0-0-0
-0-0-

Generation = 22, Population = 4.
0---0
-----
--0--
-----
--0--

*** Life<Cell> 5x5 ***

Generation = 0, Population = 9.
-----
----0
-0-0-
-000-
00--0

Generation = 1, Population = 8.
----0
-0---
0101-
-1---
1----

Generation = 2, Population = 11.
-0-0-
-1-00
1--*0
0*-0-
-----

Generation = 3, Population = 13.
01-1-
-*-1-
*10.-
-*-1-
10-0-

Generation = 4, Population = 17.
1--*0
0.0*0
*-1*-
0.0*0
*--10

Generation = 5, Population = 6.
*1-.-
-.-.-
*-*.0
-.-.-
.0---

Generation = 6, Population = 9.
.*0.-
-.0.0
.-..-
0*0.0
.-0--

Generation = 7, Population = 14.
.*-*0
-*1*-
.1*.-
1*-*-
.-110

Generation = 8, Population = 11.
.*0*1
0.*.-
.*..-
*.-.-
.-**1

Generation = 9, Population = 14.
.*1**
-...0
**..-
.*0*0
.0.**

Generation = 10, Population = 8.
..-**
0...1
**..-
..-.-
.1..*

Generation = 11, Population = 13.
..1**
1*.**
**..0
**-.0
.-...

Generation = 12, Population = 8.
.**.*
-....
....-
**0.1
.1...

Generation = 13, Population = 8.
.....
-....
.*..0
**1.-
***..

Generation = 14, Population = 7.
.....
-....
***.-
..-*1
*.*..

Generation = 15, Population = 11.
.....
1*...
.***0
*.1**
...*.

Generation = 16, Population = 6.
.....
**.*.
....-
..-..
..***

Generation = 17, Population = 3.
.....
.....
....-
..1*.
...*.

Generation = 18, Population = 4.
.....
.....
....-
..**.
..**.

Generation = 19, Population = 4.
.....
.....
....-
..**.
..**.

Generation = 20, Population = 4.
.....
.....
....-
..**.
..**.

Generation = 21, Population = 4.
.....
.....
....-
..**.
..**.

Generation = 22, Population = 4.
.....
.....
....-
..**.
..**.

Generation = 23, Population = 4.
.....
.....
....-
..**.
..**.

*** Life<Cell> 5x5 ***

Generation = 0, Population = 10.
-----
-00-0
00---
----0
000-0

Generation = 1, Population = 11.
-00-0
--1--
1----
--001
1-1-1

Generation = 2, Population = 13.
01---
0-*00
-0-00
-0---
--*0*

Generation = 3, Population = 10.
-*-00
1-.1-
-10--
01---
--*-.

Generation = 4, Population = 9.
-.--1
-0.*-
1-1--
1-0--
1-.0.

Generation = 5, Population = 8.
-.---
--**-
*1*--
--1--
*0.-.

Generation = 6, Population = 10.
-.00-
1-**0
.-.--
-1*0-
.1.-.

Generation = 7, Population = 12.
0*---
--*.1
.1.-0
1-*11
.*.0.

Generation = 8, Population = 12.
1*--1
10***
.-.--
--.*-
.*.1*

Generation = 9, Population = 12.
-.--*
-1***
.1.-0
-1**-
..*-*

Generation = 10, Population = 13.
-.0-*
1-*.*
*-.01
1-..1
.**1.

Generation = 11, Population = 15.
1*1-.
*-*.*
*1.1*
*-..*
.***.

Generation = 12, Population = 13.
-.-0.
.-..*
*****
*1..*
.***.

Generation = 13, Population = 12.
-.1-.
.1..*
*.*.*
.*..*
****.

Generation = 14, Population = 10.
-.-0.
.-*..
*.*.*
....*
****.

Generation = 15, Population = 8.
-.--.
.1*..
.*...
*...*
.***.

Generation = 16, Population = 10.
-.1-.
.-*..
***..
*..*.
.***.

Generation = 17, Population = 12.
-.*0.
.-**.
*.**.
*..*.
.***.

Generation = 18, Population = 9.
-.*-.
.1..*
....*
*...*
.***.

*** Life<Cell> 5x5 ***

Generation = 0, Population = 12.
-----
-0--0
0-000
--000
0--00

Generation = 1, Population = 9.
-0--0
----1
-0-11
-0--1
-0---

Generation = 2, Population = 15.
0-001
-----
01-**
0-0-*
010-0

Generation = 3, Population = 12.
--1-*
-00--
-*0**
--10*
----1

Generation = 4, Population = 8.
--*-.
0-1--
0.-.*
---1.
--0-*

Generation = 5, Population = 15.
00.0.
1-*01
1*0*.
0---*
-1-0.

Generation = 6, Population = 11.
-1.1*
--.-*
*.1..
1011*
----.

Generation = 7, Population = 15.
0-.**
10*-*
*.*.*
--*-.
0100.

Generation = 8, Population = 13.
1-***
*-*0*
*.*..
--.-.
1-11.

Generation = 9, Population = 11.
*-*.*
*-.1*
..*..
--*1.
--**.

Generation = 10, Population = 12.
.-..*
.0***
.**.*
-0.-.
-1**.

Generation = 11, Population = 10.
.1*.*
.-..*
*...*
1-.1.
1-*..

*** Life<Cell> 5x5 ***

Generation = 0, Population = 12.
-----
-000-
00--0
0-00-
00-0-

Generation = 1, Population = 11.
-000-
---1-
--00-
--1--
-1010

Generation = 2, Population = 14.
01--0
-00-0
-0--0
---00
0*1-1

Generation = 3, Population = 15.
1--01
-11--
01---
0--11
1**1*

Generation = 4, Population = 12.
---1*
0-*-0
---00
-0---
-****

Generation = 5, Population = 13.
1--**
--*--
01-1-
01---
1***.

Generation = 6, Population = 10.
-1-*.
--*10
--0-0
1*---
-.*..

Generation = 7, Population = 15.
1-0**
--.*-
0-111
**1-1
1*...

Generation = 8, Population = 10.
--1**
--..0
11-*-
..-1*
-.*..

Generation = 9, Population = 14.
-1***
01..1
**-*1
.*--*
-..*.

Generation = 10, Population = 11.
--***
-*..-
..-**
**11*
-....

Generation = 11, Population = 12.
--**.
0...-
*.-.*
.*-**
1***.

Generation = 12, Population = 16.
11...
1*.*1
**-**
..1.*
**.**

Generation = 13, Population = 9.
--*..
*..*-
*.1..
..-..
.****

Generation = 14, Population = 8.
11...
..**1
.*-..
..-..
..**.

Generation = 15, Population = 10.
****.
*.***
..-*.
..1..
.....

Generation = 16, Population = 7.
*...*
*...*
.*1.*
..-..
.....

Generation = 17, Population = 6.
.....
*...*
.***.
..1..
.....

*** Life<Cell> 5x5 ***

Generation = 0, Population = 3.
-----
----0
-----
-0---
0----

Generation = 1, Population = 5.
----0
---0-
-0--0
--0--
-----

Generation = 2, Population = 7.
-----
-00-0
0----
---00
--0--

Generation = 3, Population = 12.
-00-0
-11--
--00-
0--11
-0--0

Generation = 4, Population = 7.
0----
0-*-0
0----
-----
--0-1

Generation = 5, Population = 12.
100-0
--.--
100-0
0-0-1
-0---

Generation = 6, Population = 7.
*-1--
--.--
----1
1-1-*
----1

Generation = 7, Population = 12.
.--0-
0-.-0
1-00*
----*
0-00*

Generation = 8, Population = 12.
.-1--
11*01
*-1-*
---1.
--1-*

Generation = 9, Population = 11.
.-*-0
--.--
*0*-*
1-1-*
-0-0.

Generation = 10, Population = 11.
.0.--
11*--
*-*-.
*-*1*
--1-.

Generation = 11, Population = 12.
*1*--
-**0-
*0.-.
.-*-.
00*-.

Generation = 12, Population = 13.
**.--
1..11
*-.0.
.0*1.
1-*0.

Generation = 13, Population = 12.
**.00
-.*-*
*-.-.
*1.**
-0.-.

Generation = 14, Population = 15.
.**1-
-.*1*
*-*0*
*-*..
-1*0.

*** Life<Cell> 5x5 ***

Generation = 0, Population = 10.
-----
--0--
000-0
0-0--
-0-00

Generation = 1, Population = 11.
--0--
0-100
--1--
1-1--
--011

Generation = 2, Population = 12.
001-0
--*-1
-0--0
----0
00--*

Generation = 3, Population = 13.
1---1
00*--
0--0-
1--0-
1101.

*** Life<Cell> 5x5 ***

Generation = 0, Population = 7.
-----
-0---
--00-
0--0-
-00--

Generation = 1, Population = 11.
-0---
0--0-
0-1-0
--010
-11--

Generation = 2, Population = 11.
--00-
1----
1-*-1
0-1--
0*--0

Generation = 3, Population = 14.
00110
*0-00
--.--
-0*1-
-*-0-

*** Life<Cell> 5x5 ***

Generation = 0, Population = 2.
-----
-0---
-0---
-----
-----

Generation = 1, Population = 8.
-0---
010--
010--
-0---
-----

Generation = 2, Population = 5.
-1---
---0-
---0-
-1---
-0---

Generation = 3, Population = 18.
0-00-
-1010
-1010
0*00-
010--

Generation = 4, Population = 3.
-1---
-----
-*---
-.---
-*---

Generation = 5, Population = 6.
0-0--
-----
0.0--
-.---
0.0--

Generation = 6, Population = 3.
---0-
-----
-.-1-
-.---
-.-0-

Generation = 7, Population = 6.
--0-0
-----
-.0-0
-.---
-.0-0

Generation = 8, Population = 1.
-1---
-----
-.---
-.---
-.---

Generation = 9, Population = 3.
0-0--
-1---
-.---
-.---
-.---

Generation = 10, Population = 2.
-1-0-
-----
-.---
-.---
-.---

Generation = 11, Population = 4.
0---0
-1-1-
-.---
-.---
-.---

Generation = 12, Population = 1.
-----
-----
-.-1-
-.---
-.---

Generation = 13, Population = 4.
-----
---1-
-.0-0
-.-0-
-.---

*** Life<Cell> 5x5 ***

Generation = 0, Population = 9.
-----
--00-
--0-0
0--00
-0-0-

Generation = 1, Population = 9.
--00-
-0-1-
001-1
-----
---1-

Generation = 2, Population = 15.
--1-0
-1-*-
11*0-
00000
--0-0

*** Life<Cell> 5x5 ***

Generation = 0, Population = 8.
-----
--000
-0---
-0--0
0-0--

Generation = 1, Population = 13.
--000
--1-1
01-0-
-1-0-
-0-00

Generation = 2, Population = 10.
-0---
0-*-*
1-01-
-----
01--1

Generation = 3, Population = 15.
----0
10*0.
*--*-
-1000
1*00-

Generation = 4, Population = 13.
000--
--*-*
*10.-
0-1-1
*.1--

Generation = 5, Population = 10.
1--00
-0.-.
*-1.-
-1---
..*01

Generation = 6, Population = 12.
--011
1-*0.
*--.-
--101
..*-*

Generation = 7, Population = 14.
10-**
*-*-*
.1-.0
01---
..*0*

Generation = 8, Population = 15.
-10**
*-*0*
.*-*1
1--0-
.**-.

Generation = 9, Population = 11.
-*1.*
*-.-.
**1.-
-1-1-
.**-.

Generation = 10, Population = 9.
-**..
*0.-.
*.*.-
----1
.**-.

Generation = 11, Population = 9.
-**..
*-.-.
*...1
11-1-
...0.

Generation = 12, Population = 7.
-*...
*-.-.
*...-
-*-*-
..*1.

Generation = 13, Population = 8.
-....
*-.-.
**..-
-*1*1
..*-.

Generation = 14, Population = 10.
1....
*-.-.
*..*1
-.***
.**-.

Generation = 15, Population = 10.
*....
*0.0.
.**.-
1...*
.**-.

Generation = 16, Population = 9.
**...
*-.-.
..**1
-..*.
.*.1.

Generation = 17, Population = 10.
**...
*-*0.
..***
-....
..**.

*** Life<Cell> 5x5 ***

Generation = 0, Population = 7.
-----
---0-
0--0-
---00
---00

Generation = 1, Population = 11.
---0-
0-010
-00--
0-01-
--0--

Generation = 2, Population = 17.
0--1-
-0-*1
01100
-01*0
001--

Generation = 3, Population = 13.
--0*-
010.-
1-*-1
01-.-
11--0

Generation = 4, Population = 10.
0--*0
--1.1
--*--
1--*-
--10-

Generation = 5, Population = 18.
-0-*-
01*.*
11*-1
-11*0
11*-0

Generation = 6, Population = 12.
-10*-
--..*
--.0-
1*-.1
**.01

Generation = 7, Population = 15.
0*-*-
-1..*
11.-1
-*1.*
***1-

Generation = 8, Population = 12.
1*-.-
0-.**
**.0-
1.-.*
*..*-

Generation = 9, Population = 13.
-*0.0
-1.**
***11
-.-**
....-

Generation = 10, Population = 11.
1*1.1
--...
**.-*
1*-.*
....1

Generation = 11, Population = 13.
***.-
--**.
**.1.
-*1**
....*

Generation = 12, Population = 10.
.***-
-1.*.
*..-.
-*-.*
..*.*

Generation = 13, Population = 12.
.*.*1
-*.*.
***1.
-*-*.
...*.

Generation = 14, Population = 10.
...**
-....
*..**
-*1**
..*..

Generation = 15, Population = 8.
.....
0....
.*..*
-**.*
.**..

Generation = 16, Population = 8.
.....
-....
****.
1....
.***.

Generation = 17, Population = 9.
.....
0**..
***..
*....
.**..

*** Life<Cell> 5x5 ***

Generation = 0, Population = 2.
-----
-----
0---0
-----
-----

Generation = 1, Population = 6.
-----
0---0
-0-0-
0---0
-----

Generation = 2, Population = 6.
0---0
-----
0---0
-----
0---0

Generation = 3, Population = 6.
-0-0-
-----
-0-0-
-----
-0-0-

Generation = 4, Population = 6.
0---0
-----
0---0
-----
0---0

Generation = 5, Population = 6.
-0-0-
-----
-0-0-
-----
-0-0-

Generation = 6, Population = 6.
0---0
-----
0---0
-----
0---0

Generation = 7, Population = 6.
-0-0-
-----
-0-0-
-----
-0-0-

Generation = 8, Population = 6.
0---0
-----
0---0
-----
0---0

Generation = 9, Population = 6.
-0-0-
-----
-0-0-
-----
-0-0-

Generation = 10, Population = 6.
0---0
-----
0---0
-----
0---0

Generation = 11, Population = 6.
-0-0-
-----
-0-0-
-----
-0-0-

Generation = 12, Population = 6.
0---0
-----
0---0
-----
0---0

Generation = 13, Population = 6.
-0-0-
-----
-0-0-
-----
-0-0-

Generation = 14, Population = 6.
0---0
-----
0---0
-----
0---0

Generation = 15, Population = 6.
-0-0-
-----
-0-0-
-----
-0-0-

Generation = 16, Population = 6.
0---0
-----
0---0
-----
0---0

*** Life<Cell> 5x5 ***

Generation = 0, Population = 9.
-----
--0-0
0000-
-0-0-
---0-

Generation = 1, Population = 15.
--0-0
0-10-
111--
-10-0
-0010

*** Life<Cell> 5x5 ***

Generation = 0, Population = 4.
-----
-----
---0-
--0--
--0-0

Generation = 1, Population = 7.
-----
---0-
----0
-01-0
-01--

Generation = 2, Population = 10.
---0-
--0--
-00-1
0---1
0--00

Generation = 3, Population = 11.
----0
--1-0
-1--*
1-1--
1011-

Generation = 4, Population = 11.
--001
-----
--00.
*-*-1
--**0

Generation = 5, Population = 11.
-01-*
----0
01-1.
.-.-*
10*.-

Generation = 6, Population = 11.
01*-.
0-1-1
1*--*
.-.-.
*-..0

Generation = 7, Population = 9.
--*0.
--*-*
-*-1.
*0.-.
.0..-

Generation = 8, Population = 11.
-1*1.
--.-*
-*0-.
*1.0.
*1..-

Generation = 9, Population = 9.
0***.
--.-.
-*1-.
.*.-.
*-*.-

Generation = 10, Population = 11.
1**..
0-.0.
1**1.
*..-.
.1..-

Generation = 11, Population = 8.
-**..
-0.1.
*.*-.
*..0.
.-..-

Generation = 12, Population = 8.
1**..
-1.-.
*.*1.
.*.-.
.-..-

Generation = 13, Population = 13.
***..
0*.1.
*.**.
.**0.
.1..-

Generation = 14, Population = 8.
*.*..
1..*.
*...*
*..-.
.*..-

*** Life<Cell> 5x5 ***

Generation = 0, Population = 6.
-----
-0---
0--0-
0--0-
0----

Generation = 1, Population = 14.
-0---
--00-
1-010
-0010
10-0-

Generation = 2, Population = 10.
0--0-
0----
-01--
0-1--
*-01-

Generation = 3, Population = 14.
100-0
1-00-
11-1-
10---
.--*0

Generation = 4, Population = 10.
---0-
-----
*-1*0
--1-0
.00.1

Generation = 5, Population = 9.
--0-0
1-0-0
.--.-
1--1-
.1-.*

Generation = 6, Population = 11.
101-1
--1-1
.-1*0
--1--
.-0..

Generation = 7, Population = 10.
*---*
1--0-
.1*.-
-0--0
.11..

Generation = 8, Population = 10.
.0--.
*----
*-**0
1-11-
.-*..

Generation = 9, Population = 13.
.-1-.
*-101
*-*.1
*-*--
.1**.

Generation = 10, Population = 12.
.0*-.
.-*--
*-*.*
*0.-0
.***.

Generation = 11, Population = 15.
.1*0.
.-*01
*1*..
*-.-1
****.

Generation = 12, Population = 14.
.*.-*
*0.1*
*-*.*
.0.--
****.

Generation = 13, Population = 16.
***-*
*-.**
*-*.*
.1.11
***..

Generation = 14, Population = 16.
***0*
*-..*
*1*..
.*.*-
****.

Generation = 15, Population = 15.
***-*
.0..*
****.
...*1
**.*.

Generation = 16, Population = 10.
***-.
.-..*
**...
....*
..***

Generation = 17, Population = 8.
.*.0.
.-*..
.....
.**.*
...**

Generation = 18, Population = 10.
..*-.
.-*..
.***.
..*.*
..***

Generation = 19, Population = 5.
...0.
.-...
.*...
....*
..*.*

Generation = 20, Population = 3.
...-.
.0...
.....
...*.
...*.

Generation = 21, Population = 0.
...-.
.-...
.....
.....
.....

*** Life<Cell> 5x5 ***

Generation = 0, Population = 2.
-----
-----
---0-
-----
----0

Generation = 1, Population = 6.
-----
---0-
--0-0
---00
---0-

Generation = 2, Population = 5.
---0-
-----
-0--1
-----
--01-

Generation = 3, Population = 16.
--0-0
-0-00
0-00-
-0000
-01*0

Generation = 4, Population = 6.
---01
-----
---11
-----
0-*.-

Generation = 5, Population = 10.
--01*
-----
--0**
0-000
--..-

Generation = 6, Population = 9.
-01-.
-----
00-.*
---1-
0-.*0

Generation = 7, Population = 17.
01*1.
0-0-0
110..
-00*0
-0.*1

Generation = 8, Population = 10.
--**.
---0-
-*1.*
-11.-
01..-

Generation = 9, Population = 13.
-1**.
-001-
1*-..
-*-*0
1-*.-

Generation = 10, Population = 15.
0-.*.
-11-0
*.-.*
0.1*1
-1**1

Generation = 11, Population = 12.
--**.
0**11
*.-.*
1.-.*
-*..-

Generation = 12, Population = 9.
0-..*
-..*-
*.1.*
**-..
-...1

Generation = 13, Population = 10.
-1...
-*.*1
*.-*.
**-*.
1...-

Generation = 14, Population = 13.
0**..
-*.**
*.1*.
**-..
**..-

Generation = 15, Population = 12.
1***.
0...*
*.***
..-..
**..-

Generation = 16, Population = 10.
-***.
-...*
.*.**
*.1*.
....-

Generation = 17, Population = 11.
1.**.
-*..*
.*..*
.****
....-

Generation = 18, Population = 15.
-***.
-*..*
**..*
.****
..**1

Generation = 19, Population = 9.
1***.
-...*
*...*
*....
.*..-

Generation = 20, Population = 8.
****.
-.*.*
.....
**...
....-

Generation = 21, Population = 6.
.***.
0.*..
.*...
.....
....-

Generation = 22, Population = 5.
.***.
-..*.
.*...
.....
....-

Generation = 23, Population = 4.
..**.
-*.*.
.....
.....
....-

Generation = 24, Population = 4.
..**.
0..*.
.....
.....
....-

*** Life<Cell> 5x5 ***

Generation = 0, Population = 3.
-----
-----
-0-0-
0----
-----

Generation = 1, Population = 5.
-----
-0-0-
----0
---0-
0----

Generation = 2, Population = 9.
-0-0-
0----
-0-0-
0-0--
-0-0-

Generation = 3, Population = 8.
----0
-0---
0-0-0
---0-
--0-0

Generation = 4, Population = 9.
-0-0-
-----
-0-0-
0-0-0
-0-0-

Generation = 5, Population = 4.
0---0
-----
--0--
-----
--0--

Generation = 6, Population = 9.
-0-0-
0-0-0
-0-0-
-----
-0-0-

*** Life<Cell> 5x5 ***

Generation = 0, Population = 9.
-----
-00--
-0-0-
-00--
-000-

Generation = 1, Population = 13.
-00--
0-1--
0---0
01-0-
0-110

Generation = 2, Population = 18.
-1-0-
10*00
--0--
1*010
10**1

Generation = 3, Population = 11.
-*01-
*1.11
-0-0-
-.-*-
-1..-

Generation = 4, Population = 9.
-*---
**.**
-1---
-.0.0
1-..-

Generation = 5, Population = 12.
-*010
**...
-*-0-
1*-.-
-1..1

Generation = 6, Population = 11.
-*--1
*...*
0.--0
**0.0
-*..-

Generation = 7, Population = 16.
-.01*
**.**
-.00-
*.1*1
-**.1

Generation = 8, Population = 12.
0*1**
.*...
-.-10
..*.-
-**.*

Generation = 9, Population = 13.
1*-*.
**...
-.-*1
.**.-
1***.

Generation = 10, Population = 12.
-*-..
**.**
0.-**
*...1
*..*.

Generation = 11, Population = 10.
-*1..
**.**
-.0..
**..*
.....

Generation = 12, Population = 7.
-***.
*..*.
-.-.*
.*...
.....

*** Life<Cell> 5x5 ***

Generation = 0, Population = 9.
-----
-0--0
0-0--
--00-
00--0

Generation = 1, Population = 9.
-0--0
---0-
-01-0
---1-
11---

Generation = 2, Population = 11.
0-0--
----0
01*--
0----
**00-

Generation = 3, Population = 12.
---00
-0-0-
--.00
-0-1-
**-10

Generation = 4, Population = 12.
-00-1
0---0
--.11
-1--0
**--1

Generation = 5, Population = 15.
-11-*
--0--
01.**
-*0--
**01*

*** Life<Cell> 5x5 ***

Generation = 0, Population = 3.
-----
----0
----0
-----
---0-

Generation = 1, Population = 9.
----0
---01
---01
---00
--0-0

Generation = 2, Population = 10.
----1
--0-*
--01*
----1
-0-01

*** Life<Cell> 5x5 ***

Generation = 0, Population = 6.
-----
-0---
--0-0
--0--
00---

Generation = 1, Population = 10.
-0---
0---0
--1--
0-100
11---

Generation = 2, Population = 12.
--0-0
--00-
-0*--
10--1
-*-00

*** Life<Cell> 5x5 ***

Generation = 0, Population = 10.
-----
-0000
00-0-
-0-00
-----

Generation = 1, Population = 15.
-0000
---11
110-0
-1--1
-0-00

Generation = 2, Population = 13.
01-1-
0-0-*
**10-
-----
01-1-

Generation = 3, Population = 11.
-*0--
--1-*
*.*1-
--0--
1*--0

Generation = 4, Population = 13.
0*-10
0--1.
..**-
--1-1
**-1-

Generation = 5, Population = 9.
-*--1
1---.
.**.-
0-*--
.*0--

Generation = 6, Population = 9.
-.01-
-01-.
*.*.-
--.0-
.*-1-

Generation = 7, Population = 13.
-*-*1
-1*-.
..**-
01.11
..-*0

Generation = 8, Population = 14.
0*0**
1-.1*
*...-
1*.*-
..0*-

Generation = 9, Population = 14.
-*-.*
--.-*
*.**0
-*.*1
.*1*0

Generation = 10, Population = 11.
0.0..
11*-*
.**.1
-...*
.*-.-

Generation = 11, Population = 11.
1.1*.
-*.-.
*.*.-
-***.
..1.0

Generation = 12, Population = 8.
-**..
1..1.
*..*-
-....
.**.-

Generation = 13, Population = 8.
-**..
*..*.
....1
1**..
....-

Generation = 14, Population = 11.
-**..
.***.
*.**-
**...
.*..-

Generation = 15, Population = 10.
1*.*.
*....
*..*1
*....
**..-

Generation = 16, Population = 11.
-*...
*.***
**..*
*....
**..-

Generation = 17, Population = 12.
-***.
*.***
*.*.*
.....
**..-

Generation = 18, Population = 7.
-*..*
*...*
..*.*
*....
....-

Generation = 19, Population = 4.
-....
.*..*
.*.*.
.....
....-

Generation = 20, Population = 2.
-....
..*..
..*..
.....
....-

*** Life<Cell> 5x5 ***

Generation = 0, Population = 10.
-----
--0--
000--
000--
0-0-0

Generation = 1, Population = 15.
--0--
0-10-
-110-
11100
101--

Generation = 2, Population = 12.
001--
-0*-0
0--1-
---11
-1--0

Generation = 3, Population = 14.
11-00
0-.0-
---*0
111--
1-1-1

*** Life<Cell> 5x5 ***

Generation = 0, Population = 5.
-----
--00-
-----
0--0-
-0---

Generation = 1, Population = 12.
--00-
-0110
0-0--
--0-0
--00-

Generation = 2, Population = 9.
-----
-1-*1
-0---
00-0-
-0-1-

Generation = 3, Population = 15.
-0-00
0*-.*
--0-0
11-10
-1-*0

Generation = 4, Population = 12.
-1-1-
1*-.*
-0-0-
*-0-1
-*-*-

Generation = 5, Population = 14.
-*---
**1**
010-0
*----
-*0*-

Generation = 6, Population = 15.
-*-10
..*.*
1*-01
*1-11
-*-.0

Generation = 7, Population = 12.
0.0*-
*....
-.0-*
.*--*
-*0*1

Generation = 8, Population = 13.
1*1.0
..*..
1*--.
.*0-*
0*-*-

Generation = 9, Population = 13.
**-*-
..**.
*.0-.
..11.
1*0*-

Generation = 10, Population = 14.
.*1*0
*..*.
..-0.
*.*-.
**1*1

Generation = 11, Population = 13.
.*-*1
.*...
.*-1.
*..1*
*.***

Generation = 12, Population = 14.
..-.*
**.**
**-**
*..*.
.**.*

Generation = 13, Population = 8.
..-**
**...
..-..
*....
.***.

Generation = 14, Population = 7.
..1..
.....
**-..
.**..
.**..

Generation = 15, Population = 5.
..-..
.*...
**-..
.....
.**..

Generation = 16, Population = 7.
..-..
**...
**0..
*.*..
.....

Generation = 17, Population = 4.
..-..
*.*..
..-..
*.*..
.....

Generation = 18, Population = 1.
..1..
.....
..-..
.....
.....

Generation = 19, Population = 0.
..-..
.....
..-..
.....
.....

Generation = 20, Population = 0.
..-..
.....
..-..
.....
.....

