*** Life<ConwayCell> 5x5 ***

Generation = 0, Population = 13.
.....
.*.**
.***.
*****
...**

Generation = 1, Population = 6.
.....
.*.**
.....
*....
.*..*

Generation = 2, Population = 0.
.....
.....
.....
.....
.....

Generation = 3, Population = 0.
.....
.....
.....
.....
.....

Generation = 4, Population = 0.
.....
.....
.....
.....
.....

Generation = 5, Population = 0.
.....
.....
.....
.....
.....

Generation = 6, Population = 0.
.....
.....
.....
.....
.....

Generation = 7, Population = 0.
.....
.....
.....
.....
.....

Generation = 8, Population = 0.
.....
.....
.....
.....
.....

Generation = 9, Population = 0.
.....
.....
.....
.....
.....

Generation = 10, Population = 0.
.....
.....
.....
.....
.....

Generation = 11, Population = 0.
.....
.....
.....
.....
.....

Generation = 12, Population = 0.
.....
.....
.....
.....
.....

Generation = 13, Population = 0.
.....
.....
.....
.....
.....

Generation = 14, Population = 0.
.....
.....
.....
.....
.....

Generation = 15, Population = 0.
.....
.....
.....
.....
.....

Generation = 16, Population = 0.
.....
.....
.....
.....
.....

Generation = 17, Population = 0.
.....
.....
.....
.....
.....

Generation = 18, Population = 0.
.....
.....
.....
.....
.....

Generation = 19, Population = 0.
.....
.....
.....
.....
.....

Generation = 20, Population = 0.
.....
.....
.....
.....
.....

Generation = 21, Population = 0.
.....
.....
.....
.....
.....

Generation = 22, Population = 0.
.....
.....
.....
.....
.....

Generation = 23, Population = 0.
.....
.....
.....
.....
.....

Generation = 24, Population = 0.
.....
.....
.....
.....
.....

*** Life<ConwayCell> 5x5 ***

Generation = 0, Population = 6.
.....
.*...
*...*
.*...
*..*.

Generation = 1, Population = 4.
.....
.....
**...
**...
.....

Generation = 2, Population = 4.
.....
.....
**...
**...
.....

Generation = 3, Population = 4.
.....
.....
**...
**...
.....

Generation = 4, Population = 4.
.....
.....
**...
**...
.....

Generation = 5, Population = 4.
.....
.....
**...
**...
.....

Generation = 6, Population = 4.
.....
.....
**...
**...
.....

Generation = 7, Population = 4.
.....
.....
**...
**...
.....

Generation = 8, Population = 4.
.....
.....
**...
**...
.....

Generation = 9, Population = 4.
.....
.....
**...
**...
.....

Generation = 10, Population = 4.
.....
.....
**...
**...
.....

Generation = 11, Population = 4.
.....
.....
**...
**...
.....

*** Life<ConwayCell> 5x5 ***

Generation = 0, Population = 1.
.....
...*.
.....
.....
.....

Generation = 1, Population = 0.
.....
.....
.....
.....
.....

Generation = 2, Population = 0.
.....
.....
.....
.....
.....

Generation = 3, Population = 0.
.....
.....
.....
.....
.....

Generation = 4, Population = 0.
.....
.....
.....
.....
.....

Generation = 5, Population = 0.
.....
.....
.....
.....
.....

Generation = 6, Population = 0.
.....
.....
.....
.....
.....

Generation = 7, Population = 0.
.....
.....
.....
.....
.....

Generation = 8, Population = 0.
.....
.....
.....
.....
.....

Generation = 9, Population = 0.
.....
.....
.....
.....
.....

Generation = 10, Population = 0.
.....
.....
.....
.....
.....

Generation = 11, Population = 0.
.....
.....
.....
.....
.....

Generation = 12, Population = 0.
.....
.....
.....
.....
.....

Generation = 13, Population = 0.
.....
.....
.....
.....
.....

Generation = 14, Population = 0.
.....
.....
.....
.....
.....

Generation = 15, Population = 0.
.....
.....
.....
.....
.....

Generation = 16, Population = 0.
.....
.....
.....
.....
.....

Generation = 17, Population = 0.
.....
.....
.....
.....
.....

Generation = 18, Population = 0.
.....
.....
.....
.....
.....

Generation = 19, Population = 0.
.....
.....
.....
.....
.....

*** Life<ConwayCell> 5x5 ***

Generation = 0, Population = 9.
.....
...*.
.**..
*.**.
**.*.

Generation = 1, Population = 7.
.....
..*..
.*...
*..*.
**.*.

Generation = 2, Population = 6.
.....
.....
.**..
*....
***..

Generation = 3, Population = 4.
.....
.....
.*...
*....
**...

Generation = 4, Population = 3.
.....
.....
.....
*....
**...

Generation = 5, Population = 4.
.....
.....
.....
**...
**...

Generation = 6, Population = 4.
.....
.....
.....
**...
**...

Generation = 7, Population = 4.
.....
.....
.....
**...
**...

Generation = 8, Population = 4.
.....
.....
.....
**...
**...

Generation = 9, Population = 4.
.....
.....
.....
**...
**...

Generation = 10, Population = 4.
.....
.....
.....
**...
**...

Generation = 11, Population = 4.
.....
.....
.....
**...
**...

Generation = 12, Population = 4.
.....
.....
.....
**...
**...

Generation = 13, Population = 4.
.....
.....
.....
**...
**...

Generation = 14, Population = 4.
.....
.....
.....
**...
**...

Generation = 15, Population = 4.
.....
.....
.....
**...
**...

Generation = 16, Population = 4.
.....
.....
.....
**...
**...

Generation = 17, Population = 4.
.....
.....
.....
**...
**...

Generation = 18, Population = 4.
.....
.....
.....
**...
**...

Generation = 19, Population = 4.
.....
.....
.....
**...
**...

*** Life<ConwayCell> 5x5 ***

Generation = 0, Population = 2.
.....
.....
.....
..*.*
.....

Generation = 1, Population = 0.
.....
.....
.....
.....
.....

Generation = 2, Population = 0.
.....
.....
.....
.....
.....

Generation = 3, Population = 0.
.....
.....
.....
.....
.....

Generation = 4, Population = 0.
.....
.....
.....
.....
.....

Generation = 5, Population = 0.
.....
.....
.....
.....
.....

Generation = 6, Population = 0.
.....
.....
.....
.....
.....

Generation = 7, Population = 0.
.....
.....
.....
.....
.....

Generation = 8, Population = 0.
.....
.....
.....
.....
.....

Generation = 9, Population = 0.
.....
.....
.....
.....
.....

Generation = 10, Population = 0.
.....
.....
.....
.....
.....

Generation = 11, Population = 0.
.....
.....
.....
.....
.....

Generation = 12, Population = 0.
.....
.....
.....
.....
.....

*** Life<ConwayCell> 5x5 ***

Generation = 0, Population = 13.
.....
.****
***..
...*.
*****

Generation = 1, Population = 11.
..**.
*..*.
*...*
....*
.****

Generation = 2, Population = 14.
..**.
.****
...**
.**.*
..***

Generation = 3, Population = 7.
.*..*
.*...
.....
.*...
.**.*

*** Life<ConwayCell> 5x5 ***

Generation = 0, Population = 11.
.....
.*.**
.*..*
**..*
**.*.

Generation = 1, Population = 10.
.....
..***
.*..*
...**
***..

Generation = 2, Population = 10.
...*.
..***
.....
*..**
.***.

Generation = 3, Population = 14.
..***
..***
..*..
.*.**
.****

Generation = 4, Population = 9.
..*.*
.*..*
.*...
.*..*
.*..*

Generation = 5, Population = 10.
...*.
.***.
***..
***..
.....

Generation = 6, Population = 6.
...*.
*..*.
.....
*.*..
.*...

Generation = 7, Population = 3.
.....
.....
.*...
.*...
.*...

Generation = 8, Population = 3.
.....
.....
.....
***..
.....

*** Life<ConwayCell> 5x5 ***

Generation = 0, Population = 11.
.....
.*..*
***.*
.**..
.**.*

Generation = 1, Population = 8.
.....
****.
*....
.....
.***.

Generation = 2, Population = 10.
.**..
***..
*.*..
.**..
..*..

Generation = 3, Population = 10.
*.*..
*..*.
*..*.
..**.
.**..

Generation = 4, Population = 11.
.*...
*.**.
.*.**
...*.
.***.

Generation = 5, Population = 10.
.**..
*..**
.*..*
.*...
..**.

Generation = 6, Population = 14.
.***.
*..**
*****
.*.*.
..*..

Generation = 7, Population = 9.
.****
*....
*....
*...*
..*..

Generation = 8, Population = 9.
.***.
*.**.
**...
.*...
.....

*** Life<ConwayCell> 5x5 ***

Generation = 0, Population = 5.
.....
.....
...*.
.*.*.
.*..*

Generation = 1, Population = 4.
.....
.....
..*..
...**
..*..

Generation = 2, Population = 4.
.....
.....
...*.
..**.
...*.

Generation = 3, Population = 7.
.....
.....
..**.
..***
..**.

Generation = 4, Population = 6.
.....
.....
..*.*
.*..*
..*.*

Generation = 5, Population = 5.
.....
.....
...*.
.**.*
...*.

Generation = 6, Population = 6.
.....
.....
..**.
..*.*
..**.

Generation = 7, Population = 6.
.....
.....
..**.
.*..*
..**.

Generation = 8, Population = 6.
.....
.....
..**.
.*..*
..**.

Generation = 9, Population = 6.
.....
.....
..**.
.*..*
..**.

Generation = 10, Population = 6.
.....
.....
..**.
.*..*
..**.

Generation = 11, Population = 6.
.....
.....
..**.
.*..*
..**.

Generation = 12, Population = 6.
.....
.....
..**.
.*..*
..**.

Generation = 13, Population = 6.
.....
.....
..**.
.*..*
..**.

Generation = 14, Population = 6.
.....
.....
..**.
.*..*
..**.

Generation = 15, Population = 6.
.....
.....
..**.
.*..*
..**.

Generation = 16, Population = 6.
.....
.....
..**.
.*..*
..**.

Generation = 17, Population = 6.
.....
.....
..**.
.*..*
..**.

Generation = 18, Population = 6.
.....
.....
..**.
.*..*
..**.

Generation = 19, Population = 6.
.....
.....
..**.
.*..*
..**.

*** Life<ConwayCell> 5x5 ***

Generation = 0, Population = 8.
.....
...**
.*..*
*..*.
.*.*.

Generation = 1, Population = 9.
.....
...**
..*.*
**.**
..*..

Generation = 2, Population = 9.
.....
...**
.**..
.*..*
.***.

Generation = 3, Population = 9.
.....
..**.
.**.*
*....
.***.

Generation = 4, Population = 8.
.....
.***.
.**..
*....
.**..

Generation = 5, Population = 7.
..*..
.*.*.
*..*.
*....
.*...

Generation = 6, Population = 8.
..*..
.*.*.
***..
**...
.....

Generation = 7, Population = 5.
..*..
*..*.
.....
*.*..
.....

Generation = 8, Population = 1.
.....
.....
.*...
.....
.....

Generation = 9, Population = 0.
.....
.....
.....
.....
.....

Generation = 10, Population = 0.
.....
.....
.....
.....
.....

Generation = 11, Population = 0.
.....
.....
.....
.....
.....

Generation = 12, Population = 0.
.....
.....
.....
.....
.....

Generation = 13, Population = 0.
.....
.....
.....
.....
.....

*** Life<ConwayCell> 5x5 ***

Generation = 0, Population = 9.
.....
.....
**..*
****.
*..*.

Generation = 1, Population = 6.
.....
.....
*..*.
...**
*..*.

Generation = 2, Population = 7.
.....
.....
...**
..***
...**

Generation = 3, Population = 5.
.....
.....
..*.*
..*..
..*.*

Generation = 4, Population = 4.
.....
.....
...*.
.**..
...*.

Generation = 5, Population = 4.
.....
.....
..*..
..**.
..*..

Generation = 6, Population = 7.
.....
.....
..**.
.***.
..**.

Generation = 7, Population = 6.
.....
.....
.*.*.
.*..*
.*.*.

Generation = 8, Population = 6.
.....
.....
..*..
**.**
..*..

Generation = 9, Population = 8.
.....
.....
.***.
.*.*.
.***.

Generation = 10, Population = 7.
.....
..*..
.*.*.
*...*
.*.*.

Generation = 11, Population = 8.
.....
..*..
.***.
**.**
.....

Generation = 12, Population = 9.
.....
.***.
*...*
**.**
.....

Generation = 13, Population = 10.
..*..
.***.
*...*
**.**
.....

Generation = 14, Population = 12.
.***.
.***.
*...*
**.**
.....

Generation = 15, Population = 10.
.*.*.
*...*
*...*
**.**
.....

Generation = 16, Population = 10.
.....
**.**
*...*
**.**
.....

Generation = 17, Population = 8.
.....
**.**
.....
**.**
.....

Generation = 18, Population = 0.
.....
.....
.....
.....
.....

Generation = 19, Population = 0.
.....
.....
.....
.....
.....

Generation = 20, Population = 0.
.....
.....
.....
.....
.....

Generation = 21, Population = 0.
.....
.....
.....
.....
.....

Generation = 22, Population = 0.
.....
.....
.....
.....
.....

Generation = 23, Population = 0.
.....
.....
.....
.....
.....

Generation = 24, Population = 0.
.....
.....
.....
.....
.....

Generation = 25, Population = 0.
.....
.....
.....
.....
.....

*** Life<ConwayCell> 5x5 ***

Generation = 0, Population = 4.
.....
...**
.....
.*...
..*..

Generation = 1, Population = 0.
.....
.....
.....
.....
.....

Generation = 2, Population = 0.
.....
.....
.....
.....
.....

Generation = 3, Population = 0.
.....
.....
.....
.....
.....

Generation = 4, Population = 0.
.....
.....
.....
.....
.....

Generation = 5, Population = 0.
.....
.....
.....
.....
.....

Generation = 6, Population = 0.
.....
.....
.....
.....
.....

Generation = 7, Population = 0.
.....
.....
.....
.....
.....

Generation = 8, Population = 0.
.....
.....
.....
.....
.....

Generation = 9, Population = 0.
.....
.....
.....
.....
.....

Generation = 10, Population = 0.
.....
.....
.....
.....
.....

Generation = 11, Population = 0.
.....
.....
.....
.....
.....

Generation = 12, Population = 0.
.....
.....
.....
.....
.....

Generation = 13, Population = 0.
.....
.....
.....
.....
.....

Generation = 14, Population = 0.
.....
.....
.....
.....
.....

Generation = 15, Population = 0.
.....
.....
.....
.....
.....

Generation = 16, Population = 0.
.....
.....
.....
.....
.....

Generation = 17, Population = 0.
.....
.....
.....
.....
.....

Generation = 18, Population = 0.
.....
.....
.....
.....
.....

Generation = 19, Population = 0.
.....
.....
.....
.....
.....

Generation = 20, Population = 0.
.....
.....
.....
.....
.....

Generation = 21, Population = 0.
.....
.....
.....
.....
.....

Generation = 22, Population = 0.
.....
.....
.....
.....
.....

*** Life<ConwayCell> 5x5 ***

Generation = 0, Population = 7.
.....
...*.
...*.
*..**
..*.*

Generation = 1, Population = 5.
.....
.....
..**.
..*.*
....*

Generation = 2, Population = 5.
.....
.....
..**.
..*.*
...*.

Generation = 3, Population = 5.
.....
.....
..**.
..*.*
...*.

Generation = 4, Population = 5.
.....
.....
..**.
..*.*
...*.

Generation = 5, Population = 5.
.....
.....
..**.
..*.*
...*.

Generation = 6, Population = 5.
.....
.....
..**.
..*.*
...*.

Generation = 7, Population = 5.
.....
.....
..**.
..*.*
...*.

Generation = 8, Population = 5.
.....
.....
..**.
..*.*
...*.

Generation = 9, Population = 5.
.....
.....
..**.
..*.*
...*.

Generation = 10, Population = 5.
.....
.....
..**.
..*.*
...*.

Generation = 11, Population = 5.
.....
.....
..**.
..*.*
...*.

Generation = 12, Population = 5.
.....
.....
..**.
..*.*
...*.

Generation = 13, Population = 5.
.....
.....
..**.
..*.*
...*.

Generation = 14, Population = 5.
.....
.....
..**.
..*.*
...*.

Generation = 15, Population = 5.
.....
.....
..**.
..*.*
...*.

Generation = 16, Population = 5.
.....
.....
..**.
..*.*
...*.

Generation = 17, Population = 5.
.....
.....
..**.
..*.*
...*.

Generation = 18, Population = 5.
.....
.....
..**.
..*.*
...*.

Generation = 19, Population = 5.
.....
.....
..**.
..*.*
...*.

Generation = 20, Population = 5.
.....
.....
..**.
..*.*
...*.

Generation = 21, Population = 5.
.....
.....
..**.
..*.*
...*.

Generation = 22, Population = 5.
.....
.....
..**.
..*.*
...*.

*** Life<ConwayCell> 5x5 ***

Generation = 0, Population = 5.
.....
.....
....*
....*
**.*.

Generation = 1, Population = 2.
.....
.....
.....
...**
.....

Generation = 2, Population = 0.
.....
.....
.....
.....
.....

Generation = 3, Population = 0.
.....
.....
.....
.....
.....

Generation = 4, Population = 0.
.....
.....
.....
.....
.....

Generation = 5, Population = 0.
.....
.....
.....
.....
.....

*** Life<ConwayCell> 5x5 ***

Generation = 0, Population = 7.
.....
..*.*
....*
..*..
.**.*

Generation = 1, Population = 6.
.....
...*.
.....
.**..
.***.

Generation = 2, Population = 5.
.....
.....
..*..
.*.*.
.*.*.

Generation = 3, Population = 3.
.....
.....
..*..
.*.*.
.....

Generation = 4, Population = 2.
.....
.....
..*..
..*..
.....

Generation = 5, Population = 0.
.....
.....
.....
.....
.....

Generation = 6, Population = 0.
.....
.....
.....
.....
.....

Generation = 7, Population = 0.
.....
.....
.....
.....
.....

Generation = 8, Population = 0.
.....
.....
.....
.....
.....

Generation = 9, Population = 0.
.....
.....
.....
.....
.....

Generation = 10, Population = 0.
.....
.....
.....
.....
.....

Generation = 11, Population = 0.
.....
.....
.....
.....
.....

*** Life<ConwayCell> 5x5 ***

Generation = 0, Population = 12.
.....
..**.
..***
.****
.**.*

Generation = 1, Population = 4.
.....
..*.*
.....
.....
.*..*

Generation = 2, Population = 0.
.....
.....
.....
.....
.....

Generation = 3, Population = 0.
.....
.....
.....
.....
.....

Generation = 4, Population = 0.
.....
.....
.....
.....
.....

*** Life<ConwayCell> 5x5 ***

Generation = 0, Population = 10.
.....
.***.
.**.*
*...*
*..*.

Generation = 1, Population = 8.
..*..
.*.*.
*...*
*.*.*
.....

Generation = 2, Population = 9.
..*..
.***.
*.*.*
.*.*.
.....

Generation = 3, Population = 8.
.***.
.....
*...*
.***.
.....

Generation = 4, Population = 11.
..*..
.***.
.***.
.***.
..*..

Generation = 5, Population = 8.
.***.
.....
*...*
.....
.***.

Generation = 6, Population = 8.
..*..
.***.
.....
.***.
..*..

Generation = 7, Population = 12.
.***.
.***.
.....
.***.
.***.

Generation = 8, Population = 8.
.*.*.
.*.*.
.....
.*.*.
.*.*.

Generation = 9, Population = 0.
.....
.....
.....
.....
.....

Generation = 10, Population = 0.
.....
.....
.....
.....
.....

Generation = 11, Population = 0.
.....
.....
.....
.....
.....

Generation = 12, Population = 0.
.....
.....
.....
.....
.....

Generation = 13, Population = 0.
.....
.....
.....
.....
.....

Generation = 14, Population = 0.
.....
.....
.....
.....
.....

Generation = 15, Population = 0.
.....
.....
.....
.....
.....

Generation = 16, Population = 0.
.....
.....
.....
.....
.....

Generation = 17, Population = 0.
.....
.....
.....
.....
.....

Generation = 18, Population = 0.
.....
.....
.....
.....
.....

Generation = 19, Population = 0.
.....
.....
.....
.....
.....

Generation = 20, Population = 0.
.....
.....
.....
.....
.....

Generation = 21, Population = 0.
.....
.....
.....
.....
.....

Generation = 22, Population = 0.
.....
.....
.....
.....
.....

Generation = 23, Population = 0.
.....
.....
.....
.....
.....

*** Life<ConwayCell> 5x5 ***

Generation = 0, Population = 8.
.....
..*..
*...*
..*..
.****

Generation = 1, Population = 7.
.....
.....
.*.*.
..*.*
.***.

Generation = 2, Population = 6.
.....
.....
..**.
....*
.***.

Generation = 3, Population = 5.
.....
.....
...*.
.*..*
..**.

Generation = 4, Population = 3.
.....
.....
.....
....*
..**.

Generation = 5, Population = 2.
.....
.....
.....
...*.
...*.

Generation = 6, Population = 0.
.....
.....
.....
.....
.....

Generation = 7, Population = 0.
.....
.....
.....
.....
.....

Generation = 8, Population = 0.
.....
.....
.....
.....
.....

Generation = 9, Population = 0.
.....
.....
.....
.....
.....

Generation = 10, Population = 0.
.....
.....
.....
.....
.....

Generation = 11, Population = 0.
.....
.....
.....
.....
.....

Generation = 12, Population = 0.
.....
.....
.....
.....
.....

Generation = 13, Population = 0.
.....
.....
.....
.....
.....

Generation = 14, Population = 0.
.....
.....
.....
.....
.....

Generation = 15, Population = 0.
.....
.....
.....
.....
.....

Generation = 16, Population = 0.
.....
.....
.....
.....
.....

Generation = 17, Population = 0.
.....
.....
.....
.....
.....

*** Life<ConwayCell> 5x5 ***

Generation = 0, Population = 3.
.....
....*
.....
.*...
*....

Generation = 1, Population = 0.
.....
.....
.....
.....
.....

Generation = 2, Population = 0.
.....
.....
.....
.....
.....

Generation = 3, Population = 0.
.....
.....
.....
.....
.....

Generation = 4, Population = 0.
.....
.....
.....
.....
.....

Generation = 5, Population = 0.
.....
.....
.....
.....
.....

Generation = 6, Population = 0.
.....
.....
.....
.....
.....

Generation = 7, Population = 0.
.....
.....
.....
.....
.....

Generation = 8, Population = 0.
.....
.....
.....
.....
.....

Generation = 9, Population = 0.
.....
.....
.....
.....
.....

Generation = 10, Population = 0.
.....
.....
.....
.....
.....

*** Life<ConwayCell> 5x5 ***

Generation = 0, Population = 4.
.....
...*.
..*..
...*.
...*.

Generation = 1, Population = 4.
.....
.....
..**.
..**.
.....

Generation = 2, Population = 4.
.....
.....
..**.
..**.
.....

Generation = 3, Population = 4.
.....
.....
..**.
..**.
.....

Generation = 4, Population = 4.
.....
.....
..**.
..**.
.....

Generation = 5, Population = 4.
.....
.....
..**.
..**.
.....

Generation = 6, Population = 4.
.....
.....
..**.
..**.
.....

Generation = 7, Population = 4.
.....
.....
..**.
..**.
.....

Generation = 8, Population = 4.
.....
.....
..**.
..**.
.....

Generation = 9, Population = 4.
.....
.....
..**.
..**.
.....

Generation = 10, Population = 4.
.....
.....
..**.
..**.
.....

Generation = 11, Population = 4.
.....
.....
..**.
..**.
.....

Generation = 12, Population = 4.
.....
.....
..**.
..**.
.....

Generation = 13, Population = 4.
.....
.....
..**.
..**.
.....

Generation = 14, Population = 4.
.....
.....
..**.
..**.
.....

Generation = 15, Population = 4.
.....
.....
..**.
..**.
.....

Generation = 16, Population = 4.
.....
.....
..**.
..**.
.....

Generation = 17, Population = 4.
.....
.....
..**.
..**.
.....

Generation = 18, Population = 4.
.....
.....
..**.
..**.
.....

Generation = 19, Population = 4.
.....
.....
..**.
..**.
.....

Generation = 20, Population = 4.
.....
.....
..**.
..**.
.....

Generation = 21, Population = 4.
.....
.....
..**.
..**.
.....

*** Life<ConwayCell> 5x5 ***

Generation = 0, Population = 8.
.....
.**.*
.*.**
....*
....*

Generation = 1, Population = 6.
.....
.**.*
.*..*
....*
.....

Generation = 2, Population = 6.
.....
.***.
.**.*
.....
.....

Generation = 3, Population = 4.
..*..
.*.*.
.*...
.....
.....

Generation = 4, Population = 3.
..*..
.*...
..*..
.....
.....

Generation = 5, Population = 2.
.....
.**..
.....
.....
.....

Generation = 6, Population = 0.
.....
.....
.....
.....
.....

Generation = 7, Population = 0.
.....
.....
.....
.....
.....

Generation = 8, Population = 0.
.....
.....
.....
.....
.....

Generation = 9, Population = 0.
.....
.....
.....
.....
.....

Generation = 10, Population = 0.
.....
.....
.....
.....
.....

Generation = 11, Population = 0.
.....
.....
.....
.....
.....

Generation = 12, Population = 0.
.....
.....
.....
.....
.....

Generation = 13, Population = 0.
.....
.....
.....
.....
.....

Generation = 14, Population = 0.
.....
.....
.....
.....
.....

Generation = 15, Population = 0.
.....
.....
.....
.....
.....

Generation = 16, Population = 0.
.....
.....
.....
.....
.....

Generation = 17, Population = 0.
.....
.....
.....
.....
.....

Generation = 18, Population = 0.
.....
.....
.....
.....
.....

Generation = 19, Population = 0.
.....
.....
.....
.....
.....

Generation = 20, Population = 0.
.....
.....
.....
.....
.....

Generation = 21, Population = 0.
.....
.....
.....
.....
.....

Generation = 22, Population = 0.
.....
.....
.....
.....
.....

*** Life<ConwayCell> 5x5 ***

Generation = 0, Population = 3.
.....
.....
.**..
....*
.....

Generation = 1, Population = 0.
.....
.....
.....
.....
.....

Generation = 2, Population = 0.
.....
.....
.....
.....
.....

Generation = 3, Population = 0.
.....
.....
.....
.....
.....

Generation = 4, Population = 0.
.....
.....
.....
.....
.....

Generation = 5, Population = 0.
.....
.....
.....
.....
.....

Generation = 6, Population = 0.
.....
.....
.....
.....
.....

Generation = 7, Population = 0.
.....
.....
.....
.....
.....

Generation = 8, Population = 0.
.....
.....
.....
.....
.....

Generation = 9, Population = 0.
.....
.....
.....
.....
.....

Generation = 10, Population = 0.
.....
.....
.....
.....
.....

Generation = 11, Population = 0.
.....
.....
.....
.....
.....

Generation = 12, Population = 0.
.....
.....
.....
.....
.....

Generation = 13, Population = 0.
.....
.....
.....
.....
.....

Generation = 14, Population = 0.
.....
.....
.....
.....
.....

Generation = 15, Population = 0.
.....
.....
.....
.....
.....

Generation = 16, Population = 0.
.....
.....
.....
.....
.....

Generation = 17, Population = 0.
.....
.....
.....
.....
.....

Generation = 18, Population = 0.
.....
.....
.....
.....
.....

*** Life<ConwayCell> 5x5 ***

Generation = 0, Population = 6.
.....
....*
..*.*
...*.
.*.*.

Generation = 1, Population = 5.
.....
...*.
....*
...**
..*..

Generation = 2, Population = 4.
.....
.....
....*
...**
...*.

Generation = 3, Population = 6.
.....
.....
...**
...**
...**

Generation = 4, Population = 5.
.....
.....
...**
..*..
...**

Generation = 5, Population = 3.
.....
.....
...*.
..*..
...*.

Generation = 6, Population = 2.
.....
.....
.....
..**.
.....

Generation = 7, Population = 0.
.....
.....
.....
.....
.....

Generation = 8, Population = 0.
.....
.....
.....
.....
.....

Generation = 9, Population = 0.
.....
.....
.....
.....
.....

Generation = 10, Population = 0.
.....
.....
.....
.....
.....

Generation = 11, Population = 0.
.....
.....
.....
.....
.....

*** Life<ConwayCell> 5x5 ***

Generation = 0, Population = 8.
.....
.****
.**..
....*
...*.

Generation = 1, Population = 8.
..**.
.*.*.
.*..*
..**.
.....

Generation = 2, Population = 9.
..**.
.*.**
.*..*
..**.
.....

Generation = 3, Population = 9.
..***
.*..*
.*..*
..**.
.....

Generation = 4, Population = 9.
..***
.*..*
.*..*
..**.
.....

Generation = 5, Population = 9.
..***
.*..*
.*..*
..**.
.....

Generation = 6, Population = 9.
..***
.*..*
.*..*
..**.
.....

*** Life<ConwayCell> 5x5 ***

Generation = 0, Population = 9.
.....
.....
.**.*
.*.**
..***

Generation = 1, Population = 6.
.....
.....
.**.*
.*...
..*.*

Generation = 2, Population = 3.
.....
.....
.**..
.*...
.....

Generation = 3, Population = 4.
.....
.....
.**..
.**..
.....

Generation = 4, Population = 4.
.....
.....
.**..
.**..
.....

Generation = 5, Population = 4.
.....
.....
.**..
.**..
.....

Generation = 6, Population = 4.
.....
.....
.**..
.**..
.....

Generation = 7, Population = 4.
.....
.....
.**..
.**..
.....

Generation = 8, Population = 4.
.....
.....
.**..
.**..
.....

*** Life<ConwayCell> 5x5 ***

Generation = 0, Population = 8.
.....
.**.*
**...
.....
**.*.

Generation = 1, Population = 7.
.....
***..
***..
..*..
.....

Generation = 2, Population = 6.
.*...
*.*..
*..*.
..*..
.....

Generation = 3, Population = 5.
.*...
*.*..
..**.
.....
.....

Generation = 4, Population = 6.
.*...
..**.
.***.
.....
.....

Generation = 5, Population = 5.
..*..
...*.
.*.*.
..*..
.....

Generation = 6, Population = 3.
.....
...*.
...*.
..*..
.....

Generation = 7, Population = 2.
.....
.....
..**.
.....
.....

Generation = 8, Population = 0.
.....
.....
.....
.....
.....

Generation = 9, Population = 0.
.....
.....
.....
.....
.....

Generation = 10, Population = 0.
.....
.....
.....
.....
.....

Generation = 11, Population = 0.
.....
.....
.....
.....
.....

Generation = 12, Population = 0.
.....
.....
.....
.....
.....

Generation = 13, Population = 0.
.....
.....
.....
.....
.....

Generation = 14, Population = 0.
.....
.....
.....
.....
.....

Generation = 15, Population = 0.
.....
.....
.....
.....
.....

Generation = 16, Population = 0.
.....
.....
.....
.....
.....

Generation = 17, Population = 0.
.....
.....
.....
.....
.....

*** Life<ConwayCell> 5x5 ***

Generation = 0, Population = 11.
.....
...**
.*.*.
.****
**..*

Generation = 1, Population = 8.
.....
..***
.*...
....*
**..*

Generation = 2, Population = 7.
...*.
..**.
..*.*
**...
.....

Generation = 3, Population = 6.
..**.
..*.*
..*..
.*...
.....

Generation = 4, Population = 7.
..**.
.**..
.***.
.....
.....

Generation = 5, Population = 6.
.***.
.....
.*.*.
..*..
.....

Generation = 6, Population = 5.
..*..
.*.*.
..*..
..*..
.....

Generation = 7, Population = 6.
..*..
.*.*.
.***.
.....
.....

Generation = 8, Population = 6.
..*..
.*.*.
.*.*.
..*..
.....

Generation = 9, Population = 6.
..*..
.*.*.
.*.*.
..*..
.....

Generation = 10, Population = 6.
..*..
.*.*.
.*.*.
..*..
.....

Generation = 11, Population = 6.
..*..
.*.*.
.*.*.
..*..
.....

*** Life<ConwayCell> 5x5 ***

Generation = 0, Population = 5.
.....
.*.*.
.*.*.
.*...
.....

Generation = 1, Population = 3.
.....
.....
**...
..*..
.....

Generation = 2, Population = 2.
.....
.....
.*...
.*...
.....

Generation = 3, Population = 0.
.....
.....
.....
.....
.....

Generation = 4, Population = 0.
.....
.....
.....
.....
.....

Generation = 5, Population = 0.
.....
.....
.....
.....
.....

Generation = 6, Population = 0.
.....
.....
.....
.....
.....

*** Life<ConwayCell> 5x5 ***

Generation = 0, Population = 11.
.....
..*..
*.***
*.***
.**..

Generation = 1, Population = 7.
.....
.**..
....*
*...*
.**..

Generation = 2, Population = 5.
.....
.....
.*.*.
.*.*.
.*...

Generation = 3, Population = 3.
.....
.....
.....
**...
..*..

Generation = 4, Population = 2.
.....
.....
.....
.*...
.*...

Generation = 5, Population = 0.
.....
.....
.....
.....
.....

*** Life<ConwayCell> 5x5 ***

Generation = 0, Population = 3.
.....
.*...
....*
.....
*....

Generation = 1, Population = 0.
.....
.....
.....
.....
.....

Generation = 2, Population = 0.
.....
.....
.....
.....
.....

Generation = 3, Population = 0.
.....
.....
.....
.....
.....

Generation = 4, Population = 0.
.....
.....
.....
.....
.....

Generation = 5, Population = 0.
.....
.....
.....
.....
.....

Generation = 6, Population = 0.
.....
.....
.....
.....
.....

Generation = 7, Population = 0.
.....
.....
.....
.....
.....

*** Life<ConwayCell> 5x5 ***

Generation = 0, Population = 11.
.....
....*
*.*..
*****
..***

Generation = 1, Population = 6.
.....
.....
*.*.*
*...*
....*

Generation = 2, Population = 4.
.....
.....
.*.*.
.*..*
.....

Generation = 3, Population = 2.
.....
.....
..*..
..*..
.....

Generation = 4, Population = 0.
.....
.....
.....
.....
.....

Generation = 5, Population = 0.
.....
.....
.....
.....
.....

Generation = 6, Population = 0.
.....
.....
.....
.....
.....

Generation = 7, Population = 0.
.....
.....
.....
.....
.....

Generation = 8, Population = 0.
.....
.....
.....
.....
.....

Generation = 9, Population = 0.
.....
.....
.....
.....
.....

Generation = 10, Population = 0.
.....
.....
.....
.....
.....

Generation = 11, Population = 0.
.....
.....
.....
.....
.....

Generation = 12, Population = 0.
.....
.....
.....
.....
.....

Generation = 13, Population = 0.
.....
.....
.....
.....
.....

Generation = 14, Population = 0.
.....
.....
.....
.....
.....

Generation = 15, Population = 0.
.....
.....
.....
.....
.....

Generation = 16, Population = 0.
.....
.....
.....
.....
.....

Generation = 17, Population = 0.
.....
.....
.....
.....
.....

Generation = 18, Population = 0.
.....
.....
.....
.....
.....

Generation = 19, Population = 0.
.....
.....
.....
.....
.....

Generation = 20, Population = 0.
.....
.....
.....
.....
.....

Generation = 21, Population = 0.
.....
.....
.....
.....
.....

Generation = 22, Population = 0.
.....
.....
.....
.....
.....

Generation = 23, Population = 0.
.....
.....
.....
.....
.....

Generation = 24, Population = 0.
.....
.....
.....
.....
.....

*** Life<ConwayCell> 5x5 ***

Generation = 0, Population = 8.
.....
.**..
.*...
*.*..
.***.

Generation = 1, Population = 8.
.....
.**..
*....
*..*.
.***.

Generation = 2, Population = 8.
.....
.*...
*.*..
*..*.
.***.

Generation = 3, Population = 8.
.....
.*...
*.*..
*..*.
.***.

Generation = 4, Population = 8.
.....
.*...
*.*..
*..*.
.***.

Generation = 5, Population = 8.
.....
.*...
*.*..
*..*.
.***.

Generation = 6, Population = 8.
.....
.*...
*.*..
*..*.
.***.

*** Life<ConwayCell> 5x5 ***

Generation = 0, Population = 2.
.....
..*..
.....
*....
.....

Generation = 1, Population = 0.
.....
.....
.....
.....
.....

Generation = 2, Population = 0.
.....
.....
.....
.....
.....

Generation = 3, Population = 0.
.....
.....
.....
.....
.....

Generation = 4, Population = 0.
.....
.....
.....
.....
.....

Generation = 5, Population = 0.
.....
.....
.....
.....
.....

Generation = 6, Population = 0.
.....
.....
.....
.....
.....

Generation = 7, Population = 0.
.....
.....
.....
.....
.....

Generation = 8, Population = 0.
.....
.....
.....
.....
.....

Generation = 9, Population = 0.
.....
.....
.....
.....
.....

Generation = 10, Population = 0.
.....
.....
.....
.....
.....

*** Life<ConwayCell> 5x5 ***

Generation = 0, Population = 13.
.....
.*.*.
*..**
**.**
***.*

Generation = 1, Population = 7.
.....
..***
*....
.....
*.*.*

Generation = 2, Population = 4.
...*.
...*.
...*.
.*...
.....

Generation = 3, Population = 4.
.....
..***
..*..
.....
.....

Generation = 4, Population = 4.
...*.
..**.
..*..
.....
.....

Generation = 5, Population = 6.
..**.
..**.
..**.
.....
.....

Generation = 6, Population = 6.
..**.
.*..*
..**.
.....
.....

Generation = 7, Population = 6.
..**.
.*..*
..**.
.....
.....

Generation = 8, Population = 6.
..**.
.*..*
..**.
.....
.....

Generation = 9, Population = 6.
..**.
.*..*
..**.
.....
.....

Generation = 10, Population = 6.
..**.
.*..*
..**.
.....
.....

Generation = 11, Population = 6.
..**.
.*..*
..**.
.....
.....

*** Life<ConwayCell> 5x5 ***

Generation = 0, Population = 13.
.....
.**.*
...**
.****
**.**

Generation = 1, Population = 7.
.....
..*.*
.....
**...
**..*

Generation = 2, Population = 5.
.....
.....
.*...
**...
**...

Generation = 3, Population = 5.
.....
.....
**...
..*..
**...

Generation = 4, Population = 3.
.....
.....
.*...
..*..
.*...

Generation = 5, Population = 2.
.....
.....
.....
.**..
.....

Generation = 6, Population = 0.
.....
.....
.....
.....
.....

Generation = 7, Population = 0.
.....
.....
.....
.....
.....

Generation = 8, Population = 0.
.....
.....
.....
.....
.....

Generation = 9, Population = 0.
.....
.....
.....
.....
.....

Generation = 10, Population = 0.
.....
.....
.....
.....
.....

Generation = 11, Population = 0.
.....
.....
.....
.....
.....

Generation = 12, Population = 0.
.....
.....
.....
.....
.....

Generation = 13, Population = 0.
.....
.....
.....
.....
.....

Generation = 14, Population = 0.
.....
.....
.....
.....
.....

Generation = 15, Population = 0.
.....
.....
.....
.....
.....

Generation = 16, Population = 0.
.....
.....
.....
.....
.....

Generation = 17, Population = 0.
.....
.....
.....
.....
.....

Generation = 18, Population = 0.
.....
.....
.....
.....
.....

Generation = 19, Population = 0.
.....
.....
.....
.....
.....

Generation = 20, Population = 0.
.....
.....
.....
.....
.....

Generation = 21, Population = 0.
.....
.....
.....
.....
.....

*** Life<ConwayCell> 5x5 ***

Generation = 0, Population = 3.
.....
.....
*....
....*
...*.

Generation = 1, Population = 0.
.....
.....
.....
.....
.....

Generation = 2, Population = 0.
.....
.....
.....
.....
.....

Generation = 3, Population = 0.
.....
.....
.....
.....
.....

*** Life<ConwayCell> 5x5 ***

Generation = 0, Population = 4.
.....
.....
*...*
.*..*
.....

Generation = 1, Population = 0.
.....
.....
.....
.....
.....

Generation = 2, Population = 0.
.....
.....
.....
.....
.....

Generation = 3, Population = 0.
.....
.....
.....
.....
.....

Generation = 4, Population = 0.
.....
.....
.....
.....
.....

Generation = 5, Population = 0.
.....
.....
.....
.....
.....

Generation = 6, Population = 0.
.....
.....
.....
.....
.....

Generation = 7, Population = 0.
.....
.....
.....
.....
.....

Generation = 8, Population = 0.
.....
.....
.....
.....
.....

Generation = 9, Population = 0.
.....
.....
.....
.....
.....

Generation = 10, Population = 0.
.....
.....
.....
.....
.....

Generation = 11, Population = 0.
.....
.....
.....
.....
.....

Generation = 12, Population = 0.
.....
.....
.....
.....
.....

Generation = 13, Population = 0.
.....
.....
.....
.....
.....

Generation = 14, Population = 0.
.....
.....
.....
.....
.....

Generation = 15, Population = 0.
.....
.....
.....
.....
.....

Generation = 16, Population = 0.
.....
.....
.....
.....
.....

Generation = 17, Population = 0.
.....
.....
.....
.....
.....

Generation = 18, Population = 0.
.....
.....
.....
.....
.....

Generation = 19, Population = 0.
.....
.....
.....
.....
.....

Generation = 20, Population = 0.
.....
.....
.....
.....
.....

Generation = 21, Population = 0.
.....
.....
.....
.....
.....

Generation = 22, Population = 0.
.....
.....
.....
.....
.....

Generation = 23, Population = 0.
.....
.....
.....
.....
.....

*** Life<ConwayCell> 5x5 ***

Generation = 0, Population = 13.
.....
...**
*.**.
*.**.
*****

Generation = 1, Population = 6.
.....
..***
.....
*....
*...*

Generation = 2, Population = 3.
...*.
...*.
...*.
.....
.....

Generation = 3, Population = 3.
.....
..***
.....
.....
.....

Generation = 4, Population = 3.
...*.
...*.
...*.
.....
.....

Generation = 5, Population = 3.
.....
..***
.....
.....
.....

Generation = 6, Population = 3.
...*.
...*.
...*.
.....
.....

Generation = 7, Population = 3.
.....
..***
.....
.....
.....

Generation = 8, Population = 3.
...*.
...*.
...*.
.....
.....

Generation = 9, Population = 3.
.....
..***
.....
.....
.....

Generation = 10, Population = 3.
...*.
...*.
...*.
.....
.....

Generation = 11, Population = 3.
.....
..***
.....
.....
.....

Generation = 12, Population = 3.
...*.
...*.
...*.
.....
.....

Generation = 13, Population = 3.
.....
..***
.....
.....
.....

Generation = 14, Population = 3.
...*.
...*.
...*.
.....
.....

Generation = 15, Population = 3.
.....
..***
.....
.....
.....

Generation = 16, Population = 3.
...*.
...*.
...*.
.....
.....

Generation = 17, Population = 3.
.....
..***
.....
.....
.....

Generation = 18, Population = 3.
...*.
...*.
...*.
.....
.....

Generation = 19, Population = 3.
.....
..***
.....
.....
.....

Generation = 20, Population = 3.
...*.
...*.
...*.
.....
.....

Generation = 21, Population = 3.
.....
..***
.....
.....
.....

Generation = 22, Population = 3.
...*.
...*.
...*.
.....
.....

Generation = 23, Population = 3.
.....
..***
.....
.....
.....

*** Life<ConwayCell> 5x5 ***

Generation = 0, Population = 12.
.....
.***.
****.
..**.
*.**.

Generation = 1, Population = 10.
..*..
*..*.
*...*
*...*
.***.

Generation = 2, Population = 12.
.....
.*.*.
**.**
*.*.*
.***.

Generation = 3, Population = 11.
.....
**.**
*...*
*...*
.***.

Generation = 4, Population = 12.
.....
**.**
*...*
*.*.*
.***.

Generation = 5, Population = 13.
.....
**.**
*.*.*
*.*.*
.***.

Generation = 6, Population = 13.
.....
*****
*.*.*
*...*
.***.

Generation = 7, Population = 14.
.***.
*.*.*
*.*.*
*...*
.***.

Generation = 8, Population = 12.
.***.
*...*
*...*
*...*
.***.

Generation = 9, Population = 16.
.***.
*.*.*
**.**
*.*.*
.***.

*** Life<ConwayCell> 5x5 ***

Generation = 0, Population = 8.
.....
....*
*****
*.*..
.....

Generation = 1, Population = 8.
.....
.**.*
*.*.*
*.*..
.....

Generation = 2, Population = 5.
.....
.**..
*.*..
...*.
.....

Generation = 3, Population = 4.
.....
.**..
..**.
.....
.....

Generation = 4, Population = 6.
.....
.***.
.***.
.....
.....

Generation = 5, Population = 6.
..*..
.*.*.
.*.*.
..*..
.....

Generation = 6, Population = 6.
..*..
.*.*.
.*.*.
..*..
.....

Generation = 7, Population = 6.
..*..
.*.*.
.*.*.
..*..
.....

Generation = 8, Population = 6.
..*..
.*.*.
.*.*.
..*..
.....

Generation = 9, Population = 6.
..*..
.*.*.
.*.*.
..*..
.....

Generation = 10, Population = 6.
..*..
.*.*.
.*.*.
..*..
.....

Generation = 11, Population = 6.
..*..
.*.*.
.*.*.
..*..
.....

Generation = 12, Population = 6.
..*..
.*.*.
.*.*.
..*..
.....

Generation = 13, Population = 6.
..*..
.*.*.
.*.*.
..*..
.....

Generation = 14, Population = 6.
..*..
.*.*.
.*.*.
..*..
.....

Generation = 15, Population = 6.
..*..
.*.*.
.*.*.
..*..
.....

Generation = 16, Population = 6.
..*..
.*.*.
.*.*.
..*..
.....

*** Life<ConwayCell> 5x5 ***

Generation = 0, Population = 6.
.....
.**..
.....
*...*
.*..*

Generation = 1, Population = 1.
.....
.....
.*...
.....
.....

Generation = 2, Population = 0.
.....
.....
.....
.....
.....

Generation = 3, Population = 0.
.....
.....
.....
.....
.....

Generation = 4, Population = 0.
.....
.....
.....
.....
.....

Generation = 5, Population = 0.
.....
.....
.....
.....
.....

Generation = 6, Population = 0.
.....
.....
.....
.....
.....

Generation = 7, Population = 0.
.....
.....
.....
.....
.....

Generation = 8, Population = 0.
.....
.....
.....
.....
.....

*** Life<ConwayCell> 5x5 ***

Generation = 0, Population = 14.
.....
.**.*
**.**
***..
****.

Generation = 1, Population = 8.
.....
***.*
....*
....*
*..*.

Generation = 2, Population = 7.
.*...
.*.*.
.*..*
...**
.....

Generation = 3, Population = 6.
..*..
**...
....*
...**
.....

Generation = 4, Population = 6.
.*...
.*...
...**
...**
.....

Generation = 5, Population = 6.
.....
..*..
..***
...**
.....

Generation = 6, Population = 5.
.....
..*..
..*.*
..*.*
.....

Generation = 7, Population = 3.
.....
...*.
.**..
.....
.....

Generation = 8, Population = 2.
.....
..*..
..*..
.....
.....

Generation = 9, Population = 0.
.....
.....
.....
.....
.....

Generation = 10, Population = 0.
.....
.....
.....
.....
.....

Generation = 11, Population = 0.
.....
.....
.....
.....
.....

Generation = 12, Population = 0.
.....
.....
.....
.....
.....

Generation = 13, Population = 0.
.....
.....
.....
.....
.....

Generation = 14, Population = 0.
.....
.....
.....
.....
.....

Generation = 15, Population = 0.
.....
.....
.....
.....
.....

Generation = 16, Population = 0.
.....
.....
.....
.....
.....

Generation = 17, Population = 0.
.....
.....
.....
.....
.....

Generation = 18, Population = 0.
.....
.....
.....
.....
.....

*** Life<ConwayCell> 5x5 ***

Generation = 0, Population = 5.
.....
.....
**...
..*..
..**.

Generation = 1, Population = 5.
.....
.....
.*...
..**.
..**.

*** Life<ConwayCell> 5x5 ***

Generation = 0, Population = 6.
.....
.**..
*....
*..*.
*....

Generation = 1, Population = 5.
.....
.*...
*.*..
**...
.....

Generation = 2, Population = 5.
.....
.*...
*.*..
**...
.....

Generation = 3, Population = 5.
.....
.*...
*.*..
**...
.....

Generation = 4, Population = 5.
.....
.*...
*.*..
**...
.....

Generation = 5, Population = 5.
.....
.*...
*.*..
**...
.....

Generation = 6, Population = 5.
.....
.*...
*.*..
**...
.....

Generation = 7, Population = 5.
.....
.*...
*.*..
**...
.....

Generation = 8, Population = 5.
.....
.*...
*.*..
**...
.....

Generation = 9, Population = 5.
.....
.*...
*.*..
**...
.....

Generation = 10, Population = 5.
.....
.*...
*.*..
**...
.....

Generation = 11, Population = 5.
.....
.*...
*.*..
**...
.....

Generation = 12, Population = 5.
.....
.*...
*.*..
**...
.....

Generation = 13, Population = 5.
.....
.*...
*.*..
**...
.....

Generation = 14, Population = 5.
.....
.*...
*.*..
**...
.....

Generation = 15, Population = 5.
.....
.*...
*.*..
**...
.....

Generation = 16, Population = 5.
.....
.*...
*.*..
**...
.....

Generation = 17, Population = 5.
.....
.*...
*.*..
**...
.....

Generation = 18, Population = 5.
.....
.*...
*.*..
**...
.....

Generation = 19, Population = 5.
.....
.*...
*.*..
**...
.....

Generation = 20, Population = 5.
.....
.*...
*.*..
**...
.....

Generation = 21, Population = 5.
.....
.*...
*.*..
**...
.....

Generation = 22, Population = 5.
.....
.*...
*.*..
**...
.....

Generation = 23, Population = 5.
.....
.*...
*.*..
**...
.....

*** Life<ConwayCell> 5x5 ***

Generation = 0, Population = 9.
.....
.*.**
.*.*.
...**
.*..*

Generation = 1, Population = 6.
.....
...**
.....
...**
...**

Generation = 2, Population = 4.
.....
.....
.....
...**
...**

Generation = 3, Population = 4.
.....
.....
.....
...**
...**

Generation = 4, Population = 4.
.....
.....
.....
...**
...**

Generation = 5, Population = 4.
.....
.....
.....
...**
...**

Generation = 6, Population = 4.
.....
.....
.....
...**
...**

Generation = 7, Population = 4.
.....
.....
.....
...**
...**

Generation = 8, Population = 4.
.....
.....
.....
...**
...**

Generation = 9, Population = 4.
.....
.....
.....
...**
...**

Generation = 10, Population = 4.
.....
.....
.....
...**
...**

Generation = 11, Population = 4.
.....
.....
.....
...**
...**

Generation = 12, Population = 4.
.....
.....
.....
...**
...**

*** Life<ConwayCell> 5x5 ***

Generation = 0, Population = 11.
.....
..***
.*.**
***.*
*....

Generation = 1, Population = 8.
...*.
..*.*
*....
*.*.*
*....

Generation = 2, Population = 4.
...*.
...*.
.....
*....
.*...

Generation = 3, Population = 0.
.....
.....
.....
.....
.....

Generation = 4, Population = 0.
.....
.....
.....
.....
.....

Generation = 5, Population = 0.
.....
.....
.....
.....
.....

Generation = 6, Population = 0.
.....
.....
.....
.....
.....

Generation = 7, Population = 0.
.....
.....
.....
.....
.....

Generation = 8, Population = 0.
.....
.....
.....
.....
.....

Generation = 9, Population = 0.
.....
.....
.....
.....
.....

Generation = 10, Population = 0.
.....
.....
.....
.....
.....

Generation = 11, Population = 0.
.....
.....
.....
.....
.....

Generation = 12, Population = 0.
.....
.....
.....
.....
.....

Generation = 13, Population = 0.
.....
.....
.....
.....
.....

Generation = 14, Population = 0.
.....
.....
.....
.....
.....

Generation = 15, Population = 0.
.....
.....
.....
.....
.....

Generation = 16, Population = 0.
.....
.....
.....
.....
.....

Generation = 17, Population = 0.
.....
.....
.....
.....
.....

Generation = 18, Population = 0.
.....
.....
.....
.....
.....

Generation = 19, Population = 0.
.....
.....
.....
.....
.....

Generation = 20, Population = 0.
.....
.....
.....
.....
.....

Generation = 21, Population = 0.
.....
.....
.....
.....
.....

Generation = 22, Population = 0.
.....
.....
.....
.....
.....

Generation = 23, Population = 0.
.....
.....
.....
.....
.....

Generation = 24, Population = 0.
.....
.....
.....
.....
.....

*** Life<ConwayCell> 5x5 ***

Generation = 0, Population = 10.
.....
...*.
...**
.***.
****.

Generation = 1, Population = 6.
.....
...**
....*
*....
*..*.

Generation = 2, Population = 4.
.....
...**
...**
.....
.....

*** Life<ConwayCell> 5x5 ***

Generation = 0, Population = 14.
.....
..***
*.**.
.***.
*****

Generation = 1, Population = 6.
...*.
.**.*
.....
.....
*...*

Generation = 2, Population = 4.
..**.
..**.
.....
.....
.....

Generation = 3, Population = 4.
..**.
..**.
.....
.....
.....

Generation = 4, Population = 4.
..**.
..**.
.....
.....
.....

*** Life<ConwayCell> 5x5 ***

Generation = 0, Population = 10.
.....
..**.
**..*
**.*.
*...*

Generation = 1, Population = 10.
.....
.***.
*...*
..***
**...

Generation = 2, Population = 12.
..*..
.***.
....*
*.***
.***.

Generation = 3, Population = 10.
.***.
.***.
....*
....*
.*..*

Generation = 4, Population = 8.
.*.*.
.*..*
..*.*
...**
.....

Generation = 5, Population = 7.
..*..
.*..*
..*.*
...**
.....

Generation = 6, Population = 6.
.....
.**..
..*.*
...**
.....

Generation = 7, Population = 8.
.....
.***.
.**.*
...**
.....

Generation = 8, Population = 8.
..*..
.*.*.
.*..*
..***
.....

*** Life<ConwayCell> 5x5 ***

Generation = 0, Population = 11.
.....
.***.
..*.*
*.*.*
.**.*

Generation = 1, Population = 9.
..*..
.***.
....*
..*.*
.**..

Generation = 2, Population = 13.
.***.
.***.
.*..*
.**..
.***.

Generation = 3, Population = 8.
.*.*.
*...*
*....
*....
.*.*.

Generation = 4, Population = 6.
.....
**...
**...
**...
.....

Generation = 5, Population = 5.
.....
**...
..*..
**...
.....

Generation = 6, Population = 3.
.....
.*...
..*..
.*...
.....

Generation = 7, Population = 2.
.....
.....
.**..
.....
.....

Generation = 8, Population = 0.
.....
.....
.....
.....
.....

Generation = 9, Population = 0.
.....
.....
.....
.....
.....

Generation = 10, Population = 0.
.....
.....
.....
.....
.....

Generation = 11, Population = 0.
.....
.....
.....
.....
.....

Generation = 12, Population = 0.
.....
.....
.....
.....
.....

Generation = 13, Population = 0.
.....
.....
.....
.....
.....

Generation = 14, Population = 0.
.....
.....
.....
.....
.....

Generation = 15, Population = 0.
.....
.....
.....
.....
.....

Generation = 16, Population = 0.
.....
.....
.....
.....
.....

Generation = 17, Population = 0.
.....
.....
.....
.....
.....

Generation = 18, Population = 0.
.....
.....
.....
.....
.....

Generation = 19, Population = 0.
.....
.....
.....
.....
.....

Generation = 20, Population = 0.
.....
.....
.....
.....
.....

Generation = 21, Population = 0.
.....
.....
.....
.....
.....

Generation = 22, Population = 0.
.....
.....
.....
.....
.....

Generation = 23, Population = 0.
.....
.....
.....
.....
.....

Generation = 24, Population = 0.
.....
.....
.....
.....
.....

Generation = 25, Population = 0.
.....
.....
.....
.....
.....

*** Life<ConwayCell> 5x5 ***

Generation = 0, Population = 3.
.....
.....
....*
*.*..
.....

Generation = 1, Population = 0.
.....
.....
.....
.....
.....

Generation = 2, Population = 0.
.....
.....
.....
.....
.....

Generation = 3, Population = 0.
.....
.....
.....
.....
.....

Generation = 4, Population = 0.
.....
.....
.....
.....
.....

Generation = 5, Population = 0.
.....
.....
.....
.....
.....

Generation = 6, Population = 0.
.....
.....
.....
.....
.....

*** Life<ConwayCell> 5x5 ***

Generation = 0, Population = 3.
.....
...*.
.....
.**..
.....

Generation = 1, Population = 1.
.....
.....
..*..
.....
.....

Generation = 2, Population = 0.
.....
.....
.....
.....
.....

Generation = 3, Population = 0.
.....
.....
.....
.....
.....

Generation = 4, Population = 0.
.....
.....
.....
.....
.....

Generation = 5, Population = 0.
.....
.....
.....
.....
.....

Generation = 6, Population = 0.
.....
.....
.....
.....
.....

Generation = 7, Population = 0.
.....
.....
.....
.....
.....

*** Life<ConwayCell> 5x5 ***

Generation = 0, Population = 2.
.....
.....
.....
.....
*.*..

Generation = 1, Population = 0.
.....
.....
.....
.....
.....

Generation = 2, Population = 0.
.....
.....
.....
.....
.....

Generation = 3, Population = 0.
.....
.....
.....
.....
.....

*** Life<ConwayCell> 5x5 ***

Generation = 0, Population = 10.
.....
...**
**...
.**.*
.***.

Generation = 1, Population = 5.
.....
.....
**..*
.....
.*.*.

Generation = 2, Population = 3.
.....
.....
.....
***..
.....

Generation = 3, Population = 3.
.....
.....
.*...
.*...
.*...

Generation = 4, Population = 3.
.....
.....
.....
***..
.....

Generation = 5, Population = 3.
.....
.....
.*...
.*...
.*...

Generation = 6, Population = 3.
.....
.....
.....
***..
.....

Generation = 7, Population = 3.
.....
.....
.*...
.*...
.*...

Generation = 8, Population = 3.
.....
.....
.....
***..
.....

Generation = 9, Population = 3.
.....
.....
.*...
.*...
.*...

Generation = 10, Population = 3.
.....
.....
.....
***..
.....

Generation = 11, Population = 3.
.....
.....
.*...
.*...
.*...

Generation = 12, Population = 3.
.....
.....
.....
***..
.....

Generation = 13, Population = 3.
.....
.....
.*...
.*...
.*...

*** Life<ConwayCell> 5x5 ***

Generation = 0, Population = 3.
.....
..*..
.....
*..*.
.....

Generation = 1, Population = 0.
.....
.....
.....
.....
.....

Generation = 2, Population = 0.
.....
.....
.....
.....
.....

Generation = 3, Population = 0.
.....
.....
.....
.....
.....

Generation = 4, Population = 0.
.....
.....
.....
.....
.....

Generation = 5, Population = 0.
.....
.....
.....
.....
.....

Generation = 6, Population = 0.
.....
.....
.....
.....
.....

Generation = 7, Population = 0.
.....
.....
.....
.....
.....

Generation = 8, Population = 0.
.....
.....
.....
.....
.....

Generation = 9, Population = 0.
.....
.....
.....
.....
.....

Generation = 10, Population = 0.
.....
.....
.....
.....
.....

Generation = 11, Population = 0.
.....
.....
.....
.....
.....

Generation = 12, Population = 0.
.....
.....
.....
.....
.....

Generation = 13, Population = 0.
.....
.....
.....
.....
.....

*** Life<ConwayCell> 5x5 ***

Generation = 0, Population = 3.
.....
.*...
.....
...*.
.*...

Generation = 1, Population = 0.
.....
.....
.....
.....
.....

Generation = 2, Population = 0.
.....
.....
.....
.....
.....

Generation = 3, Population = 0.
.....
.....
.....
.....
.....

Generation = 4, Population = 0.
.....
.....
.....
.....
.....

Generation = 5, Population = 0.
.....
.....
.....
.....
.....

Generation = 6, Population = 0.
.....
.....
.....
.....
.....

*** Life<ConwayCell> 5x5 ***

Generation = 0, Population = 8.
.....
...*.
*****
..*..
...*.

Generation = 1, Population = 6.
.....
.*.**
.*..*
....*
.....

Generation = 2, Population = 5.
.....
..***
..*.*
.....
.....

Generation = 3, Population = 5.
...*.
..*.*
..*.*
.....
.....

Generation = 4, Population = 3.
...*.
..*.*
.....
.....
.....

Generation = 5, Population = 2.
...*.
...*.
.....
.....
.....

Generation = 6, Population = 0.
.....
.....
.....
.....
.....

Generation = 7, Population = 0.
.....
.....
.....
.....
.....

Generation = 8, Population = 0.
.....
.....
.....
.....
.....

Generation = 9, Population = 0.
.....
.....
.....
.....
.....

Generation = 10, Population = 0.
.....
.....
.....
.....
.....

*** Life<ConwayCell> 5x5 ***

Generation = 0, Population = 3.
.....
.....
..*..
..*..
..*..

Generation = 1, Population = 3.
.....
.....
.....
.***.
.....

Generation = 2, Population = 3.
.....
.....
..*..
..*..
..*..

Generation = 3, Population = 3.
.....
.....
.....
.***.
.....

Generation = 4, Population = 3.
.....
.....
..*..
..*..
..*..

Generation = 5, Population = 3.
.....
.....
.....
.***.
.....

Generation = 6, Population = 3.
.....
.....
..*..
..*..
..*..

Generation = 7, Population = 3.
.....
.....
.....
.***.
.....

Generation = 8, Population = 3.
.....
.....
..*..
..*..
..*..

Generation = 9, Population = 3.
.....
.....
.....
.***.
.....

Generation = 10, Population = 3.
.....
.....
..*..
..*..
..*..

Generation = 11, Population = 3.
.....
.....
.....
.***.
.....

Generation = 12, Population = 3.
.....
.....
..*..
..*..
..*..

*** Life<ConwayCell> 5x5 ***

Generation = 0, Population = 2.
.....
..*..
.....
....*
.....

Generation = 1, Population = 0.
.....
.....
.....
.....
.....

Generation = 2, Population = 0.
.....
.....
.....
.....
.....

Generation = 3, Population = 0.
.....
.....
.....
.....
.....

Generation = 4, Population = 0.
.....
.....
.....
.....
.....

Generation = 5, Population = 0.
.....
.....
.....
.....
.....

Generation = 6, Population = 0.
.....
.....
.....
.....
.....

Generation = 7, Population = 0.
.....
.....
.....
.....
.....

Generation = 8, Population = 0.
.....
.....
.....
.....
.....

Generation = 9, Population = 0.
.....
.....
.....
.....
.....

Generation = 10, Population = 0.
.....
.....
.....
.....
.....

Generation = 11, Population = 0.
.....
.....
.....
.....
.....

Generation = 12, Population = 0.
.....
.....
.....
.....
.....

Generation = 13, Population = 0.
.....
.....
.....
.....
.....

Generation = 14, Population = 0.
.....
.....
.....
.....
.....

Generation = 15, Population = 0.
.....
.....
.....
.....
.....

Generation = 16, Population = 0.
.....
.....
.....
.....
.....

Generation = 17, Population = 0.
.....
.....
.....
.....
.....

Generation = 18, Population = 0.
.....
.....
.....
.....
.....

Generation = 19, Population = 0.
.....
.....
.....
.....
.....

Generation = 20, Population = 0.
.....
.....
.....
.....
.....

Generation = 21, Population = 0.
.....
.....
.....
.....
.....

Generation = 22, Population = 0.
.....
.....
.....
.....
.....

Generation = 23, Population = 0.
.....
.....
.....
.....
.....

Generation = 24, Population = 0.
.....
.....
.....
.....
.....

*** Life<ConwayCell> 5x5 ***

Generation = 0, Population = 6.
.....
...*.
*....
*.*..
*...*

Generation = 1, Population = 3.
.....
.....
.*...
*....
.*...

Generation = 2, Population = 2.
.....
.....
.....
**...
.....

Generation = 3, Population = 0.
.....
.....
.....
.....
.....

Generation = 4, Population = 0.
.....
.....
.....
.....
.....

Generation = 5, Population = 0.
.....
.....
.....
.....
.....

Generation = 6, Population = 0.
.....
.....
.....
.....
.....

Generation = 7, Population = 0.
.....
.....
.....
.....
.....

*** Life<ConwayCell> 5x5 ***

Generation = 0, Population = 11.
.....
..**.
.****
..*.*
*..**

Generation = 1, Population = 6.
.....
.*..*
.*..*
.....
...**

Generation = 2, Population = 2.
.....
.....
.....
...**
.....

Generation = 3, Population = 0.
.....
.....
.....
.....
.....

Generation = 4, Population = 0.
.....
.....
.....
.....
.....

Generation = 5, Population = 0.
.....
.....
.....
.....
.....

Generation = 6, Population = 0.
.....
.....
.....
.....
.....

Generation = 7, Population = 0.
.....
.....
.....
.....
.....

*** Life<ConwayCell> 5x5 ***

Generation = 0, Population = 3.
.....
...*.
.....
.....
...**

Generation = 1, Population = 0.
.....
.....
.....
.....
.....

Generation = 2, Population = 0.
.....
.....
.....
.....
.....

Generation = 3, Population = 0.
.....
.....
.....
.....
.....

Generation = 4, Population = 0.
.....
.....
.....
.....
.....

Generation = 5, Population = 0.
.....
.....
.....
.....
.....

Generation = 6, Population = 0.
.....
.....
.....
.....
.....

Generation = 7, Population = 0.
.....
.....
.....
.....
.....

Generation = 8, Population = 0.
.....
.....
.....
.....
.....

Generation = 9, Population = 0.
.....
.....
.....
.....
.....

Generation = 10, Population = 0.
.....
.....
.....
.....
.....

Generation = 11, Population = 0.
.....
.....
.....
.....
.....

Generation = 12, Population = 0.
.....
.....
.....
.....
.....

Generation = 13, Population = 0.
.....
.....
.....
.....
.....

Generation = 14, Population = 0.
.....
.....
.....
.....
.....

Generation = 15, Population = 0.
.....
.....
.....
.....
.....

Generation = 16, Population = 0.
.....
.....
.....
.....
.....

Generation = 17, Population = 0.
.....
.....
.....
.....
.....

Generation = 18, Population = 0.
.....
.....
.....
.....
.....

Generation = 19, Population = 0.
.....
.....
.....
.....
.....

Generation = 20, Population = 0.
.....
.....
.....
.....
.....

Generation = 21, Population = 0.
.....
.....
.....
.....
.....

Generation = 22, Population = 0.
.....
.....
.....
.....
.....

Generation = 23, Population = 0.
.....
.....
.....
.....
.....

*** Life<ConwayCell> 5x5 ***

Generation = 0, Population = 9.
.....
..***
*..**
..*.*
.*...

Generation = 1, Population = 7.
...*.
..*.*
.*...
.**.*
.....

Generation = 2, Population = 6.
...*.
..**.
.*...
.**..
.....

Generation = 3, Population = 8.
..**.
..**.
.*.*.
.**..
.....

Generation = 4, Population = 8.
..**.
.*..*
.*.*.
.**..
.....

Generation = 5, Population = 9.
..**.
.*..*
**.*.
.**..
.....

Generation = 6, Population = 10.
..**.
**..*
*..*.
***..
.....

Generation = 7, Population = 11.
.***.
**..*
...*.
***..
.*...

Generation = 8, Population = 14.
****.
**..*
...*.
***..
***..

Generation = 9, Population = 10.
*.**.
*...*
...*.
*..*.
*.*..

Generation = 10, Population = 11.
.*.*.
.**.*
...**
.***.
.*...

Generation = 11, Population = 9.
.*.*.
.*..*
....*
.*.**
.*...

Generation = 12, Population = 10.
..*..
..***
..*.*
..***
..*..

Generation = 13, Population = 9.
..*..
.**.*
.*...
.**.*
..*..

Generation = 14, Population = 13.
.***.
.***.
*....
.***.
.***.

Generation = 15, Population = 9.
.*.*.
*..*.
*....
*..*.
.*.*.

Generation = 16, Population = 10.
..*..
***..
**...
***..
..*..

Generation = 17, Population = 6.
..*..
*.*..
.....
*.*..
..*..

Generation = 18, Population = 4.
.*...
.*...
.....
.*...
.*...

*** Life<ConwayCell> 5x5 ***

Generation = 0, Population = 9.
.....
.*..*
*.*.*
....*
.*.**

Generation = 1, Population = 9.
.....
.*.*.
.*..*
.**.*
...**

*** Life<ConwayCell> 5x5 ***

Generation = 0, Population = 5.
.....
..*..
.*..*
**...
.....

Generation = 1, Population = 5.
.....
.....
***..
**...
.....

Generation = 2, Population = 5.
.....
.*...
*.*..
*.*..
.....

Generation = 3, Population = 3.
.....
.*...
*.*..
.....
.....

Generation = 4, Population = 2.
.....
.*...
.*...
.....
.....

Generation = 5, Population = 0.
.....
.....
.....
.....
.....

Generation = 6, Population = 0.
.....
.....
.....
.....
.....

*** Life<ConwayCell> 5x5 ***

Generation = 0, Population = 9.
.....
..*.*
.....
.****
*.*.*

Generation = 1, Population = 7.
.....
.....
.*..*
.**.*
..*.*

Generation = 2, Population = 8.
.....
.....
.***.
.**.*
.**..

Generation = 3, Population = 7.
.....
..*..
.*.*.
*....
.***.

Generation = 4, Population = 7.
.....
..*..
.**..
*..*.
.**..

Generation = 5, Population = 9.
.....
.**..
.***.
*..*.
.**..

Generation = 6, Population = 8.
.....
.*.*.
*..*.
*..*.
.**..

Generation = 7, Population = 9.
.....
..*..
**.**
*..*.
.**..

Generation = 8, Population = 12.
.....
.***.
**.**
*..**
.**..

*** Life<ConwayCell> 5x5 ***

Generation = 0, Population = 11.
.....
.*...
*..*.
*****
*.*.*

Generation = 1, Population = 8.
.....
.....
*..**
*...*
*.*.*

Generation = 2, Population = 6.
.....
.....
...**
*...*
.*.*.

Generation = 3, Population = 4.
.....
.....
...**
..*.*
.....

Generation = 4, Population = 3.
.....
.....
...**
....*
.....

Generation = 5, Population = 4.
.....
.....
...**
...**
.....

Generation = 6, Population = 4.
.....
.....
...**
...**
.....

Generation = 7, Population = 4.
.....
.....
...**
...**
.....

Generation = 8, Population = 4.
.....
.....
...**
...**
.....

Generation = 9, Population = 4.
.....
.....
...**
...**
.....

Generation = 10, Population = 4.
.....
.....
...**
...**
.....

Generation = 11, Population = 4.
.....
.....
...**
...**
.....

Generation = 12, Population = 4.
.....
.....
...**
...**
.....

Generation = 13, Population = 4.
.....
.....
...**
...**
.....

Generation = 14, Population = 4.
.....
.....
...**
...**
.....

Generation = 15, Population = 4.
.....
.....
...**
...**
.....

Generation = 16, Population = 4.
.....
.....
...**
...**
.....

Generation = 17, Population = 4.
.....
.....
...**
...**
.....

Generation = 18, Population = 4.
.....
.....
...**
...**
.....

Generation = 19, Population = 4.
.....
.....
...**
...**
.....

Generation = 20, Population = 4.
.....
.....
...**
...**
.....

Generation = 21, Population = 4.
.....
.....
...**
...**
.....

Generation = 22, Population = 4.
.....
.....
...**
...**
.....

Generation = 23, Population = 4.
.....
.....
...**
...**
.....

*** Life<ConwayCell> 5x5 ***

Generation = 0, Population = 8.
.....
.*.**
**...
...**
.*...

Generation = 1, Population = 8.
.....
***..
**...
***..
.....

Generation = 2, Population = 6.
.*...
*.*..
.....
*.*..
.*...

Generation = 3, Population = 4.
.*...
.*...
.....
.*...
.*...

Generation = 4, Population = 0.
.....
.....
.....
.....
.....

Generation = 5, Population = 0.
.....
.....
.....
.....
.....

Generation = 6, Population = 0.
.....
.....
.....
.....
.....

Generation = 7, Population = 0.
.....
.....
.....
.....
.....

Generation = 8, Population = 0.
.....
.....
.....
.....
.....

Generation = 9, Population = 0.
.....
.....
.....
.....
.....

Generation = 10, Population = 0.
.....
.....
.....
.....
.....

Generation = 11, Population = 0.
.....
.....
.....
.....
.....

Generation = 12, Population = 0.
.....
.....
.....
.....
.....

Generation = 13, Population = 0.
.....
.....
.....
.....
.....

Generation = 14, Population = 0.
.....
.....
.....
.....
.....

Generation = 15, Population = 0.
.....
.....
.....
.....
.....

Generation = 16, Population = 0.
.....
.....
.....
.....
.....

Generation = 17, Population = 0.
.....
.....
.....
.....
.....

Generation = 18, Population = 0.
.....
.....
.....
.....
.....

Generation = 19, Population = 0.
.....
.....
.....
.....
.....

*** Life<ConwayCell> 5x5 ***

Generation = 0, Population = 1.
.....
.*...
.....
.....
.....

Generation = 1, Population = 0.
.....
.....
.....
.....
.....

Generation = 2, Population = 0.
.....
.....
.....
.....
.....

Generation = 3, Population = 0.
.....
.....
.....
.....
.....

Generation = 4, Population = 0.
.....
.....
.....
.....
.....

Generation = 5, Population = 0.
.....
.....
.....
.....
.....

Generation = 6, Population = 0.
.....
.....
.....
.....
.....

Generation = 7, Population = 0.
.....
.....
.....
.....
.....

Generation = 8, Population = 0.
.....
.....
.....
.....
.....

*** Life<ConwayCell> 5x5 ***

Generation = 0, Population = 12.
.....
.**..
*...*
.*.**
*****

Generation = 1, Population = 6.
.....
.*...
*...*
.....
**..*

Generation = 2, Population = 2.
.....
.....
.....
**...
.....

Generation = 3, Population = 0.
.....
.....
.....
.....
.....

Generation = 4, Population = 0.
.....
.....
.....
.....
.....

Generation = 5, Population = 0.
.....
.....
.....
.....
.....

Generation = 6, Population = 0.
.....
.....
.....
.....
.....

Generation = 7, Population = 0.
.....
.....
.....
.....
.....

Generation = 8, Population = 0.
.....
.....
.....
.....
.....

Generation = 9, Population = 0.
.....
.....
.....
.....
.....

Generation = 10, Population = 0.
.....
.....
.....
.....
.....

Generation = 11, Population = 0.
.....
.....
.....
.....
.....

Generation = 12, Population = 0.
.....
.....
.....
.....
.....

Generation = 13, Population = 0.
.....
.....
.....
.....
.....

Generation = 14, Population = 0.
.....
.....
.....
.....
.....

Generation = 15, Population = 0.
.....
.....
.....
.....
.....

Generation = 16, Population = 0.
.....
.....
.....
.....
.....

Generation = 17, Population = 0.
.....
.....
.....
.....
.....

Generation = 18, Population = 0.
.....
.....
.....
.....
.....

Generation = 19, Population = 0.
.....
.....
.....
.....
.....

Generation = 20, Population = 0.
.....
.....
.....
.....
.....

Generation = 21, Population = 0.
.....
.....
.....
.....
.....

Generation = 22, Population = 0.
.....
.....
.....
.....
.....

Generation = 23, Population = 0.
.....
.....
.....
.....
.....

*** Life<ConwayCell> 5x5 ***

Generation = 0, Population = 5.
.....
.*..*
....*
.*...
*....

Generation = 1, Population = 0.
.....
.....
.....
.....
.....

Generation = 2, Population = 0.
.....
.....
.....
.....
.....

Generation = 3, Population = 0.
.....
.....
.....
.....
.....

Generation = 4, Population = 0.
.....
.....
.....
.....
.....

Generation = 5, Population = 0.
.....
.....
.....
.....
.....

Generation = 6, Population = 0.
.....
.....
.....
.....
.....

Generation = 7, Population = 0.
.....
.....
.....
.....
.....

Generation = 8, Population = 0.
.....
.....
.....
.....
.....

Generation = 9, Population = 0.
.....
.....
.....
.....
.....

Generation = 10, Population = 0.
.....
.....
.....
.....
.....

Generation = 11, Population = 0.
.....
.....
.....
.....
.....

Generation = 12, Population = 0.
.....
.....
.....
.....
.....

Generation = 13, Population = 0.
.....
.....
.....
.....
.....

Generation = 14, Population = 0.
.....
.....
.....
.....
.....

Generation = 15, Population = 0.
.....
.....
.....
.....
.....

Generation = 16, Population = 0.
.....
.....
.....
.....
.....

Generation = 17, Population = 0.
.....
.....
.....
.....
.....

Generation = 18, Population = 0.
.....
.....
.....
.....
.....

Generation = 19, Population = 0.
.....
.....
.....
.....
.....

Generation = 20, Population = 0.
.....
.....
.....
.....
.....

Generation = 21, Population = 0.
.....
.....
.....
.....
.....

Generation = 22, Population = 0.
.....
.....
.....
.....
.....

Generation = 23, Population = 0.
.....
.....
.....
.....
.....

Generation = 24, Population = 0.
.....
.....
.....
.....
.....

Generation = 25, Population = 0.
.....
.....
.....
.....
.....

*** Life<ConwayCell> 5x5 ***

Generation = 0, Population = 6.
.....
..*..
*...*
.....
.***.

Generation = 1, Population = 4.
.....
.....
.....
.***.
..*..

Generation = 2, Population = 7.
.....
.....
..*..
.***.
.***.

Generation = 3, Population = 5.
.....
.....
.***.
.....
.*.*.

Generation = 4, Population = 4.
.....
..*..
..*..
.*.*.
.....

Generation = 5, Population = 4.
.....
.....
.***.
..*..
.....

Generation = 6, Population = 7.
.....
..*..
.***.
.***.
.....

Generation = 7, Population = 6.
.....
.***.
.....
.*.*.
..*..

Generation = 8, Population = 6.
..*..
..*..
.*.*.
..*..
..*..

Generation = 9, Population = 8.
.....
.***.
.*.*.
.***.
.....

Generation = 10, Population = 8.
..*..
.*.*.
*...*
.*.*.
..*..

Generation = 11, Population = 12.
..*..
.***.
**.**
.***.
..*..

Generation = 12, Population = 12.
.***.
*...*
*...*
*...*
.***.

Generation = 13, Population = 16.
.***.
*.*.*
**.**
*.*.*
.***.

Generation = 14, Population = 12.
.***.
*...*
*...*
*...*
.***.

Generation = 15, Population = 16.
.***.
*.*.*
**.**
*.*.*
.***.

Generation = 16, Population = 12.
.***.
*...*
*...*
*...*
.***.

Generation = 17, Population = 16.
.***.
*.*.*
**.**
*.*.*
.***.

Generation = 18, Population = 12.
.***.
*...*
*...*
*...*
.***.

*** Life<ConwayCell> 5x5 ***

Generation = 0, Population = 3.
.....
...*.
..**.
.....
.....

Generation = 1, Population = 4.
.....
..**.
..**.
.....
.....

*** Life<ConwayCell> 5x5 ***

Generation = 0, Population = 2.
.....
.....
.*..*
.....
.....

Generation = 1, Population = 0.
.....
.....
.....
.....
.....

Generation = 2, Population = 0.
.....
.....
.....
.....
.....

Generation = 3, Population = 0.
.....
.....
.....
.....
.....

Generation = 4, Population = 0.
.....
.....
.....
.....
.....

Generation = 5, Population = 0.
.....
.....
.....
.....
.....

Generation = 6, Population = 0.
.....
.....
.....
.....
.....

Generation = 7, Population = 0.
.....
.....
.....
.....
.....

Generation = 8, Population = 0.
.....
.....
.....
.....
.....

Generation = 9, Population = 0.
.....
.....
.....
.....
.....

Generation = 10, Population = 0.
.....
.....
.....
.....
.....

Generation = 11, Population = 0.
.....
.....
.....
.....
.....

Generation = 12, Population = 0.
.....
.....
.....
.....
.....

Generation = 13, Population = 0.
.....
.....
.....
.....
.....

Generation = 14, Population = 0.
.....
.....
.....
.....
.....

Generation = 15, Population = 0.
.....
.....
.....
.....
.....

Generation = 16, Population = 0.
.....
.....
.....
.....
.....

Generation = 17, Population = 0.
.....
.....
.....
.....
.....

Generation = 18, Population = 0.
.....
.....
.....
.....
.....

Generation = 19, Population = 0.
.....
.....
.....
.....
.....

Generation = 20, Population = 0.
.....
.....
.....
.....
.....

Generation = 21, Population = 0.
.....
.....
.....
.....
.....

Generation = 22, Population = 0.
.....
.....
.....
.....
.....

Generation = 23, Population = 0.
.....
.....
.....
.....
.....

Generation = 24, Population = 0.
.....
.....
.....
.....
.....

Generation = 25, Population = 0.
.....
.....
.....
.....
.....

*** Life<ConwayCell> 5x5 ***

Generation = 0, Population = 8.
.....
.....
***..
***..
.*.*.

Generation = 1, Population = 6.
.....
.*...
*.*..
...*.
**...

Generation = 2, Population = 5.
.....
.*...
.**..
*.*..
.....

Generation = 3, Population = 5.
.....
.**..
*.*..
..*..
.....

Generation = 4, Population = 5.
.....
.**..
..**.
.*...
.....

Generation = 5, Population = 5.
.....
.***.
...*.
..*..
.....

Generation = 6, Population = 5.
..*..
..**.
.*.*.
.....
.....

Generation = 7, Population = 5.
..**.
.*.*.
...*.
.....
.....

Generation = 8, Population = 5.
..**.
...**
..*..
.....
.....

Generation = 9, Population = 5.
..***
....*
...*.
.....
.....

Generation = 10, Population = 4.
...**
..*.*
.....
.....
.....

Generation = 11, Population = 3.
...**
....*
.....
.....
.....

Generation = 12, Population = 4.
...**
...**
.....
.....
.....

Generation = 13, Population = 4.
...**
...**
.....
.....
.....

Generation = 14, Population = 4.
...**
...**
.....
.....
.....

Generation = 15, Population = 4.
...**
...**
.....
.....
.....

*** Life<ConwayCell> 5x5 ***

Generation = 0, Population = 8.
.....
...*.
*.*.*
...*.
.*.**

Generation = 1, Population = 7.
.....
...*.
..*.*
.*...
..***

Generation = 2, Population = 7.
.....
...*.
..**.
.*..*
..**.

Generation = 3, Population = 9.
.....
..**.
..***
.*..*
..**.

Generation = 4, Population = 8.
.....
..*.*
.*..*
.*..*
..**.

Generation = 5, Population = 8.
.....
...*.
.**.*
.*..*
..**.

Generation = 6, Population = 9.
.....
..**.
.**.*
.*..*
..**.

Generation = 7, Population = 9.
.....
.***.
.*..*
.*..*
..**.

Generation = 8, Population = 11.
..*..
.***.
**..*
.*..*
..**.

Generation = 9, Population = 12.
.***.
*..*.
*...*
**..*
..**.

Generation = 10, Population = 16.
.***.
*..**
*..**
***.*
.***.

Generation = 11, Population = 10.
.****
*....
*....
*...*
*..*.

Generation = 12, Population = 10.
.***.
*.**.
**...
**...
.....

*** Life<ConwayCell> 5x5 ***

Generation = 0, Population = 9.
.....
.****
.*.*.
*....
...**

Generation = 1, Population = 12.
..**.
.*.**
**.**
..***
.....

Generation = 2, Population = 11.
..***
**...
**...
.**.*
...*.

Generation = 3, Population = 11.
.***.
*..*.
.....
****.
..**.

Generation = 4, Population = 10.
.***.
.*.*.
*..*.
.*.*.
...*.

*** Life<ConwayCell> 5x5 ***

Generation = 0, Population = 11.
.....
.****
****.
*..*.
...*.

Generation = 1, Population = 8.
..**.
*...*
*....
*..**
.....

Generation = 2, Population = 7.
...*.
.*.*.
**.**
.....
.....

Generation = 3, Population = 8.
..*..
**.*.
**.**
.....
.....

*** Life<ConwayCell> 5x5 ***

Generation = 0, Population = 8.
.....
.*..*
.****
.....
*..*.

Generation = 1, Population = 8.
.....
.*..*
.****
.*..*
.....

Generation = 2, Population = 7.
.....
.*..*
**..*
.*..*
.....

Generation = 3, Population = 9.
.....
**...
*****
**...
.....

Generation = 4, Population = 5.
.....
*..*.
...*.
*..*.
.....

Generation = 5, Population = 3.
.....
.....
..***
.....
.....

Generation = 6, Population = 3.
.....
...*.
...*.
...*.
.....

Generation = 7, Population = 3.
.....
.....
..***
.....
.....

Generation = 8, Population = 3.
.....
...*.
...*.
...*.
.....

Generation = 9, Population = 3.
.....
.....
..***
.....
.....

Generation = 10, Population = 3.
.....
...*.
...*.
...*.
.....

Generation = 11, Population = 3.
.....
.....
..***
.....
.....

Generation = 12, Population = 3.
.....
...*.
...*.
...*.
.....

Generation = 13, Population = 3.
.....
.....
..***
.....
.....

Generation = 14, Population = 3.
.....
...*.
...*.
...*.
.....

Generation = 15, Population = 3.
.....
.....
..***
.....
.....

Generation = 16, Population = 3.
.....
...*.
...*.
...*.
.....

Generation = 17, Population = 3.
.....
.....
..***
.....
.....

Generation = 18, Population = 3.
.....
...*.
...*.
...*.
.....

Generation = 19, Population = 3.
.....
.....
..***
.....
.....

Generation = 20, Population = 3.
.....
...*.
...*.
...*.
.....

Generation = 21, Population = 3.
.....
.....
..***
.....
.....

Generation = 22, Population = 3.
.....
...*.
...*.
...*.
.....

*** Life<ConwayCell> 5x5 ***

Generation = 0, Population = 11.
.....
.***.
.**..
.**.*
.***.

Generation = 1, Population = 7.
..*..
.*.*.
*....
*....
.*.*.

Generation = 2, Population = 7.
..*..
.**..
**...
**...
.....

Generation = 3, Population = 6.
.**..
*.*..
.....
**...
.....

Generation = 4, Population = 4.
.**..
..*..
*....
.....
.....

Generation = 5, Population = 3.
.**..
..*..
.....
.....
.....

Generation = 6, Population = 4.
.**..
.**..
.....
.....
.....

Generation = 7, Population = 4.
.**..
.**..
.....
.....
.....

Generation = 8, Population = 4.
.**..
.**..
.....
.....
.....

*** Life<ConwayCell> 5x5 ***

Generation = 0, Population = 6.
.....
...*.
.....
.*...
**.**

Generation = 1, Population = 6.
.....
.....
.....
***..
***..

Generation = 2, Population = 5.
.....
.....
.*...
*.*..
*.*..

Generation = 3, Population = 3.
.....
.....
.*...
*.*..
.....

Generation = 4, Population = 2.
.....
.....
.*...
.*...
.....

Generation = 5, Population = 0.
.....
.....
.....
.....
.....

Generation = 6, Population = 0.
.....
.....
.....
.....
.....

Generation = 7, Population = 0.
.....
.....
.....
.....
.....

Generation = 8, Population = 0.
.....
.....
.....
.....
.....

Generation = 9, Population = 0.
.....
.....
.....
.....
.....

Generation = 10, Population = 0.
.....
.....
.....
.....
.....

Generation = 11, Population = 0.
.....
.....
.....
.....
.....

Generation = 12, Population = 0.
.....
.....
.....
.....
.....

Generation = 13, Population = 0.
.....
.....
.....
.....
.....

Generation = 14, Population = 0.
.....
.....
.....
.....
.....

Generation = 15, Population = 0.
.....
.....
.....
.....
.....

Generation = 16, Population = 0.
.....
.....
.....
.....
.....

Generation = 17, Population = 0.
.....
.....
.....
.....
.....

Generation = 18, Population = 0.
.....
.....
.....
.....
.....

*** Life<ConwayCell> 5x5 ***

Generation = 0, Population = 5.
.....
..*..
..*..
....*
**...

Generation = 1, Population = 2.
.....
.....
...*.
.*...
.....

Generation = 2, Population = 0.
.....
.....
.....
.....
.....

Generation = 3, Population = 0.
.....
.....
.....
.....
.....

Generation = 4, Population = 0.
.....
.....
.....
.....
.....

*** Life<ConwayCell> 5x5 ***

Generation = 0, Population = 6.
.....
..*.*
*.*.*
....*
.....

Generation = 1, Population = 4.
.....
.*...
.*..*
...*.
.....

Generation = 2, Population = 1.
.....
.....
..*..
.....
.....

Generation = 3, Population = 0.
.....
.....
.....
.....
.....

Generation = 4, Population = 0.
.....
.....
.....
.....
.....

Generation = 5, Population = 0.
.....
.....
.....
.....
.....

Generation = 6, Population = 0.
.....
.....
.....
.....
.....

Generation = 7, Population = 0.
.....
.....
.....
.....
.....

Generation = 8, Population = 0.
.....
.....
.....
.....
.....

Generation = 9, Population = 0.
.....
.....
.....
.....
.....

Generation = 10, Population = 0.
.....
.....
.....
.....
.....

Generation = 11, Population = 0.
.....
.....
.....
.....
.....

Generation = 12, Population = 0.
.....
.....
.....
.....
.....

Generation = 13, Population = 0.
.....
.....
.....
.....
.....

Generation = 14, Population = 0.
.....
.....
.....
.....
.....

Generation = 15, Population = 0.
.....
.....
.....
.....
.....

Generation = 16, Population = 0.
.....
.....
.....
.....
.....

Generation = 17, Population = 0.
.....
.....
.....
.....
.....

Generation = 18, Population = 0.
.....
.....
.....
.....
.....

Generation = 19, Population = 0.
.....
.....
.....
.....
.....

Generation = 20, Population = 0.
.....
.....
.....
.....
.....

Generation = 21, Population = 0.
.....
.....
.....
.....
.....

*** Life<ConwayCell> 5x5 ***

Generation = 0, Population = 13.
.....
....*
****.
.****
**.**

Generation = 1, Population = 7.
.....
.***.
*....
.....
**..*

Generation = 2, Population = 7.
..*..
.**..
.**..
**...
.....

Generation = 3, Population = 6.
.**..
...*.
.....
***..
.....

Generation = 4, Population = 6.
..*..
..*..
.**..
.*...
.*...

Generation = 5, Population = 6.
.....
..**.
.**..
**...
.....

Generation = 6, Population = 8.
.....
.***.
*..*.
***..
.....

Generation = 7, Population = 10.
..*..
.***.
*..*.
***..
.*...

Generation = 8, Population = 12.
.***.
.*.*.
*..*.
*.*..
***..

Generation = 9, Population = 13.
.*.*.
**.**
*..*.
*.**.
*.*..

Generation = 10, Population = 14.
**.**
**.**
*....
*.**.
..**.

Generation = 11, Population = 13.
**.**
...**
*...*
..**.
.***.

Generation = 12, Population = 11.
..***
***..
..*.*
....*
.*.*.

Generation = 13, Population = 6.
..**.
....*
..*..
..*.*
.....

Generation = 14, Population = 3.
...*.
..*..
.....
...*.
.....

Generation = 15, Population = 0.
.....
.....
.....
.....
.....

Generation = 16, Population = 0.
.....
.....
.....
.....
.....

Generation = 17, Population = 0.
.....
.....
.....
.....
.....

Generation = 18, Population = 0.
.....
.....
.....
.....
.....

Generation = 19, Population = 0.
.....
.....
.....
.....
.....

Generation = 20, Population = 0.
.....
.....
.....
.....
.....

Generation = 21, Population = 0.
.....
.....
.....
.....
.....

Generation = 22, Population = 0.
.....
.....
.....
.....
.....

Generation = 23, Population = 0.
.....
.....
.....
.....
.....

*** Life<ConwayCell> 5x5 ***

Generation = 0, Population = 9.
.....
.*.*.
....*
**...
****.

Generation = 1, Population = 7.
.....
.....
***..
*..*.
*.*..

Generation = 2, Population = 7.
.....
.*...
***..
*..*.
.*...

Generation = 3, Population = 6.
.....
***..
*.*..
*....
.....

Generation = 4, Population = 6.
.*...
*.*..
*.*..
.*...
.....

Generation = 5, Population = 6.
.*...
*.*..
*.*..
.*...
.....

Generation = 6, Population = 6.
.*...
*.*..
*.*..
.*...
.....

Generation = 7, Population = 6.
.*...
*.*..
*.*..
.*...
.....

Generation = 8, Population = 6.
.*...
*.*..
*.*..
.*...
.....

Generation = 9, Population = 6.
.*...
*.*..
*.*..
.*...
.....

Generation = 10, Population = 6.
.*...
*.*..
*.*..
.*...
.....

Generation = 11, Population = 6.
.*...
*.*..
*.*..
.*...
.....

*** Life<ConwayCell> 5x5 ***

Generation = 0, Population = 6.
.....
...*.
.**..
.*...
.**..

Generation = 1, Population = 6.
.....
..*..
.**..
*....
.**..

Generation = 2, Population = 6.
.....
.**..
.**..
*....
.*...

Generation = 3, Population = 6.
.....
.**..
*.*..
*.*..
.....

*** Life<ConwayCell> 5x5 ***

Generation = 0, Population = 12.
.....
.*..*
*****
.*...
.****

Generation = 1, Population = 9.
.....
**..*
*..**
.....
.***.

Generation = 2, Population = 11.
.....
**.**
**.**
.*..*
..*..

Generation = 3, Population = 7.
.....
**.**
.....
**..*
.....

Generation = 4, Population = 3.
.....
.....
..***
.....
.....

Generation = 5, Population = 3.
.....
...*.
...*.
...*.
.....

Generation = 6, Population = 3.
.....
.....
..***
.....
.....

Generation = 7, Population = 3.
.....
...*.
...*.
...*.
.....

Generation = 8, Population = 3.
.....
.....
..***
.....
.....

Generation = 9, Population = 3.
.....
...*.
...*.
...*.
.....

Generation = 10, Population = 3.
.....
.....
..***
.....
.....

Generation = 11, Population = 3.
.....
...*.
...*.
...*.
.....

Generation = 12, Population = 3.
.....
.....
..***
.....
.....

Generation = 13, Population = 3.
.....
...*.
...*.
...*.
.....

Generation = 14, Population = 3.
.....
.....
..***
.....
.....

Generation = 15, Population = 3.
.....
...*.
...*.
...*.
.....

*** Life<ConwayCell> 5x5 ***

Generation = 0, Population = 1.
.....
.....
.....
.....
.*...

Generation = 1, Population = 0.
.....
.....
.....
.....
.....

Generation = 2, Population = 0.
.....
.....
.....
.....
.....

Generation = 3, Population = 0.
.....
.....
.....
.....
.....

Generation = 4, Population = 0.
.....
.....
.....
.....
.....

Generation = 5, Population = 0.
.....
.....
.....
.....
.....

Generation = 6, Population = 0.
.....
.....
.....
.....
.....

Generation = 7, Population = 0.
.....
.....
.....
.....
.....

Generation = 8, Population = 0.
.....
.....
.....
.....
.....

Generation = 9, Population = 0.
.....
.....
.....
.....
.....

Generation = 10, Population = 0.
.....
.....
.....
.....
.....

Generation = 11, Population = 0.
.....
.....
.....
.....
.....

Generation = 12, Population = 0.
.....
.....
.....
.....
.....

Generation = 13, Population = 0.
.....
.....
.....
.....
.....

Generation = 14, Population = 0.
.....
.....
.....
.....
.....

Generation = 15, Population = 0.
.....
.....
.....
.....
.....

Generation = 16, Population = 0.
.....
.....
.....
.....
.....

*** Life<ConwayCell> 5x5 ***

Generation = 0, Population = 2.
.....
.....
*....
..*..
.....

Generation = 1, Population = 0.
.....
.....
.....
.....
.....

Generation = 2, Population = 0.
.....
.....
.....
.....
.....

Generation = 3, Population = 0.
.....
.....
.....
.....
.....

Generation = 4, Population = 0.
.....
.....
.....
.....
.....

Generation = 5, Population = 0.
.....
.....
.....
.....
.....

Generation = 6, Population = 0.
.....
.....
.....
.....
.....

Generation = 7, Population = 0.
.....
.....
.....
.....
.....

Generation = 8, Population = 0.
.....
.....
.....
.....
.....

Generation = 9, Population = 0.
.....
.....
.....
.....
.....

Generation = 10, Population = 0.
.....
.....
.....
.....
.....

Generation = 11, Population = 0.
.....
.....
.....
.....
.....

Generation = 12, Population = 0.
.....
.....
.....
.....
.....

Generation = 13, Population = 0.
.....
.....
.....
.....
.....

Generation = 14, Population = 0.
.....
.....
.....
.....
.....

Generation = 15, Population = 0.
.....
.....
.....
.....
.....

Generation = 16, Population = 0.
.....
.....
.....
.....
.....

*** Life<ConwayCell> 5x5 ***

Generation = 0, Population = 9.
.....
.**..
*..**
**...
.*.*.

Generation = 1, Population = 12.
.....
.***.
*..*.
**.**
***..

Generation = 2, Population = 10.
..*..
.***.
*....
...**
*.**.

*** Life<ConwayCell> 5x5 ***

Generation = 0, Population = 6.
.....
.*.*.
..**.
...*.
...*.

Generation = 1, Population = 5.
.....
...*.
...**
...**
.....

Generation = 2, Population = 5.
.....
...**
..*..
...**
.....

Generation = 3, Population = 3.
.....
...*.
..*..
...*.
.....

Generation = 4, Population = 2.
.....
.....
..**.
.....
.....

Generation = 5, Population = 0.
.....
.....
.....
.....
.....

Generation = 6, Population = 0.
.....
.....
.....
.....
.....

Generation = 7, Population = 0.
.....
.....
.....
.....
.....

Generation = 8, Population = 0.
.....
.....
.....
.....
.....

Generation = 9, Population = 0.
.....
.....
.....
.....
.....

Generation = 10, Population = 0.
.....
.....
.....
.....
.....

*** Life<ConwayCell> 5x5 ***

Generation = 0, Population = 7.
.....
..*..
*....
**.**
.*...

Generation = 1, Population = 9.
.....
.....
*.**.
***..
***..

Generation = 2, Population = 5.
.....
.....
*.**.
.....
*.*..

Generation = 3, Population = 2.
.....
.....
.....
..**.
.....

Generation = 4, Population = 0.
.....
.....
.....
.....
.....

Generation = 5, Population = 0.
.....
.....
.....
.....
.....

Generation = 6, Population = 0.
.....
.....
.....
.....
.....

Generation = 7, Population = 0.
.....
.....
.....
.....
.....

*** Life<ConwayCell> 5x5 ***

Generation = 0, Population = 12.
.....
.*.**
*.*.*
**.**
..**.

Generation = 1, Population = 11.
.....
.****
*....
*...*
.****

Generation = 2, Population = 15.
..**.
.***.
*.*.*
*.*.*
.****

Generation = 3, Population = 10.
.*.*.
....*
*...*
*...*
.**.*

Generation = 4, Population = 8.
.....
...**
...**
*...*
.*.*.

Generation = 5, Population = 4.
.....
...**
.....
..*.*
.....

Generation = 6, Population = 1.
.....
.....
....*
.....
.....

Generation = 7, Population = 0.
.....
.....
.....
.....
.....

Generation = 8, Population = 0.
.....
.....
.....
.....
.....

Generation = 9, Population = 0.
.....
.....
.....
.....
.....

Generation = 10, Population = 0.
.....
.....
.....
.....
.....

Generation = 11, Population = 0.
.....
.....
.....
.....
.....

Generation = 12, Population = 0.
.....
.....
.....
.....
.....

Generation = 13, Population = 0.
.....
.....
.....
.....
.....

Generation = 14, Population = 0.
.....
.....
.....
.....
.....

Generation = 15, Population = 0.
.....
.....
.....
.....
.....

Generation = 16, Population = 0.
.....
.....
.....
.....
.....

Generation = 17, Population = 0.
.....
.....
.....
.....
.....

Generation = 18, Population = 0.
.....
.....
.....
.....
.....

Generation = 19, Population = 0.
.....
.....
.....
.....
.....

Generation = 20, Population = 0.
.....
.....
.....
.....
.....

*** Life<ConwayCell> 5x5 ***

Generation = 0, Population = 11.
.....
.**..
.****
.**.*
..**.

Generation = 1, Population = 7.
.....
.*...
*...*
....*
.***.

Generation = 2, Population = 5.
.....
.....
.....
.**.*
..**.

Generation = 3, Population = 5.
.....
.....
.....
.**..
.***.

Generation = 4, Population = 4.
.....
.....
.....
.*.*.
.*.*.

Generation = 5, Population = 0.
.....
.....
.....
.....
.....

*** Life<ConwayCell> 5x5 ***

Generation = 0, Population = 3.
.....
....*
.....
*....
.*...

Generation = 1, Population = 0.
.....
.....
.....
.....
.....

Generation = 2, Population = 0.
.....
.....
.....
.....
.....

Generation = 3, Population = 0.
.....
.....
.....
.....
.....

Generation = 4, Population = 0.
.....
.....
.....
.....
.....

Generation = 5, Population = 0.
.....
.....
.....
.....
.....

Generation = 6, Population = 0.
.....
.....
.....
.....
.....

Generation = 7, Population = 0.
.....
.....
.....
.....
.....

*** Life<ConwayCell> 5x5 ***

Generation = 0, Population = 2.
.....
.....
.....
..**.
.....

Generation = 1, Population = 0.
.....
.....
.....
.....
.....

Generation = 2, Population = 0.
.....
.....
.....
.....
.....

Generation = 3, Population = 0.
.....
.....
.....
.....
.....

Generation = 4, Population = 0.
.....
.....
.....
.....
.....

Generation = 5, Population = 0.
.....
.....
.....
.....
.....

Generation = 6, Population = 0.
.....
.....
.....
.....
.....

Generation = 7, Population = 0.
.....
.....
.....
.....
.....

Generation = 8, Population = 0.
.....
.....
.....
.....
.....

Generation = 9, Population = 0.
.....
.....
.....
.....
.....

Generation = 10, Population = 0.
.....
.....
.....
.....
.....

Generation = 11, Population = 0.
.....
.....
.....
.....
.....

Generation = 12, Population = 0.
.....
.....
.....
.....
.....

Generation = 13, Population = 0.
.....
.....
.....
.....
.....

*** Life<ConwayCell> 5x5 ***

Generation = 0, Population = 12.
.....
..*.*
.*..*
*****
.*.**

Generation = 1, Population = 7.
.....
...*.
*...*
*....
**..*

Generation = 2, Population = 3.
.....
.....
.....
*....
**...

Generation = 3, Population = 4.
.....
.....
.....
**...
**...

Generation = 4, Population = 4.
.....
.....
.....
**...
**...

*** Life<ConwayCell> 5x5 ***

Generation = 0, Population = 1.
.....
.....
.....
.....
.*...

Generation = 1, Population = 0.
.....
.....
.....
.....
.....

Generation = 2, Population = 0.
.....
.....
.....
.....
.....

Generation = 3, Population = 0.
.....
.....
.....
.....
.....

Generation = 4, Population = 0.
.....
.....
.....
.....
.....

Generation = 5, Population = 0.
.....
.....
.....
.....
.....

Generation = 6, Population = 0.
.....
.....
.....
.....
.....

Generation = 7, Population = 0.
.....
.....
.....
.....
.....

Generation = 8, Population = 0.
.....
.....
.....
.....
.....

Generation = 9, Population = 0.
.....
.....
.....
.....
.....

Generation = 10, Population = 0.
.....
.....
.....
.....
.....

Generation = 11, Population = 0.
.....
.....
.....
.....
.....

Generation = 12, Population = 0.
.....
.....
.....
.....
.....

Generation = 13, Population = 0.
.....
.....
.....
.....
.....

Generation = 14, Population = 0.
.....
.....
.....
.....
.....

Generation = 15, Population = 0.
.....
.....
.....
.....
.....

Generation = 16, Population = 0.
.....
.....
.....
.....
.....

Generation = 17, Population = 0.
.....
.....
.....
.....
.....

Generation = 18, Population = 0.
.....
.....
.....
.....
.....

Generation = 19, Population = 0.
.....
.....
.....
.....
.....

Generation = 20, Population = 0.
.....
.....
.....
.....
.....

Generation = 21, Population = 0.
.....
.....
.....
.....
.....

*** Life<ConwayCell> 5x5 ***

Generation = 0, Population = 3.
.....
.*...
.....
.*...
...*.

Generation = 1, Population = 0.
.....
.....
.....
.....
.....

Generation = 2, Population = 0.
.....
.....
.....
.....
.....

Generation = 3, Population = 0.
.....
.....
.....
.....
.....

Generation = 4, Population = 0.
.....
.....
.....
.....
.....

Generation = 5, Population = 0.
.....
.....
.....
.....
.....

Generation = 6, Population = 0.
.....
.....
.....
.....
.....

Generation = 7, Population = 0.
.....
.....
.....
.....
.....

Generation = 8, Population = 0.
.....
.....
.....
.....
.....

Generation = 9, Population = 0.
.....
.....
.....
.....
.....

Generation = 10, Population = 0.
.....
.....
.....
.....
.....

*** Life<ConwayCell> 5x5 ***

Generation = 0, Population = 8.
.....
.*..*
**...
*...*
*.*..

Generation = 1, Population = 6.
.....
**...
**...
*....
.*...

Generation = 2, Population = 3.
.....
**...
.....
*....
.....

Generation = 3, Population = 2.
.....
.....
**...
.....
.....

Generation = 4, Population = 0.
.....
.....
.....
.....
.....

Generation = 5, Population = 0.
.....
.....
.....
.....
.....

Generation = 6, Population = 0.
.....
.....
.....
.....
.....

Generation = 7, Population = 0.
.....
.....
.....
.....
.....

Generation = 8, Population = 0.
.....
.....
.....
.....
.....

Generation = 9, Population = 0.
.....
.....
.....
.....
.....

Generation = 10, Population = 0.
.....
.....
.....
.....
.....

Generation = 11, Population = 0.
.....
.....
.....
.....
.....

Generation = 12, Population = 0.
.....
.....
.....
.....
.....

Generation = 13, Population = 0.
.....
.....
.....
.....
.....

Generation = 14, Population = 0.
.....
.....
.....
.....
.....

Generation = 15, Population = 0.
.....
.....
.....
.....
.....

Generation = 16, Population = 0.
.....
.....
.....
.....
.....

